<?xml version="1.0" encoding="UTF-8"?>
<svg width="48px" height="48px" viewBox="0 0 48 48" version="1.1" xmlns="http://www.w3.org/2000/svg" xmlns:xlink="http://www.w3.org/1999/xlink">
    <!-- Generator: Sketch 63.1 (92452) - https://sketch.com -->
    <title>mahle/icon/close</title>
    <desc>Created with Sketch.</desc>
    <g id="mahle/icon/close" stroke="none" stroke-width="1" fill="none" fill-rule="evenodd">
        <g id="Group-3" transform="translate(24.000000, 24.000000) rotate(-315.000000) translate(-24.000000, -24.000000) translate(-5.000000, -5.000000)">
            <rect id="Rectangle" transform="translate(29.000000, 29.000000) rotate(-45.000000) translate(-29.000000, -29.000000) " x="9" y="9" width="40" height="40"></rect>
            <g id="Group" transform="translate(29.000000, 29.000000) rotate(-45.000000) translate(-29.000000, -29.000000) translate(9.000000, 9.000000)" fill="#34B3E2">
                <g id="Group-2" transform="translate(20.000000, 19.828427) rotate(-315.000000) translate(-20.000000, -19.828427) translate(6.000000, 5.828427)">
                    <path d="M14,0 C14.5522847,-1.01453063e-16 15,0.44771525 15,1 L15,27 C15,27.5522847 14.5522847,28 14,28 C13.4477153,28 13,27.5522847 13,27 L13,1 C13,0.44771525 13.4477153,1.01453063e-16 14,0 Z" id="Rectangle-Copy" transform="translate(14.000000, 14.000000) rotate(-270.000000) translate(-14.000000, -14.000000) "></path>
                    <path d="M14,0 C14.5522847,-1.01453063e-16 15,0.44771525 15,1 L15,27 C15,27.5522847 14.5522847,28 14,28 C13.4477153,28 13,27.5522847 13,27 L13,1 C13,0.44771525 13.4477153,1.01453063e-16 14,0 Z" id="Rectangle-Copy" transform="translate(14.000000, 14.000000) rotate(-540.000000) translate(-14.000000, -14.000000) "></path>
                </g>
            </g>
        </g>
        <rect id="Rectangle-Copy-59" x="44" y="44" width="4" height="4"></rect>
        <rect id="Rectangle-Copy-60" x="0" y="0" width="4" height="4"></rect>
        <rect id="Rectangle-Copy-62" x="44" y="0" width="4" height="4"></rect>
    </g>
</svg>
