<?xml version="1.0" encoding="utf-8"?>
<!-- Generator: Adobe Illustrator 24.0.0, SVG Export Plug-In . SVG Version: 6.00 Build 0)  -->
<svg version="1.1" id="Layer_1" xmlns="http://www.w3.org/2000/svg" xmlns:xlink="http://www.w3.org/1999/xlink" x="0px" y="0px" width="20px" height="20px"
	 viewBox="0 0 20 20" style="enable-background:new 0 0 20 20;" xml:space="preserve">
<style type="text/css">
	.st0{fill-rule:evenodd;clip-rule:evenodd;fill:#34B3E2;}
</style>
<g id="mahle_x2F_icon_x2F_close">
	
		<g id="Group-3" transform="translate(24.000000, 24.000000) rotate(-315.000000) translate(-24.000000, -24.000000) translate(-5.000000, -5.000000)">
		
			<g id="Group" transform="translate(29.000000, 29.000000) rotate(-45.000000) translate(-29.000000, -29.000000) translate(9.000000, 9.000000)">
			
				<g id="Group-2" transform="translate(20.000000, 19.828427) rotate(-315.000000) translate(-20.000000, -19.828427) translate(6.000000, 5.828427)">
				<path id="Rectangle-Copy" class="st0" d="M8,14.1c0,0.6-0.4,1-1,1h-25.4c-0.6,0-1-0.4-1-1s0.4-1,1-1H7C7.5,13.1,8,13.6,8,14.1z"
					/>
				<path id="Rectangle-Copy_1_" class="st0" d="M-5.7,27.8c-0.6,0-1-0.4-1-1V1.4c0-0.6,0.4-1,1-1s1,0.4,1,1v25.4
					C-4.7,27.4-5.2,27.8-5.7,27.8z"/>
			</g>
		</g>
	</g>
</g>
</svg>
