<?xml version="1.0" encoding="utf-8"?>
<!-- Generator: Adobe Illustrator 23.1.1, SVG Export Plug-In . SVG Version: 6.00 Build 0)  -->
<svg version="1.1" id="_x3C_highlight_x5F_innovation_x3E_"
	 xmlns="http://www.w3.org/2000/svg" xmlns:xlink="http://www.w3.org/1999/xlink" x="0px" y="0px" width="130px" height="130px" viewBox="0 0 130 130"
	 style="enable-background:new 0 0 130 130;" xml:space="preserve">
<style type="text/css">
	.st0{fill:#43B02A;}
</style>
<path id="_x3C_anerkennung_x3E_" class="st0" d="M65,130C29.159,130,0,100.842,0,65.001S29.159,0,65,0S130,29.159,130,65.001
	S100.842,130,65,130z M65,3.004c-34.185,0-61.996,27.811-61.996,61.996c0,34.184,27.811,61.995,61.996,61.995
	c34.184,0,61.995-27.811,61.995-61.995C126.995,30.815,99.184,3.004,65,3.004z M40.219,101.273c-2.773,0-5.648-0.449-7.21-0.739
	c-0.449-0.085-0.829-0.381-1.02-0.792c-0.189-0.414-0.169-0.895,0.057-1.288c1.089-1.907,3.866-6.546,6.101-8.353
	c1.74-1.408,3.99-2.033,6.298-1.845c-3.364-3.227-6.106-7.109-8.019-11.443c-0.154-0.106-0.276-0.264-0.339-0.455l-1.259-1.599
	c-2.315-2.526-5.806-3.48-8.639-2.333c-2.284,0.921-5.908,4.163-7.454,5.604c3.66,1.843,8.244,3.568,10.68,3.098
	c1.495-0.279,2.805-1.147,3.641-1.825c0.387-0.311,0.955-0.252,1.267,0.135c0.314,0.384,0.255,0.954-0.132,1.267
	c-0.999,0.807-2.579,1.845-4.444,2.195c-3.638,0.678-9.839-2.23-12.33-3.518c-0.411-0.217-0.688-0.613-0.751-1.065
	c-0.062-0.452,0.1-0.91,0.431-1.221c1.62-1.54,5.686-5.24,8.415-6.343c2.99-1.209,6.518-0.581,9.268,1.534
	c-0.914-3.166-1.404-6.515-1.404-9.974c0-2.494,0.849-8.476,0.895-8.793l0.292-2.064c0.195-3.05-1.338-5.903-3.823-7.034
	c-1.646-0.745-5.165-1.187-8.127-1.369c1.084,3.515,2.796,7.489,4.574,8.767c0.747,0.54,1.708,0.926,2.858,1.146
	c0.49,0.092,0.81,0.565,0.716,1.053c-0.092,0.49-0.574,0.808-1.053,0.716c-1.413-0.268-2.614-0.758-3.575-1.452
	c-2.755-1.98-4.715-7.876-5.429-10.32c-0.126-0.414-0.04-0.877,0.235-1.226c0.274-0.351,0.698-0.547,1.15-0.516
	c2.005,0.101,6.956,0.456,9.396,1.561c2.542,1.156,4.306,3.681,4.771,6.629l0.967-0.867c3.044-2.349,6.996-2.692,9.88-0.892
	c2.209,1.379,5.193,5.221,6.373,6.81c0.264,0.356,0.339,0.817,0.202,1.234c-0.135,0.415-0.465,0.739-0.88,0.87
	c-2.362,0.745-8.2,2.35-11.302,1.179c-1.373-0.521-2.456-1.445-3.122-2.129c-0.348-0.356-0.34-0.927,0.016-1.275
	c0.356-0.349,0.926-0.34,1.275,0.016c0.54,0.555,1.405,1.298,2.467,1.7c1.983,0.754,6.107-0.009,9.516-1.025
	c-1.166-1.534-3.726-4.744-5.5-5.852c-2.249-1.401-5.374-1.102-7.775,0.748l-1.461,1.314c-0.157,0.141-0.352,0.216-0.547,0.227
	c-0.003,0.057-0.006,0.114-0.01,0.172l-0.299,2.132c-0.043,0.308-0.877,6.164-0.877,8.541c0,2.19,0.207,4.333,0.603,6.409
	c0.672-2.104,1.997-3.89,3.822-5.001c2.492-1.515,7.892-2.575,10.097-2.959c0.453-0.082,0.921,0.07,1.244,0.393
	c0.324,0.324,0.471,0.788,0.395,1.24c-0.462,2.768-1.835,9.487-4.58,12.007c-0.961,0.889-2.206,1.578-3.7,2.054
	c-0.483,0.153-0.981-0.114-1.133-0.587c-0.15-0.475,0.113-0.98,0.587-1.133c0.852-0.27,2.068-0.778,3.023-1.661
	c1.826-1.675,3.207-6.392,3.93-10.441c-2.082,0.381-6.845,1.36-8.928,2.626c-2.617,1.593-3.945,4.975-3.302,8.416l0.29,1.091
	c2.161,5.501,5.71,10.307,10.21,13.98c-1.097-3.324-0.505-6.863,1.636-9.254c1.826-2.039,6.198-4.422,8.641-5.66
	c0.418-0.205,0.898-0.197,1.303,0.021c0.398,0.217,0.667,0.613,0.72,1.065c0.354,2.717,0.976,9.4-0.896,12.575
	c-0.817,1.379-2.026,2.382-2.897,2.981c-0.406,0.29-0.971,0.182-1.253-0.232c-0.283-0.411-0.179-0.971,0.232-1.253
	c0.722-0.496,1.718-1.317,2.368-2.415c1.237-2.098,1.196-6.886,0.728-10.873c-2.082,1.077-6.047,3.257-7.6,4.994
	c-2.002,2.236-2.29,5.777-0.717,8.811l0.973,1.581c4.147,2.644,8.905,4.41,14.007,5.032c5.129-0.631,9.902-2.406,14.063-5.058
	l0.989-1.614c1.543-2.978,1.256-6.519-0.745-8.752c-1.581-1.763-5.742-4.028-7.605-4.994c-0.467,3.99-0.505,8.781,0.731,10.876
	c0.648,1.091,1.646,1.916,2.365,2.412c0.411,0.282,0.513,0.845,0.232,1.253c-0.288,0.414-0.845,0.516-1.253,0.232
	c-0.871-0.599-2.077-1.602-2.896-2.978c-1.869-3.169-1.25-9.858-0.898-12.587c0.059-0.449,0.329-0.845,0.728-1.059
	c0.396-0.217,0.877-0.223,1.285-0.023c2.45,1.238,6.816,3.615,8.655,5.666c2.142,2.391,2.732,5.935,1.649,9.227
	c4.492-3.667,8.03-8.456,10.187-13.933l0.311-1.177c0.631-3.377-0.695-6.758-3.315-8.352c-2.086-1.266-6.842-2.243-8.928-2.626
	c0.725,4.053,2.104,8.765,3.929,10.441c0.956,0.883,2.174,1.391,3.025,1.661c0.475,0.153,0.736,0.657,0.587,1.133
	c-0.153,0.475-0.66,0.742-1.133,0.587c-1.493-0.475-2.737-1.165-3.7-2.054c-2.746-2.523-4.116-9.239-4.58-12.01
	c-0.079-0.446,0.067-0.911,0.393-1.235c0.326-0.327,0.801-0.477,1.241-0.395c2.206,0.384,7.605,1.442,10.102,2.959
	c1.828,1.112,3.151,2.9,3.826,4.995c0.393-2.076,0.601-4.215,0.601-6.403c0-2.569-0.871-8.476-0.88-8.535l-0.293-2.07
	c-0.006-0.079-0.009-0.158-0.015-0.239c-0.197-0.01-0.39-0.087-0.549-0.227l-1.514-1.355c-2.347-1.809-5.466-2.108-7.725-0.706
	c-1.755,1.096-4.325,4.31-5.498,5.85c3.409,1.017,7.529,1.775,9.521,1.025c1.053-0.4,1.925-1.147,2.47-1.702
	c0.346-0.355,0.915-0.361,1.273-0.013c0.355,0.349,0.361,0.92,0.012,1.275c-0.962,0.981-2.039,1.716-3.119,2.126
	c-3.107,1.166-8.94-0.434-11.305-1.178c-0.414-0.131-0.742-0.455-0.88-0.867c-0.135-0.418-0.062-0.877,0.197-1.232
	c1.191-1.598,4.187-5.447,6.376-6.814c2.89-1.801,6.842-1.458,9.832,0.851l1.027,0.917c0.469-2.972,2.227-5.484,4.762-6.637
	c2.444-1.108,7.391-1.463,9.406-1.564c0.44-0.035,0.863,0.166,1.138,0.516s0.361,0.813,0.232,1.24
	c-0.71,2.429-2.664,8.324-5.428,10.31c-0.956,0.692-2.159,1.181-3.571,1.451c-0.505,0.106-0.962-0.226-1.056-0.716
	c-0.094-0.489,0.229-0.961,0.716-1.053c1.153-0.222,2.112-0.606,2.858-1.144c1.784-1.284,3.497-5.262,4.574-8.768
	c-2.966,0.182-6.478,0.623-8.124,1.37c-2.485,1.13-4.02,3.984-3.817,7.1l0.285,1.997c0.035,0.242,0.898,6.094,0.898,8.793
	c0,3.464-0.49,6.814-1.408,9.986c2.776-2.139,6.302-2.752,9.271-1.546c2.717,1.097,6.792,4.803,8.415,6.343
	c0.332,0.317,0.493,0.775,0.428,1.223c-0.065,0.452-0.343,0.848-0.748,1.059c-2.488,1.288-8.661,4.207-12.334,3.521
	c-1.866-0.349-3.444-1.388-4.442-2.198c-0.384-0.311-0.443-0.88-0.129-1.267c0.308-0.384,0.883-0.449,1.267-0.129
	c0.833,0.675,2.142,1.543,3.635,1.822c2.438,0.449,7.018-1.256,10.686-3.098c-1.549-1.444-5.178-4.686-7.455-5.604
	c-2.831-1.153-6.326-0.191-8.682,2.382l-1.215,1.549c-0.062,0.191-0.185,0.349-0.34,0.458c-1.916,4.333-4.665,8.218-8.039,11.448
	c2.318-0.205,4.574,0.428,6.317,1.837c2.327,1.881,5.261,6.871,6.103,8.356c0.223,0.387,0.246,0.868,0.059,1.282
	c-0.191,0.414-0.569,0.71-1.018,0.795c-2.705,0.499-9.336,1.482-12.575-0.217c-1.133-0.593-2.186-1.514-3.128-2.737
	c-0.302-0.396-0.229-0.959,0.167-1.265c0.396-0.299,0.959-0.229,1.265,0.167c0.534,0.698,1.408,1.652,2.532,2.239
	c2.139,1.118,6.907,0.822,10.853,0.141c-1.637-2.822-3.829-6.097-5.39-7.358c-2.291-1.851-5.748-1.972-8.652-0.317
	c-0.563,0.42-1.138,0.822-1.728,1.206c-0.135,0.182-0.329,0.302-0.54,0.346c-2.644,1.661-5.516,2.984-8.561,3.908l7.03,0.892
	c0.493,0.065,0.842,0.516,0.78,1.009c-0.062,0.493-0.508,0.827-1.009,0.78l-9.045-1.156c-0.003,0-0.009,0-0.012,0
	c-1.354,0-2.688-0.076-4-0.226c-1.342,0.153-2.705,0.232-4.087,0.232l-8.934,1.15c-0.513,0.035-0.945-0.288-1.008-0.78
	c-0.063-0.493,0.286-0.945,0.779-1.009l6.984-0.892c-3.041-0.927-5.912-2.253-8.554-3.917c-0.183-0.047-0.354-0.153-0.478-0.308
	c-0.635-0.414-1.253-0.848-1.86-1.3c-2.839-1.593-6.266-1.461-8.544,0.381c-1.859,1.502-4.333,5.551-5.387,7.358
	c3.948,0.681,8.715,0.977,10.85-0.141c0.889-0.464,1.766-1.238,2.536-2.239c0.305-0.399,0.87-0.464,1.265-0.167
	c0.395,0.305,0.468,0.871,0.164,1.265c-0.943,1.226-1.997,2.148-3.131,2.737C44.212,101.033,42.243,101.273,40.219,101.273z
	 M96.388,99.349c0,0.003,0.003,0.003,0.003,0.006C96.391,99.352,96.388,99.352,96.388,99.349z M58.249,75.146c0,0,0,0.003,0,0.006
	C58.249,75.149,58.249,75.146,58.249,75.146z M80.439,62.09c0,0.001,0,0.004,0,0.006C80.439,62.095,80.439,62.092,80.439,62.09z
	 M21.99,43.021c0.003,0,0.004,0,0.007,0C21.994,43.021,21.993,43.021,21.99,43.021z M108.018,43.019c-0.003,0-0.003,0-0.006,0.001
	C108.015,43.021,108.015,43.019,108.018,43.019z M107.564,42.459c0,0.003-0.003,0.006-0.003,0.009
	C107.561,42.465,107.564,42.462,107.564,42.459z M22.431,42.447c0.001,0.003,0.003,0.007,0.003,0.01
	C22.434,42.455,22.433,42.45,22.431,42.447z M44.537,43.809c-0.685,0-1.379-0.069-2.074-0.211L40.323,43
	c-0.48-0.135-0.758-0.632-0.625-1.112c0.135-0.478,0.626-0.753,1.112-0.625l2.077,0.582c3.111,0.645,6.249-0.553,7.752-2.972
	c1-1.603,1.948-5.211,2.547-8.255c-3.751,0.625-8.09,1.844-9.66,3.513c-0.653,0.695-1.199,1.665-1.577,2.803
	c-0.158,0.471-0.66,0.729-1.14,0.571c-0.472-0.157-0.728-0.667-0.571-1.14c0.466-1.402,1.13-2.57,1.973-3.468
	c2.409-2.563,8.699-3.76,11.291-4.156c0.443-0.065,0.893,0.084,1.204,0.405c0.311,0.323,0.446,0.779,0.361,1.221
	c-0.383,2.057-1.433,7.108-2.899,9.458C50.608,42.337,47.693,43.809,44.537,43.809z M53.778,30.524c-0.001,0-0.001,0-0.003,0
	C53.777,30.524,53.777,30.524,53.778,30.524z M53.297,30.034c0,0.001,0,0.001-0.001,0.003
	C53.297,30.035,53.297,30.034,53.297,30.034z M85.474,43.8c-3.18,0-6.082-1.47-7.643-3.974c-1.458-2.338-2.511-7.397-2.899-9.462
	c-0.082-0.442,0.053-0.898,0.367-1.219c0.311-0.323,0.763-0.474,1.203-0.402c2.588,0.395,8.881,1.592,11.287,4.155
	c0.845,0.898,1.508,2.066,1.975,3.471c0.156,0.472-0.1,0.983-0.572,1.138c-0.475,0.157-0.983-0.1-1.141-0.572
	c-0.381-1.155-0.912-2.096-1.576-2.802c-1.567-1.671-5.909-2.888-9.659-3.513c0.393,1.986,1.353,6.339,2.547,8.253
	c1.502,2.421,4.659,3.613,7.813,2.959l2.016-0.568c0.487-0.139,0.977,0.147,1.112,0.625c0.135,0.48-0.147,0.977-0.625,1.112
	l-2.077,0.582C86.885,43.729,86.172,43.8,85.474,43.8z M76.226,30.524c0,0,0,0.001,0.003,0.001L76.226,30.524z"/>
</svg>
