<?xml version="1.0" encoding="utf-8"?>
<!-- Generator: Adobe Illustrator 23.1.1, SVG Export Plug-In . SVG Version: 6.00 Build 0)  -->
<svg version="1.1" id="_x3C_highlight_x5F_schluesselkomponente_x3E_"
	 xmlns="http://www.w3.org/2000/svg" xmlns:xlink="http://www.w3.org/1999/xlink" x="0px" y="0px" width="130px" height="130px" viewBox="0 0 130 130"
	 style="enable-background:new 0 0 130 130;" xml:space="preserve">
<style type="text/css">
	.st0{fill:#43B02A;}
</style>
<path id="_x3C_zahnrad_x3E_" class="st0" d="M65,130C29.159,130,0,100.842,0,65.001S29.159,0,65,0S130,29.159,130,65.001
	S100.842,130,65,130z M65,3.004c-34.185,0-61.996,27.811-61.996,61.996c0,34.184,27.811,61.995,61.996,61.995
	c34.184,0,61.995-27.811,61.995-61.995C126.995,30.815,99.184,3.004,65,3.004z M64.999,73.847c-4.878,0-8.844-3.967-8.844-8.846
	c0-4.878,3.967-8.844,8.844-8.844s8.847,3.967,8.847,8.844C73.846,69.88,69.877,73.847,64.999,73.847z M64.999,57.958
	c-3.883,0-7.043,3.16-7.043,7.043c0,3.885,3.16,7.044,7.043,7.044c3.886,0,7.046-3.16,7.046-7.044
	C72.045,61.118,68.885,57.958,64.999,57.958z M64.519,86.709h-0.087l-4.414-0.555c-0.722-0.082-1.288-0.654-1.364-1.391
	l-0.238-2.033l-1.521,1.4c-0.537,0.49-1.329,0.552-1.929,0.158l-3.634-2.418c-0.6-0.396-0.855-1.15-0.616-1.834l0.679-1.945
	l-1.96,0.599c-0.7,0.197-1.43-0.091-1.801-0.689l-2.242-3.732c-0.37-0.622-0.27-1.408,0.239-1.916l1.454-1.464l-2.049-0.317
	c-0.739-0.126-1.294-0.748-1.328-1.488l-0.396-4.281c-0.072-0.717,0.358-1.392,1.047-1.631l1.932-0.676l-1.699-1.165
	c-0.593-0.417-0.829-1.172-0.584-1.844l1.515-4.069c0.255-0.675,0.942-1.083,1.642-1.018l2.046,0.224l-1.024-1.796
	c-0.359-0.625-0.244-1.414,0.282-1.916l3.125-3.001c0.515-0.5,1.304-0.59,1.922-0.208l1.755,1.096l-0.148-2.06
	c-0.022-0.735,0.424-1.37,1.083-1.586l4.121-1.355c0.679-0.226,1.432,0.037,1.822,0.653l1.106,1.752l0.763-1.919
	c0.263-0.679,0.961-1.081,1.686-0.977l4.285,0.566c0.722,0.094,1.279,0.665,1.355,1.386l0.241,2.039l1.526-1.402
	c0.516-0.486,1.309-0.56,1.925-0.158l3.629,2.379c0.61,0.396,0.866,1.156,0.616,1.844l-0.678,1.941l1.966-0.59
	c0.681-0.202,1.42,0.082,1.796,0.687l2.242,3.733c0.367,0.61,0.276,1.395-0.226,1.91l-1.464,1.473l2.051,0.318
	c0.742,0.117,1.3,0.744,1.326,1.488l0.396,4.278c0.076,0.717-0.358,1.392-1.053,1.63l-1.925,0.675l1.699,1.163
	c0.596,0.424,0.83,1.184,0.581,1.856l-1.514,4.061c-0.249,0.669-0.956,1.062-1.631,1.021l-2.057-0.229l1.024,1.796
	c0.358,0.628,0.244,1.417-0.285,1.916l-3.122,3.001c-0.508,0.502-1.303,0.593-1.916,0.211l-1.76-1.097l0.147,2.027
	c0.056,0.728-0.39,1.394-1.083,1.62l-4.119,1.355c-0.681,0.223-1.441-0.047-1.825-0.663l-1.1-1.737l-0.764,1.916
	C65.734,86.325,65.16,86.709,64.519,86.709z M64.499,84.908l0.048,0.006l-0.028-0.006C64.512,84.908,64.505,84.908,64.499,84.908z
	 M60.425,84.388l3.949,0.505l1.354-3.398l1.599-0.147l1.954,3.087l3.785-1.244l-0.261-3.629l1.376-0.83l3.101,1.936l2.875-2.764
	l-1.81-3.172l0.883-1.341l3.618,0.399l1.394-3.738l-3.019-2.067l0.211-1.595l3.442-1.207l-0.367-3.998l-3.618-0.562l-0.502-1.526
	l2.579-2.594l-2.051-3.417l-3.491,1.049l-1.109-1.16l1.206-3.452l-3.324-2.181l-2.693,2.476L70,49.261l-0.425-3.625l-3.948-0.521
	l-1.351,3.398l-1.599,0.148l-1.955-3.094l-3.786,1.244l0.261,3.626l-1.376,0.829l-3.1-1.935l-2.875,2.762l1.809,3.175l-0.882,1.342
	l-3.619-0.399l-1.391,3.735l3.015,2.068l-0.211,1.595l-3.442,1.206l0.37,4.002l3.616,0.557l0.502,1.526l-2.579,2.6l2.051,3.412
	l3.486-1.062l1.113,1.159l-1.207,3.456l3.332,2.218l2.689-2.476l1.505,0.557L60.425,84.388z M69.375,84.582l0.003,0.003
	C69.375,84.582,69.375,84.582,69.375,84.582z M60.445,84.561v0.003V84.561z M60.234,84.365h0.007
	C60.239,84.365,60.237,84.365,60.234,84.365z M77.153,80.794c-0.003,0-0.003,0.003-0.006,0.003L77.153,80.794z M80.284,77.784
	c0,0,0,0-0.003,0H80.284z M82.786,73.955c0,0.003,0,0.003,0,0.003V73.955z M45.506,68.95l0.001,0.012
	C45.507,68.959,45.507,68.953,45.506,68.95z M84.893,65.369c0,0.003,0,0.004,0,0.006V65.369z M85.045,65.124
	c0,0.001,0,0.001-0.003,0.001L85.045,65.124z M45.107,64.632l0.001,0.003C45.107,64.634,45.107,64.632,45.107,64.632z
	 M84.494,61.037c0,0.004,0,0.009,0.003,0.013L84.494,61.037z M77.675,49.627c0,0,0.003,0,0.003,0.001L77.675,49.627z M77.581,49.357
	c0,0.001,0,0.003-0.003,0.004L77.581,49.357z M52.851,49.206l-0.003,0.003C52.849,49.207,52.849,49.207,52.851,49.206z
	 M74.339,47.215l-0.006,0.006C74.336,47.218,74.339,47.216,74.339,47.215z M60.897,45.509l-0.004,0.001
	C60.894,45.51,60.896,45.509,60.897,45.509z M69.554,45.46c0,0.001,0,0.003,0,0.004V45.46z M65.454,45.092
	c0.001,0,0.003,0.001,0.006,0.001L65.454,45.092z M65.696,44.941l-0.001,0.004C65.694,44.944,65.696,44.943,65.696,44.941z
	 M70.769,109.116l-12.42-0.123l-1.755-10.636c-0.304-0.076-0.609-0.161-0.914-0.246c-0.293-0.082-0.585-0.164-0.879-0.238
	l-6.936,8.253L37.154,99.85l3.832-10.078c-0.343-0.326-0.673-0.672-1.011-1.024c-0.109-0.114-0.217-0.229-0.327-0.343l-10.112,3.623
	l-6.037-10.835l8.431-6.789c-0.18-0.613-0.324-1.223-0.461-1.822L20.832,70.61l0.122-12.436l10.639-1.642
	c0.161-0.623,0.358-1.243,0.55-1.825l-8.215-7.011l6.285-10.602l10.074,3.94c0.433-0.453,0.893-0.868,1.353-1.267l-3.615-10.182
	l10.837-6.032l6.802,8.448l1.256-0.342l1.87-10.766h12.317l1.86,10.628c0.607,0.138,1.215,0.285,1.828,0.465l6.904-8.328
	l10.712,6.154l-3.726,10.298c0.355,0.336,0.692,0.691,1.039,1.056c0.103,0.106,0.202,0.211,0.305,0.318l10.21-3.735l6.155,10.716
	l-8.324,6.902c0.179,0.618,0.329,1.228,0.464,1.826l10.627,1.862v12.433l-10.63,1.752c-0.138,0.604-0.282,1.209-0.461,1.819
	l8.344,6.918l-6.525,10.589l-10.061-3.823c-0.323,0.34-0.666,0.666-1.015,0.998c-0.117,0.111-0.235,0.226-0.352,0.34l3.732,10.207
	l-10.712,6.158l-6.904-8.327c-0.616,0.182-1.229,0.329-1.831,0.464L70.769,109.116z M59.881,107.203l9.398,0.094l1.916-10.213
	l0.581-0.129c0.974-0.214,1.895-0.417,2.825-0.728l0.584-0.197l6.713,8.101l8.083-4.644l-3.612-9.87l0.405-0.408
	c0.267-0.267,0.534-0.522,0.795-0.772c0.466-0.44,0.915-0.866,1.317-1.338l0.414-0.484l9.838,3.741l4.917-7.989l-8.077-6.698
	l0.194-0.584c0.308-0.921,0.513-1.84,0.731-2.811l0.132-0.593l0.604-0.117l9.72-1.605v-9.387l-10.322-1.809l-0.132-0.587
	c-0.205-0.93-0.42-1.891-0.733-2.831l-0.194-0.584l8.098-6.713l-4.644-8.082l-9.873,3.612L89.15,43.17
	c-0.252-0.255-0.496-0.511-0.733-0.761c-0.452-0.475-0.889-0.936-1.37-1.348l-0.475-0.406l3.626-10.031l-8.083-4.643l-6.713,8.098
	l-0.584-0.195c-0.924-0.307-1.84-0.512-2.808-0.728l-0.59-0.131l-0.126-0.599l-1.702-9.731h-9.286l-1.807,10.395l-3.494,0.967
	l-6.596-8.189l-8.176,4.551l3.518,9.911l-0.469,0.402c-0.763,0.656-1.464,1.257-2.061,1.955l-0.417,0.486l-9.823-3.842l-4.73,7.979
	l7.986,6.816l-0.192,0.577c-0.311,0.926-0.631,1.881-0.838,2.821l-0.132,0.604l-10.335,1.596l-0.092,9.39l10.32,1.913l0.131,0.581
	c0.229,1.027,0.428,1.928,0.729,2.828l0.198,0.593l-8.212,6.616l4.552,8.171l9.754-3.497l0.403,0.405
	c0.263,0.261,0.512,0.522,0.757,0.78c0.446,0.469,0.877,0.924,1.354,1.332l0.48,0.414l-3.733,9.814l8.083,4.738l6.667-7.933
	l0.534,0.117c0.497,0.111,0.998,0.249,1.498,0.387c0.472,0.132,0.945,0.264,1.417,0.367l0.597,0.132L59.881,107.203z
	 M67.842,101.869h-6.387l-1.382-9.18l-0.354-0.07c-1.455-0.293-2.862-0.687-4.307-1.203l-0.399-0.158l-5.999,7.08l-5.5-3.195
	l3.355-8.688l-0.302-0.264c-1.26-1.144-2.305-2.224-3.116-3.219l-0.257-0.29l-8.795,3.16l-3.072-5.504l7.216-5.93l-0.119-0.399
	c-0.493-1.37-0.798-2.799-1.09-4.26l-0.076-0.373l-9.177-1.68v-6.396l9.085-1.281l0.067-0.345c0.296-1.46,0.689-2.868,1.206-4.309
	l0.158-0.4l-7.093-6.009l3.32-5.484l8.67,3.351l0.267-0.305c1.141-1.257,2.22-2.302,3.217-3.117l0.296-0.26l-3.065-8.799l5.611-3.06
	l5.827,7.21l0.392-0.117c1.187-0.395,2.492-0.797,3.819-0.998l0.321-0.066l1.58-9.18h6.378l1.581,9.081l0.364,0.072
	c1.311,0.175,2.696,0.53,4.31,1.108l0.393,0.157l5.9-7.081l5.498,3.197l-3.271,8.723l0.367,0.368
	c1.05,0.854,2.165,1.969,3.075,3.079l0.252,0.288l8.778-3.257l3.198,5.501l-7.226,5.937l0.12,0.399
	c0.499,1.4,0.801,2.817,1.089,4.262l0.073,0.365l9.277,1.577v6.389l-9.18,1.48l-0.07,0.358c-0.288,1.438-0.681,2.843-1.203,4.307
	l-0.158,0.399l7.08,5.897l-3.192,5.501l-8.685-3.26l-0.27,0.308c-0.895,1.094-2.01,2.209-3.119,3.119l-0.293,0.255l3.157,8.781
	l-5.492,3.192l-5.941-7.223l-0.396,0.117c-1.367,0.493-2.74,0.786-4.26,1.091l-0.373,0.073L67.842,101.869z M63.007,100.068h3.333
	l1.628-8.902l1.571-0.314c1.449-0.293,2.755-0.572,4.055-1.036l1.59-0.478l5.724,6.965l2.869-1.666l-3.063-8.523l1.241-1.086
	c1.044-0.857,2.068-1.881,2.908-2.908l1.112-1.267l8.426,3.16l1.661-2.866l-6.915-5.762l0.634-1.581
	c0.478-1.35,0.848-2.676,1.121-4.022l0.311-1.584l8.905-1.436v-3.332l-8.996-1.53l-0.32-1.58c-0.276-1.38-0.56-2.726-1.033-4.055
	l-0.481-1.592l6.968-5.726l-1.666-2.864l-8.52,3.16l-1.089-1.244c-0.854-1.044-1.881-2.068-2.908-2.911l-1.253-1.25l3.142-8.382
	l-2.864-1.665l-5.765,6.92l-1.578-0.635c-1.458-0.521-2.729-0.848-3.967-1.014l-1.634-0.321l-1.53-8.808h-3.343l-1.533,8.902
	l-1.576,0.317c-1.234,0.189-2.45,0.565-3.588,0.943l-1.577,0.472l-5.642-6.981l-2.947,1.608l2.962,8.506l-1.237,1.08
	c-0.951,0.778-1.964,1.76-3.035,2.94l-1.087,1.241l-8.435-3.26l-1.741,2.875l6.908,5.852l-0.626,1.576
	c-0.475,1.329-0.846,2.655-1.124,4.025l-0.315,1.596l-8.803,1.243v3.327l8.905,1.628l0.314,1.574
	c0.29,1.444,0.569,2.746,1.034,4.052l0.48,1.587l-6.978,5.736l1.593,2.858l8.51-3.06l1.087,1.238
	c0.775,0.951,1.757,1.963,2.941,3.04l1.237,1.086l-3.255,8.423l2.865,1.664l5.864-6.921l1.573,0.634
	c1.329,0.475,2.655,0.845,4.021,1.121l1.593,0.317L63.007,100.068z"/>
</svg>
