<?xml version="1.0" encoding="utf-8"?>
<!-- Generator: Adobe Illustrator 19.2.1, SVG Export Plug-In . SVG Version: 6.00 Build 0)  -->
<svg version="1.1" id="_x33_60_x5F_grad" xmlns="http://www.w3.org/2000/svg" xmlns:xlink="http://www.w3.org/1999/xlink" x="0px"
	 y="0px" viewBox="0 0 235 345" style="enable-background:new 0 0 235 345;" xml:space="preserve">
<style type="text/css">
	.st0{fill:#1E2A63;}
	.st1{fill:#41B6E6;}
</style>
<path id="_x30_3" class="st0" d="M117.5,275.738c-17.92,0-32.5,14.579-32.5,32.5s14.58,32.5,32.5,32.5
	c17.921,0,32.5-14.579,32.5-32.5S135.421,275.738,117.5,275.738z M117.5,339.236c-17.092,0-30.998-13.905-30.998-30.998
	s13.906-30.998,30.998-30.998c17.093,0,30.998,13.905,30.998,30.998S134.593,339.236,117.5,339.236z M140.139,308.629
	c0,0.869-0.707,1.576-1.575,1.576s-1.574-0.707-1.574-1.576c0-0.166,0.135-0.301,0.301-0.301s0.301,0.135,0.301,0.301
	c0,0.537,0.437,0.975,0.973,0.975c0.537,0,0.974-0.438,0.974-0.975s-0.437-0.975-0.974-0.975c-0.166,0-0.301-0.135-0.301-0.301
	s0.135-0.301,0.301-0.301C139.432,307.053,140.139,307.76,140.139,308.629z M112.97,294.157l0.031-6.209
	c0-0.74,0.604-1.344,1.346-1.344h1.832c0.129-0.152,0.315-0.254,0.53-0.254c0.389,0,0.705,0.315,0.705,0.705
	c0,0.389-0.315,0.705-0.705,0.705c-0.216,0-0.402-0.102-0.531-0.255h-1.831c-0.245,0-0.445,0.2-0.445,0.445l-0.031,6.209
	c0,6.36,2.262,13.159,8.61,13.159c0.249,0,0.45,0.201,0.45,0.45s-0.201,0.45-0.45,0.45
	C116.614,308.219,112.97,302.831,112.97,294.157z M138.564,305.145c-1.922,0-3.485,1.563-3.485,3.485
	c0,1.768,1.324,3.232,3.035,3.454v0.809c0,3.786-3.081,6.866-6.867,6.866c-3.785,0-6.865-3.08-6.865-6.866v-1.957
	c0-1.443,0.837-2.704,2.083-3.136c4.24-1.479,6.979-6.834,6.979-13.643v-6.205c0-0.739-0.603-1.341-1.343-1.341h-1.994
	c-0.129-0.156-0.317-0.261-0.535-0.261c-0.389,0-0.705,0.315-0.705,0.705c0,0.389,0.315,0.705,0.705,0.705
	c0.213,0,0.397-0.099,0.526-0.248h2.002c0.244,0,0.442,0.198,0.442,0.44v6.205c0,6.42-2.503,11.44-6.375,12.791
	c-1.607,0.558-2.688,2.16-2.688,3.987v1.957c0,4.283,3.483,7.767,7.766,7.767s7.768-3.483,7.768-7.767v-0.809
	c1.71-0.222,3.034-1.687,3.034-3.454C142.049,306.708,140.486,305.145,138.564,305.145z M138.564,311.212
	c-1.425,0-2.585-1.158-2.585-2.582c0-1.425,1.16-2.585,2.585-2.585s2.584,1.16,2.584,2.585
	C141.148,310.054,139.989,311.212,138.564,311.212z M102.565,296.93h9.303v0.9h-9.303c-0.214,0-0.389,0.174-0.389,0.388v17.668
	c0,0.214,0.175,0.388,0.389,0.388h20.07v0.9h-20.07c-0.711,0-1.291-0.577-1.291-1.288v-17.668
	C101.274,297.507,101.854,296.93,102.565,296.93z M104.078,314.672c0-0.166,0.134-0.301,0.3-0.301h8.115
	c0.166,0,0.3,0.135,0.3,0.301s-0.134,0.301-0.3,0.301h-8.115C104.212,314.973,104.078,314.838,104.078,314.672z M108.556,309.438
	l3.781-2.298c0.142-0.086,0.327-0.041,0.413,0.101s0.041,0.327-0.101,0.413l-4.058,2.466c-0.048,0.028-0.102,0.044-0.156,0.044
	c-0.027,0-0.055-0.004-0.082-0.012c-0.081-0.022-0.148-0.078-0.186-0.152l-0.949-1.864l-2.678,1.717
	c-0.141,0.09-0.326,0.049-0.415-0.091c-0.089-0.14-0.049-0.325,0.091-0.415l2.958-1.896c0.071-0.046,0.159-0.059,0.241-0.037
	s0.15,0.078,0.189,0.153L108.556,309.438z M112.793,311.638c0,0.166-0.134,0.301-0.3,0.301h-8.115c-0.166,0-0.3-0.135-0.3-0.301
	s0.134-0.301,0.3-0.301h8.115C112.659,311.337,112.793,311.472,112.793,311.638z M111.437,302.737c0-1.81-1.472-3.281-3.281-3.281
	s-3.281,1.472-3.281,3.281s1.472,3.281,3.281,3.281S111.437,304.547,111.437,302.737z M108.457,300.074
	c0.765,0.086,1.434,0.494,1.866,1.086l-1.866,1.061V300.074z M105.476,302.737c0-1.376,1.043-2.514,2.38-2.663v2.554l-1.638,1.958
	C105.758,304.104,105.476,303.453,105.476,302.737z M108.352,302.972l2.268-1.289c0.14,0.323,0.217,0.681,0.217,1.055
	c0,1.478-1.203,2.68-2.68,2.68c-0.546,0-1.054-0.164-1.478-0.445L108.352,302.972z M104.078,313.154c0-0.166,0.134-0.301,0.3-0.301
	h7.191c0.166,0,0.3,0.135,0.3,0.301s-0.134,0.301-0.3,0.301h-7.191C104.212,313.455,104.078,313.32,104.078,313.154z
	 M123.874,319.474v9.274H99.551v-8.54h0.901v7.64h22.521v-8.374c0-0.361-0.294-0.655-0.655-0.655H99.551v-21.146
	c0-1.317,1.071-2.389,2.388-2.389h9.857v0.9h-9.857c-0.82,0-1.487,0.668-1.487,1.488v20.245h21.866
	C123.177,317.918,123.874,318.615,123.874,319.474z M120.726,326.119c0.166,0,0.301-0.135,0.301-0.301v-3.952
	c0-0.166-0.135-0.301-0.301-0.301h-2.408c-0.166,0-0.301,0.135-0.301,0.301v3.952c0,0.166,0.135,0.301,0.301,0.301H120.726z
	 M118.618,322.167h1.807v3.351h-1.807V322.167z M105.108,326.119c0.166,0,0.3-0.135,0.3-0.301v-3.952c0-0.166-0.134-0.301-0.3-0.301
	H102.7c-0.166,0-0.3,0.135-0.3,0.301v3.952c0,0.166,0.134,0.301,0.3,0.301H105.108z M103,322.167h1.808v3.351H103V322.167z
	 M110.313,326.119c0.166,0,0.3-0.135,0.3-0.301v-3.952c0-0.166-0.134-0.301-0.3-0.301h-2.408c-0.166,0-0.3,0.135-0.3,0.301v3.952
	c0,0.166,0.134,0.301,0.3,0.301H110.313z M108.206,322.167h1.808v3.351h-1.808V322.167z M115.52,326.119
	c0.166,0,0.3-0.135,0.3-0.301v-3.952c0-0.166-0.134-0.301-0.3-0.301h-2.408c-0.166,0-0.3,0.135-0.3,0.301v3.952
	c0,0.166,0.134,0.301,0.3,0.301H115.52z M113.413,322.167h1.807v3.351h-1.807V322.167z"/>
<path id="_x30_2" class="st0" d="M200.5,1.884c-17.921,0-32.5,14.58-32.5,32.5s14.579,32.5,32.5,32.5s32.5-14.58,32.5-32.5
	S218.421,1.884,200.5,1.884z M200.5,65.382c-17.093,0-30.998-13.906-30.998-30.998S183.407,3.386,200.5,3.386
	s30.998,13.906,30.998,30.998S217.593,65.382,200.5,65.382z M194.896,31.171h-1.55V20.734h-4.717c-0.836,0-1.516,0.68-1.516,1.516
	v2.519h1.582v6.402h-1.582v4.035h7.782v-4.035H194.896z M193.996,34.305h-5.981v-2.232h1.582v-8.205h-1.582V22.25
	c0-0.339,0.276-0.614,0.615-0.614h3.816v10.437h1.55V34.305z M190.538,19.754c1.683,0,3.052-1.37,3.052-3.053
	s-1.369-3.052-3.052-3.052c-1.684,0-3.054,1.369-3.054,3.052S188.854,19.754,190.538,19.754z M190.538,14.55
	c1.186,0,2.151,0.965,2.151,2.151c0,1.187-0.966,2.151-2.151,2.151c-1.188,0-2.153-0.965-2.153-2.151S189.351,14.55,190.538,14.55z
	 M209.189,29.9c2.439,0,4.424-1.984,4.424-4.424s-1.984-4.424-4.424-4.424c-2.438,0-4.422,1.984-4.422,4.424
	S206.751,29.9,209.189,29.9z M209.189,21.954c1.942,0,3.523,1.58,3.523,3.522s-1.581,3.522-3.523,3.522
	c-1.941,0-3.521-1.58-3.521-3.522S207.248,21.954,209.189,21.954z M199.208,28.261l1.025,0.159l-0.728,0.732
	c-0.254,0.253-0.304,0.647-0.119,0.96l1.121,1.866c0.186,0.3,0.554,0.441,0.9,0.343l0.98-0.298l-0.339,0.969
	c-0.121,0.34,0.005,0.718,0.307,0.919l1.816,1.21c0.301,0.2,0.699,0.165,0.965-0.08l0.761-0.699l0.119,1.018
	c0.04,0.366,0.322,0.651,0.682,0.693l2.206,0.279h0.045c0.323,0,0.61-0.194,0.732-0.496l0.382-0.958l0.553,0.875
	c0.195,0.308,0.57,0.441,0.91,0.325l2.058-0.676c0.35-0.112,0.573-0.446,0.543-0.809l-0.073-1.016l0.88,0.549
	c0.308,0.189,0.705,0.146,0.959-0.105l1.561-1.501c0.263-0.248,0.321-0.641,0.143-0.959l-0.512-0.896l1.027,0.113
	c0.359,0.035,0.694-0.176,0.815-0.51l0.757-2.032c0.127-0.339,0.008-0.718-0.29-0.924l-0.851-0.583l0.964-0.338
	c0.344-0.117,0.565-0.462,0.527-0.815l-0.199-2.137c-0.014-0.371-0.29-0.684-0.661-0.746l-1.026-0.159l0.729-0.734
	c0.252-0.254,0.3-0.647,0.117-0.957l-1.121-1.867c-0.188-0.302-0.553-0.443-0.898-0.342l-0.983,0.296l0.341-0.975
	c0.122-0.344-0.007-0.723-0.311-0.919l-1.814-1.191c-0.306-0.197-0.702-0.163-0.962,0.081l-0.763,0.701l-0.119-1.015
	c-0.037-0.367-0.318-0.653-0.678-0.696l-2.145-0.284c-0.366-0.054-0.711,0.149-0.842,0.488l-0.382,0.959l-0.555-0.879
	c-0.196-0.304-0.57-0.437-0.909-0.322l-2.061,0.678c-0.33,0.108-0.553,0.427-0.54,0.792l0.073,1.031l-0.879-0.549
	c-0.307-0.189-0.705-0.146-0.96,0.104l-1.561,1.501c-0.265,0.25-0.322,0.645-0.142,0.958l0.512,0.898l-1.023-0.113
	c-0.356-0.042-0.692,0.17-0.82,0.509l-0.757,2.033c-0.126,0.336-0.008,0.715,0.29,0.924l0.851,0.583l-0.968,0.339
	c-0.343,0.119-0.558,0.455-0.523,0.815l0.199,2.142C198.563,27.89,198.84,28.201,199.208,28.261z M208.938,35.431
	c0.004,0,0.008,0,0.012,0l0.013,0.004L208.938,35.431z M200.974,24.781l0.106-0.797l-1.509-1.035l0.695-1.867l1.811,0.199
	l0.44-0.671l-0.904-1.587l1.437-1.381l1.55,0.969l0.688-0.415l-0.13-1.814l1.893-0.623l0.978,1.547l0.8-0.074l0.676-1.698
	l1.974,0.262l0.213,1.811l0.752,0.28l1.348-1.238l1.662,1.091l-0.604,1.728l0.556,0.58l1.745-0.526l1.025,1.707l-1.289,1.298
	l0.25,0.763l1.808,0.28l0.186,1.999l-1.722,0.604l-0.105,0.797l1.508,1.035l-0.695,1.867l-1.811-0.199l-0.44,0.671l0.905,1.585
	l-1.438,1.382l-1.55-0.969l-0.688,0.415l0.13,1.814l-1.893,0.622l-0.976-1.543l-0.8,0.074l-0.678,1.699l-1.974-0.252l-0.213-1.81
	l-0.752-0.279l-1.346,1.237l-1.664-1.109l0.604-1.729l-0.557-0.58l-1.744,0.531l-1.024-1.707l1.289-1.297l-0.25-0.763l-1.809-0.28
	l-0.186-2L200.974,24.781z M221.192,43.432c-0.839-1.049-2.336-1.274-3.441-0.56c-0.05-0.253-0.162-0.5-0.341-0.725
	c-0.823-1.03-2.404-1.139-3.524-0.244l-0.382,0.307c-0.052-0.225-0.159-0.444-0.33-0.657c-0.778-0.973-2.288-1.074-3.403-0.239
	c-0.053-0.228-0.164-0.451-0.34-0.669c-0.399-0.5-0.989-0.794-1.662-0.828c-0.651-0.037-1.306,0.184-1.842,0.612l-4.455,3.569
	c-0.307-0.153-0.612-0.306-0.911-0.456c-2.377-1.193-4.43-2.224-5.631-2.226c-0.008,0-0.016,0-0.023,0
	c-2.241,0-4.791,0.64-4.898,0.667l-0.34,0.086l-0.01,5.148c-0.001,0.249,0.2,0.451,0.449,0.452h0.001c0.248,0,0.45-0.201,0.45-0.45
	l0.01-4.442c0.762-0.171,2.67-0.56,4.338-0.56c0.008,0,0.015,0,0.021,0c0.989,0.002,3.144,1.084,5.229,2.13
	c2.383,1.196,4.847,2.434,6.689,2.749c2.556,0.436,4.37,0.499,5.199,0.499c0.399,0,0.496-0.01,0.519-0.01
	c0.818,0,3.066,0.198,3.88,1.111c0.234,0.262,0.327,0.566,0.29,0.893c-0.15,0.768-2.143,0.621-4.252,0.465
	c-2.221-0.163-4.74-0.35-6.947,0.244c-0.24,0.064-0.383,0.312-0.318,0.552c0.055,0.201,0.236,0.333,0.436,0.333
	c0.038,0,0.078-0.005,0.117-0.016c1.727-0.464,3.716-0.411,5.58-0.289c-2.399,1.311-6.81,3.427-10.265,3.427
	c-0.006,0-0.013,0-0.019,0c-2.318-0.006-4.747-1.435-6.89-2.696c-1.519-0.894-2.83-1.665-3.983-1.899l-0.18,0.883
	c1.006,0.205,2.317,0.977,3.706,1.793c2.241,1.319,4.782,2.813,7.345,2.82c0.007,0,0.014,0,0.021,0c4.271,0,9.651-2.891,11.89-4.215
	c2.465,0.174,4.36,0.211,4.65-1.263c0.044-0.372-0.009-0.714-0.138-1.03l3.509-2.809c0.353-0.282,0.574-0.684,0.625-1.132
	c0.05-0.448-0.078-0.889-0.358-1.238L221.192,43.432z M206.49,41.131c0.363-0.29,0.804-0.435,1.232-0.416
	c0.411,0.021,0.768,0.195,1.064,0.564c0.118,0.148,0.128,0.316,0.115,0.431c-0.02,0.177-0.106,0.35-0.241,0.488l-4.06,3.248
	c-0.72-0.295-1.477-0.643-2.235-1.011L206.49,41.131z M205.576,45.821l3.557-2.846l0.005,0.005c0.042-0.034,0.083-0.069,0.121-0.106
	l1.002-0.801c0.731-0.584,1.724-0.566,2.267,0.114c0.096,0.121,0.131,0.282,0.1,0.456c-0.037,0.198-0.152,0.383-0.325,0.521
	l0.004,0.005l-4.034,3.232c-0.402-0.055-0.824-0.118-1.273-0.195C206.569,46.133,206.089,45.999,205.576,45.821z M212.523,46.683
	c-0.016,0.001-1.116,0.051-2.993-0.135l4.919-3.941c0.73-0.583,1.743-0.538,2.318,0.18c0.229,0.287,0.14,0.741-0.198,1.012
	l0.001,0.002l-3.609,2.892C212.714,46.68,212.549,46.68,212.523,46.683z M220.432,45.185l-3.46,2.77
	c-0.684-0.647-1.795-0.968-2.74-1.125l3.87-3.101c0.732-0.584,1.803-0.464,2.386,0.264l0.068,0.086
	c0.131,0.164,0.19,0.369,0.167,0.578C220.699,44.866,220.596,45.053,220.432,45.185z M185.319,40.206l-2.943-0.007l-0.028,12.055
	l5.948,0.014l0.021-9.051c0.002-0.803-0.309-1.558-0.874-2.126C186.876,40.522,186.122,40.208,185.319,40.206z M187.397,51.365
	l-4.146-0.01l0.022-10.252l2.043,0.005c0.562,0.001,1.09,0.221,1.485,0.619c0.396,0.398,0.614,0.927,0.613,1.489L187.397,51.365z"/>
<path id="_x30_1" class="st0" d="M34.5,67C16.579,67,2,52.42,2,34.5S16.579,2,34.5,2S67,16.579,67,34.5S52.42,67,34.5,67z
	 M34.5,3.502C17.407,3.502,3.502,17.407,3.502,34.5S17.407,65.498,34.5,65.498S65.498,51.592,65.498,34.5S51.592,3.502,34.5,3.502z
	 M60.845,27.248c-0.005-0.012-0.011-0.023-0.017-0.035c-0.002-0.006-0.005-0.013-0.007-0.019c-0.947-2.266-2.719-4.027-4.991-4.959
	c-2.271-0.933-4.77-0.924-7.037,0.022c-3.67,1.534-5.812,5.187-5.625,8.949c-0.388-0.114-0.8-0.171-1.226-0.165l0.011,0.901
	c0.012,0,0.025,0,0.038,0c1.292,0,2.445,0.767,2.944,1.962c0.33,0.786,0.333,1.653,0.009,2.442
	c-0.324,0.788-0.935,1.404-1.719,1.733c-0.383,0.159-0.785,0.242-1.196,0.248l0.012,0.901c0.525-0.007,1.041-0.113,1.531-0.317
	c0.822-0.344,1.482-0.942,1.927-1.696c3.524-0.341,7.017,1.611,8.453,5.045c1.705,4.08-0.107,8.766-4.042,10.664l-4.47-10.693
	c-0.096-0.23-0.363-0.338-0.59-0.242c-0.229,0.096-0.338,0.36-0.242,0.59l4.649,11.119c0.072,0.173,0.24,0.277,0.416,0.277
	c0,0,0,0,0.001,0l0,0c0.058,0,0.117-0.011,0.174-0.035c4.676-1.954,6.891-7.35,4.936-12.028c-1.525-3.649-5.145-5.79-8.883-5.632
	c0.265-0.899,0.233-1.849-0.134-2.724c-0.346-0.829-0.934-1.492-1.664-1.931c-0.38-3.553,1.579-7.089,5.04-8.536
	c2.044-0.854,4.297-0.861,6.347-0.021c1.928,0.792,3.457,2.244,4.342,4.115L49.3,31.585c-0.229,0.096-0.338,0.36-0.242,0.59
	c0.096,0.23,0.361,0.336,0.59,0.242l10.957-4.58C60.833,27.741,60.941,27.477,60.845,27.248z M39.203,22.397h2.217v-0.901h-2.217
	v-2.138h-0.901v2.138h-2.217v0.901h2.217v2.139h0.901V22.397z M41.136,52.68h-5.04v0.901h5.04V52.68z M40.685,39.269
	c0.249,0,0.451-0.202,0.451-0.451s-0.202-0.451-0.451-0.451h-1.506v-6.255h1.506c0.249,0,0.451-0.202,0.451-0.451
	s-0.202-0.451-0.451-0.451h-1.506v-4.38c0-0.249-0.202-0.451-0.451-0.451s-0.451,0.202-0.451,0.451v4.381h-1.731
	c-0.249,0-0.451,0.202-0.451,0.451s0.202,0.451,0.451,0.451h1.731v6.255h-1.731c-0.249,0-0.451,0.202-0.451,0.451
	s0.202,0.451,0.451,0.451h1.731v6.255h-1.731c-0.249,0-0.451,0.202-0.451,0.451s0.202,0.451,0.451,0.451h1.731v3.627
	c0,0.249,0.202,0.451,0.451,0.451s0.451-0.202,0.451-0.451v-3.627h1.506c0.249,0,0.451-0.202,0.451-0.451s-0.202-0.451-0.451-0.451
	h-1.506V39.27L40.685,39.269L40.685,39.269z M21.427,37.809c0-5.032,4.094-9.126,9.126-9.126h0.451v-0.901h-0.451
	c-3.904,0-7.295,2.243-8.95,5.508v-9.583c2.673-1.7,5.768-2.599,8.95-2.599h0.451v-0.901h-0.451c-3.164,0-6.245,0.843-8.95,2.443
	v-2.144h0.715c0.249,0,0.451-0.202,0.451-0.451V19.01c0-1.024-0.833-1.857-1.858-1.857h-7.187c-1.024,0-1.857,0.833-1.857,1.857
	v1.045c0,0.249,0.202,0.451,0.451,0.451h0.634v17.303c0,2.831,0.688,5.498,1.88,7.87c-0.001,0.009-0.005,0.017-0.005,0.026v4.062
	c0,2.058,1.673,3.731,3.73,3.731h4.061c2.388,1.213,5.079,1.912,7.936,1.912h0.451v-0.901h-0.451c-9.208,0-16.7-7.491-16.7-16.7
	V20.507h6.849v15.396h0.006c-0.119,0.617-0.182,1.254-0.182,1.906c0,5.528,4.498,10.025,10.027,10.025h0.451v-0.901h-0.451
	C25.521,46.933,21.427,42.84,21.427,37.809z M12.769,19.01c0-0.527,0.429-0.956,0.956-0.956h7.187c0.527,0,0.957,0.429,0.957,0.956
	v0.595H12.77V19.01H12.769z M21.043,52.597h-2.486c-1.56,0-2.829-1.27-2.829-2.83v-2.508C17.097,49.398,18.91,51.22,21.043,52.597z
	 M30.984,36.283c-0.175-3.409,0.016-5.881,0.018-5.906c0.01-0.125-0.033-0.25-0.118-0.342s-0.205-0.145-0.331-0.145
	c-0.562,0-1.121,0.059-1.66,0.173c-0.243,0.052-0.398,0.292-0.347,0.535c0.052,0.243,0.293,0.394,0.535,0.347
	c0.323-0.069,0.655-0.115,0.991-0.138c-0.048,0.9-0.118,2.939,0.011,5.487c-0.106,0.033-0.207,0.076-0.303,0.13
	c-2.531-2.286-4.149-4.169-4.165-4.189c-0.082-0.095-0.199-0.153-0.325-0.158c-0.124-0.007-0.248,0.042-0.336,0.131
	c-0.396,0.394-0.749,0.831-1.05,1.297c-0.135,0.209-0.075,0.488,0.134,0.623c0.21,0.135,0.489,0.075,0.623-0.134
	c0.181-0.279,0.382-0.546,0.602-0.798c0.602,0.67,1.994,2.161,3.888,3.873c-0.051,0.097-0.092,0.199-0.123,0.306
	c-3.406,0.175-5.879-0.016-5.906-0.018c-0.124-0.009-0.25,0.032-0.342,0.118c-0.092,0.085-0.145,0.205-0.145,0.331
	c0,0.565,0.059,1.124,0.174,1.66c0.052,0.243,0.289,0.399,0.535,0.346c0.243-0.052,0.398-0.292,0.346-0.535
	c-0.069-0.322-0.115-0.653-0.137-0.99c0.9,0.048,2.938,0.119,5.487-0.011c0.033,0.106,0.076,0.207,0.129,0.302
	c-2.286,2.531-4.168,4.149-4.188,4.166c-0.095,0.082-0.153,0.199-0.158,0.325c-0.005,0.125,0.042,0.248,0.131,0.336
	c0.395,0.396,0.832,0.75,1.297,1.052c0.076,0.049,0.16,0.072,0.244,0.072c0.148,0,0.292-0.073,0.379-0.206
	c0.135-0.209,0.075-0.488-0.134-0.623c-0.279-0.18-0.546-0.382-0.798-0.603c0.67-0.602,2.161-1.994,3.872-3.888
	c0.222,0.117,0.471,0.19,0.739,0.19c0.878,0,1.592-0.714,1.592-1.592C32.146,37.081,31.652,36.473,30.984,36.283z M30.553,38.5
	c-0.381,0-0.691-0.31-0.691-0.691s0.31-0.691,0.691-0.691s0.691,0.31,0.691,0.691S30.934,38.5,30.553,38.5z M17.488,52.09
	c0.536,0,0.972-0.436,0.972-0.972s-0.436-0.972-0.972-0.972s-0.972,0.436-0.972,0.972S16.952,52.09,17.488,52.09z M17.488,50.747
	c0.205,0,0.371,0.167,0.371,0.371s-0.167,0.371-0.371,0.371s-0.372-0.167-0.372-0.371S17.283,50.747,17.488,50.747z"/>
<path id="_x33_60" class="st0" d="M14.111,139.825c-0.258-17.58,10.564-26.24,27.312-26.24c12.239,0,24.607,4.912,24.864,19.001
	c0,14.348-12.11,19.26-23.447,19.26h-6.313v2.585h6.313c14.429,0.517,25.122,6.722,25.122,21.716
	c0,15.124-13.012,23.267-27.054,23.267c-18.294,0-30.662-9.953-29.245-28.696H9.086C7.798,190.754,21.067,202,40.907,202
	c15.846,0,29.631-9.565,29.631-25.852c0-15.124-10.178-21.845-20.484-22.879v-0.259c10.693-1.034,18.809-8.014,18.809-20.423
	c0-15.641-13.527-21.587-27.441-21.587c-18.294,0-30.146,9.824-29.889,28.825H14.111z M146.033,171.624
	c0,15.382-12.368,27.791-27.699,27.791s-27.699-12.409-27.699-27.791s12.368-27.791,27.699-27.791S146.033,156.241,146.033,171.624
	L146.033,171.624z M147.064,133.233C145.26,120.824,135.211,111,120.009,111c-25.637,0-32.981,26.111-32.981,47.956
	c0,11.246,0.773,21.457,5.797,29.213C97.206,195.02,106.353,202,118.335,202c16.104,0,30.275-12.797,30.275-30.376
	c0-18.097-15.073-30.376-30.275-30.376c-14.043,0-26.024,9.695-28.6,22.104h-0.258c-0.386-20.165,4.251-49.766,30.404-49.766
	c8.889,0,21.128,3.749,24.607,19.648L147.064,133.233L147.064,133.233z M226.423,156.5c0,19.518-6.57,42.915-30.533,42.915
	s-30.533-23.396-30.533-42.915s6.57-42.915,30.533-42.915S226.423,136.982,226.423,156.5L226.423,156.5z M229,156.5
	c0-21.974-7.988-45.5-33.109-45.5s-33.109,23.526-33.109,45.5s7.988,45.5,33.109,45.5S229,178.474,229,156.5L229,156.5z"/>
<path id="Kreis_x5F_Grad" class="st1" d="M33.943,103h-3.021C49.653,75.13,81.47,56.755,117.5,56.755S185.347,75.13,204.078,103
	h-3.021c-18.398-26.424-48.99-43.755-83.557-43.755C82.932,59.245,52.341,76.576,33.943,103z M117.5,262.755
	c-36.283,0-68.186-19.093-86.205-47.755H28.36c18.302,30.099,51.412,50.245,89.14,50.245c37.727,0,70.838-20.146,89.14-50.245
	h-2.935C185.686,243.662,153.783,262.755,117.5,262.755z"/>
<g>
	<path class="st1" d="M95.934,222.976v-8.197h2.314c0.713,0,1.344,0.158,1.892,0.473c0.548,0.315,0.972,0.764,1.269,1.345
		c0.299,0.581,0.45,1.25,0.454,2.004v0.524c0,0.773-0.15,1.451-0.447,2.032c-0.299,0.581-0.725,1.029-1.279,1.34
		c-0.553,0.311-1.197,0.471-1.933,0.479H95.934z M97.015,215.663v6.429h1.137c0.833,0,1.481-0.259,1.945-0.778
		c0.463-0.518,0.695-1.256,0.695-2.214v-0.479c0-0.931-0.219-1.655-0.656-2.172c-0.437-0.516-1.057-0.779-1.86-0.786H97.015z"/>
	<path class="st1" d="M108.589,219.187h-3.552v2.905h4.126v0.884h-5.207v-8.197h5.151v0.884h-4.07v2.64h3.552V219.187z"/>
	<path class="st1" d="M117.022,221.901c-0.277,0.398-0.665,0.696-1.163,0.892c-0.497,0.198-1.076,0.296-1.736,0.296
		c-0.668,0-1.261-0.157-1.779-0.47c-0.518-0.314-0.918-0.759-1.202-1.337c-0.283-0.578-0.429-1.248-0.436-2.01v-0.715
		c0-1.234,0.288-2.192,0.864-2.871c0.577-0.68,1.386-1.019,2.43-1.019c0.856,0,1.544,0.219,2.066,0.656
		c0.522,0.437,0.84,1.057,0.957,1.86h-1.081c-0.203-1.088-0.848-1.633-1.937-1.633c-0.725,0-1.273,0.255-1.647,0.763
		c-0.373,0.509-0.561,1.247-0.565,2.212v0.671c0,0.92,0.21,1.652,0.631,2.195c0.421,0.543,0.989,0.814,1.706,0.814
		c0.405,0,0.76-0.045,1.064-0.135c0.304-0.089,0.556-0.241,0.754-0.454v-1.837h-1.897v-0.884h2.972V221.901z"/>
	<path class="st1" d="M122.291,219.66h-1.925v3.316h-1.087v-8.197h2.713c0.923,0,1.633,0.21,2.131,0.631
		c0.497,0.421,0.746,1.032,0.746,1.835c0,0.511-0.138,0.955-0.414,1.334c-0.275,0.379-0.659,0.663-1.151,0.85l1.925,3.479v0.068
		h-1.16L122.291,219.66z M120.365,218.776h1.661c0.536,0,0.963-0.139,1.28-0.417c0.318-0.278,0.476-0.651,0.476-1.117
		c0-0.507-0.151-0.896-0.454-1.167c-0.302-0.271-0.738-0.408-1.308-0.412h-1.655V218.776z"/>
	<path class="st1" d="M131.478,219.187h-3.552v2.905h4.126v0.884h-5.207v-8.197h5.151v0.884h-4.07v2.64h3.552V219.187z"/>
	<path class="st1" d="M138.492,219.187h-3.552v2.905h4.126v0.884h-5.207v-8.197h5.151v0.884h-4.07v2.64h3.552V219.187z"/>
</g>
</svg>
