<?xml version="1.0" encoding="utf-8"?>
<!-- Generator: Adobe Illustrator 19.2.1, SVG Export Plug-In . SVG Version: 6.00 Build 0)  -->
<svg version="1.1" id="_x33_60_x5F_grad" xmlns="http://www.w3.org/2000/svg" xmlns:xlink="http://www.w3.org/1999/xlink" x="0px"
	 y="0px" viewBox="0 0 276.5 418.5" style="enable-background:new 0 0 276.5 418.5;" xml:space="preserve">
<style type="text/css">
	.st0{fill:#1E2A63;}
	.st1{fill:#41B6E6;}
</style>
<path id="_x30_3" class="st0" d="M138.25,324.289c-24.261,0-44,19.738-44,44c0,24.262,19.739,44,44,44c24.262,0,44-19.738,44-44
	C182.25,344.027,162.512,324.289,138.25,324.289z M138.25,410.255c-23.14,0-41.967-18.826-41.967-41.967
	c0-23.141,18.826-41.967,41.967-41.967c23.141,0,41.967,18.826,41.967,41.967C180.217,391.43,161.391,410.255,138.25,410.255z
	 M168.899,368.818c0,1.177-0.957,2.134-2.133,2.134c-1.175,0-2.131-0.957-2.131-2.134c0-0.225,0.182-0.407,0.407-0.407
	s0.407,0.182,0.407,0.407c0,0.727,0.591,1.319,1.317,1.319c0.727,0,1.318-0.592,1.318-1.319c0-0.727-0.591-1.319-1.318-1.319
	c-0.225,0-0.407-0.182-0.407-0.407s0.182-0.407,0.407-0.407C167.942,366.684,168.899,367.641,168.899,368.818z M132.117,349.225
	l0.042-8.406c0-1.002,0.818-1.819,1.823-1.819h2.48c0.175-0.206,0.427-0.344,0.718-0.344c0.527,0,0.954,0.427,0.954,0.954
	c0,0.527-0.427,0.954-0.954,0.954c-0.292,0-0.544-0.138-0.719-0.345h-2.479c-0.332,0-0.602,0.271-0.602,0.603l-0.042,8.406
	c0,8.611,3.062,17.815,11.657,17.815c0.337,0,0.609,0.272,0.609,0.609s-0.272,0.609-0.609,0.609
	C137.051,368.262,132.117,360.968,132.117,349.225z M166.768,364.1c-2.602,0-4.719,2.117-4.719,4.719
	c0,2.393,1.793,4.376,4.109,4.676v1.095c0,5.126-4.171,9.296-9.297,9.296c-5.125,0-9.294-4.17-9.294-9.296v-2.65
	c0-1.954,1.133-3.661,2.82-4.245c5.741-2.003,9.449-9.252,9.449-18.47v-8.401c0-1.001-0.816-1.815-1.818-1.815h-2.699
	c-0.175-0.211-0.429-0.353-0.724-0.353c-0.527,0-0.954,0.427-0.954,0.954c0,0.527,0.427,0.954,0.954,0.954
	c0.288,0,0.537-0.134,0.712-0.336h2.711c0.331,0,0.599,0.268,0.599,0.596v8.401c0,8.692-3.389,15.489-8.631,17.317
	c-2.176,0.755-3.638,2.924-3.638,5.398v2.65c0,5.799,4.716,10.515,10.513,10.515c5.799,0,10.516-4.716,10.516-10.515v-1.095
	c2.315-0.3,4.108-2.283,4.108-4.676C171.485,366.217,169.37,364.1,166.768,364.1z M166.768,372.315c-1.929,0-3.5-1.568-3.5-3.496
	c0-1.929,1.571-3.5,3.5-3.5c1.929,0,3.498,1.571,3.498,3.5C170.266,370.747,168.697,372.315,166.768,372.315z M118.03,352.979
	h12.595v1.219H118.03c-0.29,0-0.527,0.235-0.527,0.525v23.92c0,0.29,0.237,0.525,0.527,0.525h27.171v1.219H118.03
	c-0.963,0-1.747-0.781-1.747-1.744v-23.92C116.283,353.76,117.067,352.979,118.03,352.979z M120.079,376.999
	c0-0.225,0.182-0.407,0.407-0.407h10.986c0.225,0,0.407,0.182,0.407,0.407s-0.182,0.407-0.407,0.407h-10.986
	C120.261,377.406,120.079,377.224,120.079,376.999z M126.141,369.912l5.119-3.111c0.192-0.116,0.442-0.056,0.559,0.136
	c0.116,0.192,0.056,0.443-0.136,0.559l-5.493,3.338c-0.065,0.038-0.138,0.059-0.212,0.059c-0.037,0-0.075-0.005-0.111-0.016
	c-0.109-0.03-0.2-0.106-0.251-0.206l-1.285-2.524l-3.626,2.324c-0.19,0.122-0.442,0.066-0.562-0.123
	c-0.121-0.189-0.066-0.44,0.123-0.562l4.004-2.566c0.097-0.062,0.216-0.079,0.326-0.05c0.111,0.03,0.204,0.106,0.256,0.208
	L126.141,369.912z M131.878,372.891c0,0.225-0.182,0.407-0.407,0.407h-10.986c-0.225,0-0.407-0.182-0.407-0.407
	s0.182-0.407,0.407-0.407h10.986C131.696,372.484,131.878,372.666,131.878,372.891z M130.042,360.841
	c0-2.45-1.992-4.442-4.442-4.442c-2.449,0-4.442,1.992-4.442,4.442c0,2.45,1.992,4.442,4.442,4.442
	C128.049,365.284,130.042,363.291,130.042,360.841z M126.007,357.236c1.035,0.116,1.941,0.669,2.526,1.47l-2.526,1.436V357.236z
	 M121.971,360.841c0-1.863,1.412-3.403,3.222-3.605v3.457l-2.218,2.651C122.354,362.692,121.971,361.81,121.971,360.841z
	 M125.865,361.159l3.07-1.745c0.189,0.438,0.294,0.922,0.294,1.428c0,2-1.628,3.628-3.629,3.628c-0.739,0-1.427-0.222-2.001-0.603
	L125.865,361.159z M120.079,374.944c0-0.225,0.182-0.407,0.407-0.407h9.735c0.225,0,0.407,0.182,0.407,0.407
	s-0.182,0.407-0.407,0.407h-9.735C120.261,375.351,120.079,375.169,120.079,374.944z M146.879,383.5v12.556H113.95v-11.562h1.22
	v10.343h30.49V383.5c0-0.489-0.398-0.887-0.887-0.887H113.95v-28.628c0-1.784,1.45-3.234,3.233-3.234h13.345v1.219h-13.345
	c-1.11,0-2.013,0.904-2.013,2.015v27.409h29.603C145.935,381.394,146.879,382.338,146.879,383.5z M142.617,392.497
	c0.225,0,0.407-0.182,0.407-0.407v-5.351c0-0.225-0.182-0.407-0.407-0.407h-3.26c-0.225,0-0.407,0.182-0.407,0.407v5.351
	c0,0.225,0.182,0.407,0.407,0.407H142.617z M139.764,387.146h2.446v4.536h-2.446V387.146z M121.474,392.497
	c0.225,0,0.407-0.182,0.407-0.407v-5.351c0-0.225-0.182-0.407-0.407-0.407h-3.26c-0.225,0-0.407,0.182-0.407,0.407v5.351
	c0,0.225,0.182,0.407,0.407,0.407H121.474z M118.62,387.146h2.447v4.536h-2.447V387.146z M128.521,392.497
	c0.225,0,0.407-0.182,0.407-0.407v-5.351c0-0.225-0.182-0.407-0.407-0.407h-3.26c-0.225,0-0.407,0.182-0.407,0.407v5.351
	c0,0.225,0.182,0.407,0.407,0.407H128.521z M125.667,387.146h2.447v4.536h-2.447V387.146z M135.569,392.497
	c0.225,0,0.407-0.182,0.407-0.407v-5.351c0-0.225-0.182-0.407-0.407-0.407h-3.26c-0.225,0-0.407,0.182-0.407,0.407v5.351
	c0,0.225,0.182,0.407,0.407,0.407H135.569z M132.716,387.146h2.447v4.536h-2.447V387.146z"/>
<path id="_x30_2" class="st0" d="M229.25,3.889c-24.262,0-44,19.739-44,44s19.738,44,44,44s44-19.739,44-44
	S253.512,3.889,229.25,3.889z M229.25,89.856c-23.141,0-41.967-18.826-41.967-41.967S206.109,5.922,229.25,5.922
	s41.967,18.826,41.967,41.967S252.391,89.856,229.25,89.856z M221.664,43.539h-2.098v-14.13h-6.386c-1.132,0-2.052,0.92-2.052,2.052
	v3.41h2.142v8.668h-2.142v5.463h10.536V43.539z M220.445,47.781h-8.098v-3.022h2.142V33.651h-2.142v-2.19
	c0-0.459,0.374-0.832,0.833-0.832h5.167v14.13h2.098V47.781z M215.763,28.082c2.278,0,4.132-1.854,4.132-4.133
	s-1.854-4.132-4.132-4.132c-2.279,0-4.134,1.854-4.134,4.132S213.484,28.082,215.763,28.082z M215.763,21.037
	c1.605,0,2.913,1.306,2.913,2.912c0,1.606-1.308,2.913-2.913,2.913c-1.608,0-2.915-1.306-2.915-2.913
	C212.848,22.343,214.156,21.037,215.763,21.037z M241.014,41.819c3.303,0,5.989-2.687,5.989-5.989c0-3.303-2.687-5.989-5.989-5.989
	c-3.301,0-5.987,2.687-5.987,5.989C235.028,39.132,237.713,41.819,241.014,41.819z M241.014,31.061c2.63,0,4.77,2.139,4.77,4.769
	c0,2.63-2.141,4.769-4.77,4.769c-2.628,0-4.768-2.139-4.768-4.769C236.247,33.2,238.386,31.061,241.014,31.061z M227.501,39.599
	l1.388,0.215l-0.985,0.991c-0.344,0.343-0.411,0.876-0.161,1.3l1.518,2.527c0.251,0.406,0.75,0.597,1.219,0.464l1.327-0.404
	l-0.459,1.312c-0.164,0.461,0.007,0.972,0.415,1.245l2.459,1.638c0.407,0.27,0.947,0.223,1.306-0.108l1.03-0.946l0.161,1.378
	c0.054,0.495,0.436,0.881,0.923,0.938l2.987,0.377h0.061c0.438,0,0.826-0.262,0.992-0.671l0.517-1.297l0.748,1.184
	c0.264,0.417,0.772,0.597,1.232,0.44l2.786-0.916c0.473-0.151,0.776-0.604,0.735-1.095l-0.099-1.375l1.191,0.744
	c0.416,0.256,0.955,0.197,1.298-0.142l2.113-2.032c0.356-0.335,0.435-0.868,0.193-1.299l-0.693-1.214l1.391,0.153
	c0.487,0.048,0.94-0.239,1.104-0.69l1.025-2.751c0.172-0.459,0.011-0.972-0.393-1.251l-1.152-0.79l1.305-0.458
	c0.465-0.158,0.766-0.626,0.714-1.103l-0.27-2.893c-0.019-0.502-0.393-0.925-0.895-1.009l-1.39-0.216l0.986-0.994
	c0.341-0.344,0.406-0.876,0.159-1.296l-1.518-2.528c-0.254-0.409-0.748-0.6-1.216-0.463l-1.331,0.401l0.461-1.319
	c0.165-0.466-0.009-0.978-0.42-1.245l-2.456-1.613c-0.414-0.267-0.951-0.221-1.302,0.11l-1.033,0.949l-0.161-1.374
	c-0.05-0.496-0.431-0.884-0.918-0.942l-2.903-0.385c-0.496-0.073-0.962,0.202-1.14,0.66l-0.517,1.299l-0.751-1.191
	c-0.266-0.411-0.772-0.591-1.231-0.436l-2.79,0.918c-0.447,0.146-0.748,0.578-0.731,1.073l0.099,1.396l-1.19-0.744
	c-0.415-0.256-0.955-0.198-1.3,0.141l-2.113,2.032c-0.358,0.338-0.436,0.873-0.192,1.296l0.693,1.216l-1.386-0.153
	c-0.483-0.057-0.937,0.23-1.111,0.689l-1.025,2.752c-0.171,0.455-0.011,0.968,0.393,1.251l1.152,0.789l-1.31,0.459
	c-0.464,0.161-0.755,0.616-0.709,1.103l0.27,2.9C226.628,39.096,227.003,39.517,227.501,39.599z M240.675,49.306
	c0.005-0.001,0.011-0.001,0.016-0.001l0.017,0.005L240.675,49.306z M229.891,34.888l0.144-1.079l-2.043-1.401l0.941-2.528
	l2.451,0.269l0.596-0.908l-1.224-2.149l1.945-1.869l2.098,1.312l0.932-0.561l-0.176-2.456l2.562-0.843l1.323,2.095l1.083-0.1
	l0.915-2.299l2.672,0.354l0.288,2.451l1.018,0.379l1.825-1.676l2.25,1.477l-0.817,2.339l0.752,0.785l2.363-0.712l1.388,2.311
	l-1.745,1.757l0.338,1.033l2.447,0.379l0.251,2.706l-2.331,0.818l-0.143,1.079l2.041,1.401l-0.941,2.528l-2.451-0.269l-0.596,0.909
	l1.226,2.146l-1.946,1.871l-2.098-1.312l-0.932,0.561l0.176,2.456l-2.562,0.842l-1.321-2.09l-1.083,0.1l-0.918,2.3l-2.672-0.342
	l-0.288-2.451l-1.018-0.377l-1.822,1.674l-2.253-1.501l0.817-2.34l-0.754-0.785l-2.361,0.719l-1.387-2.311l1.745-1.756l-0.338-1.033
	l-2.449-0.379l-0.251-2.708L229.891,34.888z M257.264,60.138c-1.136-1.421-3.163-1.725-4.659-0.758
	c-0.067-0.342-0.219-0.678-0.461-0.981c-1.115-1.394-3.255-1.542-4.772-0.331l-0.517,0.415c-0.07-0.304-0.215-0.601-0.447-0.89
	c-1.054-1.317-3.098-1.454-4.608-0.323c-0.071-0.308-0.222-0.61-0.46-0.906c-0.541-0.676-1.339-1.075-2.25-1.121
	c-0.882-0.05-1.768,0.249-2.493,0.828l-6.032,4.832c-0.416-0.207-0.828-0.414-1.233-0.617c-3.218-1.616-5.997-3.01-7.623-3.014
	c-0.011,0-0.021,0-0.032,0c-3.034,0-6.486,0.866-6.632,0.903l-0.46,0.116l-0.013,6.97c-0.001,0.337,0.271,0.611,0.608,0.611h0.001
	c0.336,0,0.609-0.272,0.609-0.609l0.013-6.014c1.031-0.232,3.615-0.758,5.873-0.758c0.011,0,0.02,0,0.029,0
	c1.339,0.003,4.256,1.468,7.079,2.884c3.226,1.62,6.562,3.295,9.056,3.721c3.46,0.59,5.916,0.675,7.039,0.675
	c0.541,0,0.672-0.014,0.702-0.014c1.108,0,4.151,0.268,5.253,1.504c0.317,0.355,0.443,0.766,0.393,1.209
	c-0.204,1.04-2.901,0.84-5.756,0.629c-3.007-0.221-6.418-0.473-9.406,0.33c-0.325,0.087-0.518,0.422-0.431,0.748
	c0.074,0.272,0.32,0.451,0.59,0.451c0.052,0,0.106-0.007,0.159-0.021c2.338-0.628,5.031-0.557,7.554-0.392
	c-3.248,1.774-9.219,4.64-13.897,4.64c-0.008,0-0.017,0-0.025,0c-3.139-0.009-6.427-1.943-9.328-3.65
	c-2.056-1.21-3.831-2.254-5.393-2.572l-0.243,1.195c1.362,0.278,3.137,1.322,5.017,2.428c3.034,1.786,6.474,3.809,9.944,3.818
	c0.009,0,0.019,0,0.028,0c5.782,0,13.066-3.915,16.098-5.706c3.337,0.236,5.903,0.286,6.295-1.71
	c0.06-0.504-0.013-0.967-0.187-1.394l4.751-3.803c0.477-0.381,0.777-0.926,0.846-1.533c0.067-0.606-0.106-1.203-0.485-1.676
	L257.264,60.138z M237.36,57.024c0.492-0.392,1.088-0.589,1.669-0.563c0.557,0.028,1.039,0.264,1.441,0.764
	c0.16,0.2,0.173,0.428,0.156,0.583c-0.026,0.24-0.144,0.474-0.327,0.66l-5.497,4.398c-0.975-0.399-1.999-0.871-3.026-1.369
	L237.36,57.024z M236.122,63.373l4.816-3.853l0.007,0.007c0.057-0.046,0.112-0.093,0.164-0.143l1.356-1.085
	c0.99-0.791,2.334-0.766,3.069,0.154c0.13,0.163,0.177,0.382,0.135,0.617c-0.05,0.268-0.206,0.518-0.44,0.705l0.005,0.007
	l-5.462,4.376c-0.544-0.074-1.116-0.16-1.724-0.263C237.466,63.795,236.817,63.613,236.122,63.373z M245.528,64.539
	c-0.022,0.001-1.511,0.069-4.053-0.182l6.66-5.336c0.989-0.789,2.36-0.728,3.139,0.244c0.311,0.388,0.189,1.003-0.268,1.37
	l0.001,0.003l-4.886,3.916C245.786,64.536,245.563,64.536,245.528,64.539z M256.234,62.511l-4.685,3.75
	c-0.926-0.875-2.43-1.311-3.709-1.523l5.239-4.199c0.992-0.791,2.441-0.628,3.23,0.358l0.093,0.117
	c0.177,0.222,0.258,0.5,0.226,0.782C256.597,62.079,256.457,62.333,256.234,62.511z M208.698,55.771l-3.985-0.01l-0.038,16.321
	l8.053,0.019l0.028-12.253c0.003-1.087-0.418-2.109-1.183-2.879C210.805,56.199,209.785,55.773,208.698,55.771z M211.511,70.878
	l-5.612-0.014l0.03-13.88l2.766,0.007c0.76,0.001,1.475,0.299,2.011,0.838c0.537,0.539,0.832,1.255,0.83,2.016L211.511,70.878z"/>
<path id="_x30_1" class="st0" d="M47.25,91.889c-24.262,0-44-19.739-44-44s19.738-44,44-44s44,19.738,44,44
	S71.511,91.889,47.25,91.889z M47.25,5.922c-23.14,0-41.966,18.826-41.966,41.966S24.109,89.856,47.25,89.856
	s41.967-18.826,41.967-41.967S70.39,5.922,47.25,5.922z M82.918,38.071c-0.007-0.017-0.015-0.032-0.022-0.048
	c-0.003-0.009-0.007-0.017-0.01-0.026c-1.282-3.067-3.681-5.452-6.757-6.714c-3.075-1.263-6.457-1.251-9.527,0.03
	c-4.968,2.077-7.869,7.023-7.616,12.115c-0.525-0.154-1.083-0.232-1.66-0.224l0.015,1.22c0.017,0,0.034-0.001,0.051-0.001
	c1.749,0,3.31,1.038,3.986,2.657c0.446,1.064,0.451,2.238,0.013,3.306c-0.438,1.067-1.265,1.901-2.328,2.346
	c-0.519,0.216-1.063,0.328-1.619,0.335l0.016,1.22c0.711-0.009,1.409-0.153,2.073-0.43c1.113-0.466,2.006-1.275,2.609-2.296
	c4.771-0.462,9.5,2.181,11.444,6.83c2.308,5.524-0.145,11.867-5.473,14.438L62.06,58.355c-0.13-0.312-0.491-0.457-0.799-0.328
	c-0.311,0.13-0.457,0.488-0.328,0.799l6.294,15.054c0.098,0.234,0.325,0.375,0.563,0.375c0.001,0,0.001,0,0.001,0h0.001
	c0.079,0,0.159-0.015,0.235-0.047c6.331-2.646,9.329-9.95,6.683-16.284c-2.065-4.94-6.965-7.839-12.027-7.625
	c0.358-1.217,0.315-2.503-0.182-3.688c-0.469-1.123-1.265-2.019-2.253-2.614c-0.515-4.81,2.138-9.597,6.823-11.556
	c2.767-1.156,5.818-1.166,8.593-0.028c2.61,1.072,4.68,3.038,5.878,5.571l-14.258,5.96c-0.311,0.13-0.457,0.488-0.328,0.799
	s0.489,0.455,0.799,0.328l14.834-6.201C82.901,38.739,83.047,38.381,82.918,38.071z M53.617,31.504h3.002v-1.22h-3.002V27.39h-1.22
	v2.894h-3.002v1.22h3.002V34.4h1.22V31.504z M56.234,72.503h-6.823v1.22h6.823V72.503z M55.624,54.346c0.337,0,0.61-0.273,0.61-0.61
	c0-0.337-0.273-0.61-0.61-0.61h-2.039v-8.468h2.039c0.337,0,0.61-0.273,0.61-0.61c0-0.337-0.273-0.61-0.61-0.61h-2.039v-5.932
	c0-0.337-0.273-0.61-0.61-0.61c-0.337,0-0.61,0.273-0.61,0.61v5.932h-2.344c-0.337,0-0.61,0.273-0.61,0.61
	c0,0.337,0.273,0.61,0.61,0.61h2.344v8.468h-2.344c-0.337,0-0.61,0.273-0.61,0.61c0,0.337,0.273,0.61,0.61,0.61h2.344v8.468h-2.344
	c-0.337,0-0.61,0.273-0.61,0.61c0,0.337,0.273,0.61,0.61,0.61h2.344v4.911c0,0.337,0.273,0.61,0.61,0.61
	c0.337,0,0.61-0.273,0.61-0.61v-4.911h2.039c0.337,0,0.61-0.273,0.61-0.61c0-0.337-0.273-0.61-0.61-0.61h-2.039v-8.468H55.624z
	 M29.552,52.369c0-6.813,5.542-12.355,12.355-12.355h0.61v-1.22h-0.61c-5.286,0-9.876,3.037-12.117,7.457V33.277
	c3.619-2.302,7.809-3.519,12.117-3.519h0.61v-1.22h-0.61c-4.283,0-8.455,1.142-12.117,3.308v-2.902h0.968
	c0.337,0,0.61-0.273,0.61-0.61v-1.415c0-1.386-1.128-2.514-2.515-2.514h-9.73c-1.386,0-2.514,1.128-2.514,2.514v1.415
	c0,0.337,0.273,0.61,0.61,0.61h0.858v23.426c0,3.832,0.931,7.444,2.546,10.655c-0.001,0.012-0.007,0.023-0.007,0.035v5.499
	c0,2.786,2.265,5.052,5.05,5.052h5.498c3.233,1.642,6.876,2.588,10.744,2.588h0.61v-1.22h-0.61c-12.467,0-22.61-10.142-22.61-22.609
	V28.945h9.272v20.844h0.008c-0.161,0.836-0.246,1.698-0.246,2.581c0,7.484,6.09,13.573,13.576,13.573h0.61v-1.22h-0.61
	C35.094,64.722,29.552,59.181,29.552,52.369z M17.829,26.918c0-0.713,0.58-1.294,1.294-1.294h9.73c0.714,0,1.295,0.58,1.295,1.294
	v0.805H17.829V26.918z M29.031,72.39h-3.366c-2.111,0-3.83-1.719-3.83-3.832v-3.396C23.688,68.059,26.143,70.526,29.031,72.39z
	 M42.491,50.304c-0.237-4.615,0.022-7.962,0.024-7.996c0.014-0.17-0.044-0.338-0.16-0.463c-0.116-0.125-0.278-0.196-0.448-0.196
	c-0.762,0-1.518,0.079-2.247,0.235c-0.329,0.071-0.539,0.395-0.469,0.725c0.07,0.329,0.397,0.533,0.725,0.469
	c0.438-0.094,0.886-0.156,1.341-0.186c-0.065,1.218-0.16,3.978,0.015,7.429c-0.144,0.045-0.28,0.103-0.41,0.176
	c-3.427-3.095-5.617-5.645-5.639-5.672c-0.11-0.129-0.27-0.207-0.44-0.214c-0.168-0.009-0.335,0.057-0.455,0.177
	c-0.535,0.533-1.014,1.124-1.422,1.756c-0.183,0.284-0.102,0.661,0.181,0.844c0.284,0.182,0.662,0.102,0.844-0.181
	c0.245-0.378,0.517-0.74,0.814-1.08c0.816,0.907,2.7,2.926,5.263,5.244c-0.069,0.131-0.125,0.269-0.166,0.415
	c-4.611,0.237-7.96-0.021-7.996-0.024c-0.168-0.013-0.338,0.044-0.463,0.16c-0.125,0.116-0.196,0.278-0.196,0.448
	c0,0.765,0.079,1.521,0.235,2.248c0.071,0.329,0.391,0.54,0.725,0.468c0.329-0.071,0.539-0.395,0.468-0.725
	c-0.093-0.436-0.156-0.885-0.186-1.341c1.218,0.065,3.977,0.161,7.428-0.015c0.045,0.144,0.103,0.28,0.175,0.409
	c-3.094,3.427-5.643,5.617-5.67,5.64c-0.129,0.11-0.207,0.27-0.214,0.44c-0.007,0.17,0.058,0.335,0.177,0.455
	c0.535,0.537,1.126,1.016,1.756,1.424c0.102,0.066,0.217,0.098,0.331,0.098c0.2,0,0.396-0.098,0.513-0.279
	c0.183-0.283,0.102-0.66-0.181-0.844c-0.377-0.244-0.739-0.518-1.08-0.816c0.907-0.816,2.925-2.7,5.242-5.264
	c0.3,0.159,0.637,0.258,1,0.258c1.189,0,2.156-0.967,2.156-2.156C44.063,51.384,43.395,50.56,42.491,50.304z M41.907,53.304
	c-0.516,0-0.935-0.42-0.935-0.935s0.42-0.935,0.935-0.935s0.935,0.42,0.935,0.935S42.422,53.304,41.907,53.304z M24.218,71.704
	c0.725,0,1.316-0.59,1.316-1.316c0-0.725-0.59-1.316-1.316-1.316c-0.726,0-1.316,0.59-1.316,1.316
	C22.902,71.113,23.492,71.704,24.218,71.704z M24.218,69.886c0.277,0,0.502,0.225,0.502,0.502s-0.225,0.502-0.502,0.502
	s-0.503-0.225-0.503-0.502S23.941,69.886,24.218,69.886z"/>
<path id="_x33_60" class="st0" d="M34.611,178.159c-0.258-17.58,10.564-26.24,27.312-26.24c12.239,0,24.607,4.912,24.864,19.001
	c0,14.348-12.11,19.26-23.447,19.26h-6.313v2.585h6.313c14.429,0.517,25.122,6.722,25.122,21.716
	c0,15.124-13.012,23.267-27.054,23.267c-18.294,0-30.662-9.953-29.245-28.696h-2.577c-1.288,20.036,11.981,31.281,31.821,31.281
	c15.846,0,29.631-9.565,29.631-25.852c0-15.124-10.178-21.845-20.484-22.879v-0.259c10.693-1.034,18.809-8.014,18.809-20.423
	c0-15.641-13.527-21.587-27.441-21.587c-18.294,0-30.146,9.824-29.889,28.825H34.611z M166.533,209.957
	c0,15.382-12.368,27.791-27.699,27.791s-27.699-12.409-27.699-27.791s12.368-27.791,27.699-27.791S166.533,194.575,166.533,209.957
	L166.533,209.957z M167.564,171.566c-1.804-12.409-11.852-22.233-27.054-22.233c-25.637,0-32.981,26.111-32.981,47.956
	c0,11.246,0.773,21.457,5.797,29.213c4.38,6.851,13.527,13.831,25.508,13.831c16.104,0,30.275-12.797,30.275-30.376
	c0-18.097-15.073-30.376-30.275-30.376c-14.043,0-26.024,9.695-28.6,22.104h-0.258c-0.386-20.165,4.251-49.766,30.404-49.766
	c8.889,0,21.128,3.749,24.607,19.648H167.564z M246.923,194.833c0,19.518-6.57,42.915-30.533,42.915s-30.533-23.396-30.533-42.915
	s6.57-42.915,30.533-42.915S246.923,175.315,246.923,194.833L246.923,194.833z M249.5,194.833c0-21.974-7.988-45.5-33.109-45.5
	s-33.109,23.526-33.109,45.5s7.988,45.5,33.109,45.5S249.5,216.808,249.5,194.833L249.5,194.833z"/>
<path id="Kreis_x5F_Grad" class="st1" d="M54.443,141.333h-3.021C70.153,113.464,101.97,95.088,138,95.088
	c36.03,0,67.847,18.375,86.578,46.245h-3.021c-18.398-26.424-48.99-43.755-83.557-43.755
	C103.432,97.578,72.841,114.909,54.443,141.333z M138,301.088c-36.283,0-68.186-19.093-86.205-47.755H48.86
	c18.302,30.099,51.412,50.245,89.14,50.245c37.727,0,70.838-20.146,89.14-50.245h-2.935
	C206.186,281.995,174.283,301.088,138,301.088z M128.192,260.986c-0.347,0.497-0.831,0.868-1.452,1.114s-1.344,0.369-2.169,0.369
	c-0.834,0-1.575-0.196-2.222-0.587c-0.647-0.391-1.147-0.948-1.501-1.67c-0.354-0.722-0.536-1.559-0.545-2.51v-0.893
	c0-1.542,0.36-2.738,1.079-3.586c0.72-0.848,1.731-1.273,3.034-1.273c1.069,0,1.929,0.273,2.58,0.819
	c0.652,0.546,1.05,1.321,1.195,2.324h-1.35c-0.253-1.359-1.059-2.039-2.419-2.039c-0.905,0-1.59,0.318-2.057,0.954
	c-0.466,0.635-0.702,1.556-0.707,2.762v0.838c0,1.149,0.262,2.063,0.787,2.74c0.525,0.678,1.235,1.017,2.13,1.017
	c0.506,0,0.949-0.056,1.329-0.168c0.38-0.113,0.694-0.302,0.942-0.568v-2.294h-2.37v-1.104h3.712V260.986z M135.061,258.188h-2.405
	v4.141h-1.357v-10.238h3.389c1.153,0,2.04,0.262,2.661,0.788c0.621,0.525,0.932,1.289,0.932,2.292c0,0.638-0.172,1.193-0.517,1.666
	c-0.345,0.473-0.824,0.827-1.438,1.062l2.405,4.345v0.084h-1.448L135.061,258.188z M132.656,257.084h2.074
	c0.67,0,1.204-0.173,1.6-0.521c0.396-0.347,0.594-0.812,0.594-1.395c0-0.634-0.189-1.12-0.566-1.458s-0.922-0.51-1.635-0.514h-2.067
	V257.084z M146.689,259.65H142.4l-0.963,2.679h-1.392l3.909-10.238h1.181l3.916,10.238h-1.385L146.689,259.65z M142.808,258.546
	h3.48l-1.744-4.788L142.808,258.546z M151.294,262.329v-10.238h2.889c0.891,0,1.678,0.197,2.363,0.591
	c0.684,0.394,1.214,0.954,1.587,1.68c0.373,0.727,0.56,1.561,0.565,2.503v0.654c0,0.966-0.185,1.812-0.558,2.538
	c-0.373,0.727-0.905,1.284-1.596,1.673s-1.498,0.588-2.416,0.598H151.294z M152.644,253.195v8.03h1.42
	c1.041,0,1.852-0.323,2.43-0.971c0.579-0.647,0.867-1.57,0.867-2.766v-0.598c0-1.163-0.272-2.068-0.818-2.712
	c-0.546-0.646-1.322-0.973-2.325-0.982H152.644z"/>
</svg>
