<?xml version="1.0" encoding="utf-8"?>
<!-- Generator: Adobe Illustrator 23.1.1, SVG Export Plug-In . SVG Version: 6.00 Build 0)  -->
<svg version="1.1" id="Duale_x5F_Konzernstrategie" xmlns="http://www.w3.org/2000/svg" xmlns:xlink="http://www.w3.org/1999/xlink"
	 x="0px" y="0px" viewBox="0 0 760 492" style="enable-background:new 0 0 760 492;" xml:space="preserve">
<style type="text/css">
	.st0{opacity:0.5;fill:#C6D6E3;enable-background:new    ;}
	.st1{fill:#1E2A63;}
	.st2{fill:#43B02A;}
</style>
<path id="_x3C_Schnittmenge_x3E_" class="st0" d="M380,56.7c-60.3,43.7-96.2,113.9-96.2,188.6s35.9,144.9,96.2,188.6
	c60.3-43.7,96.2-113.9,96.2-188.6S440.3,100.4,380,56.7z"/>
<path id="_x3C_Geschaeftsfelder_x3E_" class="st1" d="M327.1,317v0.7h-3v8h-0.8v-8h-3V317H327.1z M329.1,317v3.5l0,0
	c0.3-0.8,1.1-1.3,2-1.3c1.6,0,2.3,0.8,2.3,2.4v4.1h-0.8v-4c0-1.3-0.5-1.9-1.6-1.9c-1.4,0-2,1.2-2,2.2v3.6h-0.8V317H329.1L329.1,317z
	 M340.8,322.6v0.2H336c0,1.2,0.7,2.5,2.1,2.5c1,0,1.7-0.5,2-1.6h0.8c-0.4,1.5-1.3,2.3-2.7,2.3c-1.9,0-2.8-1.4-2.8-3.3
	c0-1.7,0.9-3.3,2.8-3.3C339.8,319.2,340.8,320.6,340.8,322.6z M340.1,322.1c0-1.2-0.8-2.2-2-2.2c-1.1,0-1.9,0.9-2.1,2.2H340.1z
	 M345.6,320.1h-0.1c-1.3,0-2.2,1-2.2,2.3v3.3h-0.8v-6.3h0.7v1.5l0,0c0.4-1,1.2-1.6,2.2-1.6h0.2L345.6,320.1L345.6,320.1z
	 M351.6,320.5c0.4-0.8,1.1-1.2,2-1.2c1.4,0,2.1,0.8,2.1,2.2v4.3h-0.8v-4.2c0-1.1-0.5-1.6-1.5-1.6c-1.2,0-1.7,0.9-1.7,2.3v3.5h-0.8
	v-4.3c0-1-0.4-1.6-1.3-1.6c-1.3,0-1.9,1-1.9,2.3v3.5h-0.8v-6.3h0.7v1.1l0,0c0.4-0.8,1.1-1.2,2.1-1.2
	C350.6,319.2,351.3,319.6,351.6,320.5z M363.3,322.5c0,1.8-1.1,3.3-3,3.3s-3-1.5-3-3.3s1.1-3.3,3-3.3
	C362.3,319.2,363.3,320.7,363.3,322.5z M360.4,325.2c1.5,0,2.2-1.3,2.2-2.7c0-1.3-0.7-2.7-2.2-2.7c-1.4,0-2.2,1.3-2.2,2.7
	C358.2,323.9,358.9,325.2,360.4,325.2z M369.7,320.5c0.4-0.8,1.1-1.2,2-1.2c1.4,0,2.1,0.8,2.1,2.2v4.3H373v-4.2
	c0-1.1-0.5-1.6-1.5-1.6c-1.2,0-1.7,0.9-1.7,2.3v3.5H369v-4.3c0-1-0.4-1.6-1.3-1.6c-1.3,0-1.9,1-1.9,2.3v3.5H365v-6.3h0.7v1.1l0,0
	c0.4-0.8,1.1-1.2,2.1-1.2C368.8,319.2,369.5,319.6,369.7,320.5z M380.6,321.2v3.3c0,0.3,0.1,0.5,0.5,0.5c0.1,0,0.2,0,0.2,0v0.6
	c-0.2,0-0.3,0-0.5,0c-0.7,0-0.9-0.3-0.9-1.1l0,0l0,0c-0.6,1-1.3,1.3-2.3,1.3c-1.2,0-2.1-0.6-2.1-1.8c0-0.8,0.4-1.2,0.6-1.4
	c0.4-0.3,0.9-0.5,2.4-0.6c0.9-0.1,1.3-0.1,1.3-0.9c0-1-0.6-1.3-1.6-1.3s-1.6,0.5-1.7,1.5h-0.8c0.1-1.4,1-2.1,2.6-2.1
	C380,319.2,380.6,320,380.6,321.2z M379.9,322.3c-0.1,0.2-0.4,0.2-0.8,0.3c-0.4,0.1-1.2,0.2-1.5,0.3c-0.6,0.2-1.2,0.4-1.2,1.2
	s0.7,1.2,1.4,1.2c1.2,0,2.2-0.8,2.2-2L379.9,322.3L379.9,322.3L379.9,322.3z M387.9,321.6v4.1h-0.8v-3.9c0-1.2-0.5-1.9-1.6-1.9
	c-1.4,0-2,1.1-2,2.2v3.6h-0.8v-6.3h0.8v1.1l0,0c0.3-0.8,1.1-1.3,2-1.3C387.2,319.2,387.9,320,387.9,321.6z M394.7,321.2v3.3
	c0,0.3,0.1,0.5,0.5,0.5c0.1,0,0.2,0,0.2,0v0.6c-0.2,0-0.3,0-0.5,0c-0.7,0-0.9-0.3-0.9-1.1l0,0l0,0c-0.6,1-1.3,1.3-2.3,1.3
	c-1.2,0-2.1-0.6-2.1-1.8c0-0.8,0.4-1.2,0.6-1.4c0.4-0.3,0.9-0.5,2.4-0.6c0.9-0.1,1.3-0.1,1.3-0.9c0-1-0.6-1.3-1.6-1.3
	s-1.6,0.5-1.7,1.5h-0.8c0.1-1.4,1-2.1,2.6-2.1C394.1,319.2,394.7,320,394.7,321.2z M394,322.3c-0.1,0.2-0.4,0.2-0.8,0.3
	c-0.4,0.1-1.2,0.2-1.5,0.3c-0.6,0.2-1.2,0.4-1.2,1.2s0.7,1.2,1.4,1.2c1.2,0,2.2-0.8,2.2-2L394,322.3L394,322.3L394,322.3z
	 M401.4,320.5L401.4,320.5v-1.1h0.8v5.8c0,2-0.9,3-2.8,3c-1.4,0-2.5-0.7-2.6-1.9h0.8c0.1,0.8,0.8,1.3,1.8,1.3c1.4,0,2-0.9,2-2.4
	v-0.9l0,0c-0.4,0.8-1.1,1.3-2,1.3c-1.9,0-2.8-1.3-2.8-3.2c0-1.8,1.1-3.2,2.8-3.2C400.3,319.2,401.1,319.8,401.4,320.5z M399.4,325
	c1.3,0,2-1.1,2-2.5c0-1.3-0.6-2.6-2-2.6c-1.3,0-2.1,1.1-2.1,2.6C397.3,323.8,398,325,399.4,325z M409.6,322.6v0.2h-4.8
	c0,1.2,0.7,2.5,2.1,2.5c1,0,1.7-0.5,2-1.6h0.8c-0.4,1.5-1.3,2.3-2.7,2.3c-1.9,0-2.8-1.4-2.8-3.3c0-1.7,0.9-3.3,2.8-3.3
	C408.6,319.2,409.6,320.6,409.6,322.6z M408.8,322.1c0-1.2-0.8-2.2-2-2.2c-1.1,0-1.9,0.9-2.1,2.2H408.8z M415.8,320.5
	c0.4-0.8,1.1-1.2,2-1.2c1.4,0,2.1,0.8,2.1,2.2v4.3h-0.8v-4.2c0-1.1-0.5-1.6-1.5-1.6c-1.2,0-1.7,0.9-1.7,2.3v3.5h-0.8v-4.3
	c0-1-0.4-1.6-1.3-1.6c-1.3,0-1.9,1-1.9,2.3v3.5h-0.8v-6.3h0.7v1.1l0,0c0.4-0.8,1.1-1.2,2.1-1.2C414.9,319.2,415.6,319.6,415.8,320.5
	z M427.3,322.6v0.2h-4.8c0,1.2,0.7,2.5,2.1,2.5c1,0,1.7-0.5,2-1.6h0.8c-0.4,1.5-1.3,2.3-2.7,2.3c-1.9,0-2.8-1.4-2.8-3.3
	c0-1.7,0.9-3.3,2.8-3.3C426.3,319.2,427.3,320.6,427.3,322.6z M426.5,322.1c0-1.2-0.8-2.2-2-2.2c-1.1,0-1.9,0.9-2.1,2.2H426.5z
	 M434,321.6v4.1h-0.8v-3.9c0-1.2-0.5-1.9-1.6-1.9c-1.4,0-2,1.1-2,2.2v3.6h-0.8v-6.3h0.8v1.1l0,0c0.3-0.8,1.1-1.3,2-1.3
	C433.3,319.2,434,320,434,321.6z M437.3,317.5v1.9h1.3v0.6h-1.3v4.3c0,0.5,0.2,0.8,0.7,0.8c0.1,0,0.4,0,0.6,0v0.7
	c-0.3,0-0.4,0-0.7,0c-1,0-1.4-0.3-1.4-1.4V320h-1.1v-0.6h1.1v-1.9H437.3L437.3,317.5z M351.2,330.9v8.7h-0.8v-8.7H351.2z
	 M358.6,335.5v4.1h-0.8v-3.9c0-1.2-0.5-1.9-1.6-1.9c-1.4,0-2,1.1-2,2.2v3.6h-0.8v-6.3h0.8v1.1l0,0c0.3-0.8,1.1-1.3,2-1.3
	C357.9,333.2,358.6,333.9,358.6,335.5z M365.7,335.5v4.1h-0.8v-3.9c0-1.2-0.5-1.9-1.6-1.9c-1.4,0-2,1.1-2,2.2v3.6h-0.8v-6.3h0.8v1.1
	l0,0c0.3-0.8,1.1-1.3,2-1.3C365,333.2,365.7,333.9,365.7,335.5z M373.1,336.5v0.2h-4.8c0,1.2,0.7,2.5,2.1,2.5c1,0,1.7-0.5,2-1.6h0.8
	c-0.4,1.5-1.3,2.3-2.7,2.3c-1.9,0-2.8-1.4-2.8-3.3c0-1.7,0.9-3.3,2.8-3.3C372.1,333.2,373.1,334.6,373.1,336.5z M372.3,336
	c0-1.2-0.8-2.2-2-2.2c-1.1,0-1.9,0.9-2.1,2.2H372.3z M379.8,335.5v4.1H379v-3.9c0-1.2-0.5-1.9-1.6-1.9c-1.4,0-2,1.1-2,2.2v3.6h-0.8
	v-6.3h0.8v1.1l0,0c0.3-0.8,1.1-1.3,2-1.3C379.1,333.2,379.8,333.9,379.8,335.5z M385,334h-0.1c-1.3,0-2.2,1-2.2,2.3v3.3h-0.8v-6.3
	h0.7v1.5l0,0c0.4-1,1.2-1.6,2.2-1.6h0.2L385,334L385,334z M391.1,335.2v3.3c0,0.3,0.1,0.5,0.5,0.5c0.1,0,0.2,0,0.2,0v0.6
	c-0.2,0-0.3,0-0.5,0c-0.7,0-0.9-0.3-0.9-1.1l0,0l0,0c-0.6,1-1.3,1.3-2.3,1.3c-1.2,0-2.1-0.6-2.1-1.8c0-0.8,0.4-1.2,0.6-1.4
	c0.4-0.3,0.9-0.5,2.4-0.6c0.9-0.1,1.3-0.1,1.3-0.9c0-1-0.6-1.3-1.6-1.3s-1.6,0.5-1.7,1.5h-0.8c0.1-1.4,1-2.1,2.6-2.1
	C390.5,333.2,391.1,333.9,391.1,335.2z M390.3,336.2c-0.1,0.2-0.4,0.2-0.8,0.3c-0.4,0.1-1.2,0.2-1.5,0.3c-0.6,0.2-1.2,0.4-1.2,1.2
	s0.7,1.2,1.4,1.2c1.2,0,2.2-0.8,2.2-2L390.3,336.2L390.3,336.2L390.3,336.2z M394,333.3v3.9c0,1.1,0.3,1.9,1.7,1.9
	c1.3,0,1.9-1.2,1.9-2.5v-3.3h0.8v6.3h-0.7v-1.1l0,0c-0.4,0.8-1.2,1.3-2.2,1.3c-1.6,0-2.2-0.9-2.2-2.4v-4.1L394,333.3L394,333.3z
	 M405,334.4c0.4-0.8,1.1-1.2,2-1.2c1.4,0,2.1,0.8,2.1,2.2v4.3h-0.8v-4.2c0-1.1-0.5-1.6-1.5-1.6c-1.2,0-1.7,0.9-1.7,2.3v3.5h-0.8
	v-4.3c0-1-0.4-1.6-1.3-1.6c-1.3,0-1.9,1-1.9,2.3v3.5h-0.8v-6.3h0.7v1.1l0,0c0.4-0.8,1.1-1.2,2.1-1.2
	C404,333.2,404.8,333.6,405,334.4z M327.9,219.7v0.7h-3v8H324v-8h-3v-0.7H327.9z M329.9,219.7v3.5l0,0c0.3-0.8,1.1-1.3,2-1.3
	c1.6,0,2.3,0.8,2.3,2.4v4.1h-0.8v-4c0-1.3-0.5-1.9-1.6-1.9c-1.4,0-2,1.2-2,2.2v3.6H329v-8.7L329.9,219.7L329.9,219.7z M341.6,225.3
	v0.2h-4.8c0,1.2,0.7,2.5,2.1,2.5c1,0,1.7-0.5,2-1.6h0.8c-0.4,1.5-1.3,2.3-2.7,2.3c-1.9,0-2.8-1.4-2.8-3.3c0-1.7,0.9-3.3,2.8-3.3
	C340.6,221.9,341.6,223.3,341.6,225.3z M340.8,224.8c0-1.2-0.8-2.2-2-2.2c-1.1,0-1.9,0.9-2.1,2.2H340.8z M346.3,222.8h-0.1
	c-1.3,0-2.2,1-2.2,2.3v3.3h-0.8v-6.3h0.7v1.5l0,0c0.4-1,1.2-1.6,2.2-1.6h0.2L346.3,222.8L346.3,222.8z M352.3,223.2
	c0.4-0.8,1.1-1.2,2-1.2c1.4,0,2.1,0.8,2.1,2.2v4.3h-0.8v-4.2c0-1.1-0.5-1.6-1.5-1.6c-1.2,0-1.7,0.9-1.7,2.3v3.6h-0.8v-4.3
	c0-1-0.4-1.6-1.3-1.6c-1.3,0-1.9,1-1.9,2.3v3.5h-0.8v-6.3h0.7v1.1l0,0c0.4-0.8,1.1-1.2,2.1-1.2C351.3,221.9,352.1,222.4,352.3,223.2
	z M364.1,225.3c0,1.8-1.1,3.3-3,3.3s-3-1.5-3-3.3s1.1-3.3,3-3.3C363,221.9,364.1,223.5,364.1,225.3z M361.1,227.9
	c1.5,0,2.2-1.3,2.2-2.7c0-1.3-0.7-2.7-2.2-2.7c-1.4,0-2.2,1.3-2.2,2.7C358.9,226.6,359.7,227.9,361.1,227.9z M370.5,223.2
	c0.4-0.8,1.1-1.2,2-1.2c1.4,0,2.1,0.8,2.1,2.2v4.3h-0.8v-4.2c0-1.1-0.5-1.6-1.5-1.6c-1.2,0-1.7,0.9-1.7,2.3v3.6h-0.8v-4.3
	c0-1-0.4-1.6-1.3-1.6c-1.3,0-1.9,1-1.9,2.3v3.5h-0.8v-6.3h0.7v1.1l0,0c0.4-0.8,1.1-1.2,2.1-1.2C369.5,221.9,370.2,222.4,370.5,223.2
	z M381.4,224v3.3c0,0.3,0.1,0.5,0.5,0.5c0.1,0,0.2,0,0.2,0v0.6c-0.2,0-0.3,0-0.5,0c-0.7,0-0.9-0.3-0.9-1.1l0,0l0,0
	c-0.6,1-1.3,1.3-2.3,1.3c-1.2,0-2.1-0.6-2.1-1.8c0-0.8,0.4-1.2,0.6-1.4c0.4-0.3,0.9-0.5,2.4-0.6c0.9-0.1,1.3-0.1,1.3-0.9
	c0-1-0.6-1.3-1.6-1.3s-1.6,0.5-1.7,1.5h-0.8c0.1-1.4,1-2.1,2.6-2.1C380.7,221.9,381.4,222.7,381.4,224z M380.6,225
	c-0.1,0.2-0.4,0.2-0.8,0.3s-1.2,0.2-1.5,0.3c-0.6,0.2-1.2,0.4-1.2,1.2s0.7,1.2,1.4,1.2c1.2,0,2.2-0.8,2.2-2L380.6,225L380.6,225
	L380.6,225L380.6,225z M388.6,224.3v4.1h-0.8v-3.9c0-1.2-0.5-1.9-1.6-1.9c-1.4,0-2,1.1-2,2.2v3.6h-0.8v-6.3h0.8v1.1l0,0
	c0.3-0.8,1.1-1.3,2-1.3C388,221.9,388.6,222.7,388.6,224.3z M395.5,224v3.3c0,0.3,0.1,0.5,0.5,0.5c0.1,0,0.2,0,0.2,0v0.6
	c-0.2,0-0.3,0-0.5,0c-0.7,0-0.9-0.3-0.9-1.1l0,0l0,0c-0.6,1-1.3,1.3-2.3,1.3c-1.2,0-2.1-0.6-2.1-1.8c0-0.8,0.4-1.2,0.6-1.4
	c0.4-0.3,0.9-0.5,2.4-0.6c0.9-0.1,1.3-0.1,1.3-0.9c0-1-0.6-1.3-1.6-1.3s-1.6,0.5-1.7,1.5h-0.8c0.1-1.4,1-2.1,2.6-2.1
	C394.8,221.9,395.5,222.7,395.5,224z M394.7,225c-0.1,0.2-0.4,0.2-0.8,0.3s-1.2,0.2-1.5,0.3c-0.6,0.2-1.2,0.4-1.2,1.2
	s0.7,1.2,1.4,1.2c1.2,0,2.2-0.8,2.2-2L394.7,225L394.7,225L394.7,225L394.7,225z M402.1,223.2L402.1,223.2v-1.1h0.8v5.8
	c0,2-0.9,3-2.8,3c-1.4,0-2.5-0.7-2.6-1.9h0.8c0.1,0.8,0.8,1.3,1.8,1.3c1.4,0,2-0.9,2-2.4V227l0,0c-0.4,0.8-1.1,1.3-2,1.3
	c-1.9,0-2.8-1.3-2.8-3.2c0-1.8,1.1-3.2,2.8-3.2C401,221.9,401.8,222.5,402.1,223.2z M400.1,227.7c1.3,0,2-1.1,2-2.5
	c0-1.3-0.6-2.6-2-2.6c-1.3,0-2.1,1.1-2.1,2.6C398.1,226.5,398.7,227.7,400.1,227.7z M410.3,225.3v0.2h-4.8c0,1.2,0.7,2.5,2.1,2.5
	c1,0,1.7-0.5,2-1.6h0.8c-0.4,1.5-1.3,2.3-2.7,2.3c-1.9,0-2.8-1.4-2.8-3.3c0-1.7,0.9-3.3,2.8-3.3
	C409.3,221.9,410.3,223.3,410.3,225.3z M409.5,224.8c0-1.2-0.8-2.2-2-2.2c-1.1,0-1.9,0.9-2.1,2.2H409.5z M416.5,223.2
	c0.4-0.8,1.1-1.2,2-1.2c1.4,0,2.1,0.8,2.1,2.2v4.3h-0.8v-4.2c0-1.1-0.5-1.6-1.5-1.6c-1.2,0-1.7,0.9-1.7,2.3v3.6h-0.8v-4.3
	c0-1-0.4-1.6-1.3-1.6c-1.3,0-1.9,1-1.9,2.3v3.5h-0.8v-6.3h0.7v1.1l0,0c0.4-0.8,1.1-1.2,2.1-1.2C415.6,221.9,416.3,222.4,416.5,223.2
	z M428,225.3v0.2h-4.8c0,1.2,0.7,2.5,2.1,2.5c1,0,1.7-0.5,2-1.6h0.8c-0.4,1.5-1.3,2.3-2.7,2.3c-1.9,0-2.8-1.4-2.8-3.3
	c0-1.7,0.9-3.3,2.8-3.3C427,221.9,428,223.3,428,225.3z M427.2,224.8c0-1.2-0.8-2.2-2-2.2c-1.1,0-1.9,0.9-2.1,2.2H427.2z
	 M434.7,224.3v4.1H434v-3.9c0-1.2-0.5-1.9-1.6-1.9c-1.4,0-2,1.1-2,2.2v3.6h-0.8v-6.3h0.8v1.1l0,0c0.3-0.8,1.1-1.3,2-1.3
	C434.1,221.9,434.7,222.7,434.7,224.3z M438,220.2v1.9h1.3v0.6H438v4.3c0,0.5,0.2,0.8,0.7,0.8c0.1,0,0.4,0,0.6,0v0.7
	c-0.3,0-0.4,0-0.7,0c-1,0-1.4-0.3-1.4-1.4v-4.4h-1.1v-0.6h1.1v-1.9L438,220.2L438,220.2L438,220.2z M342.7,233.6l3.4,8.7h-0.9
	l-1.1-2.7h-4l-1,2.7h-0.9l3.5-8.7H342.7z M340.5,238.9h3.4l-1.7-4.5L340.5,238.9z M352.5,238.3v4.1h-0.8v-3.9c0-1.2-0.5-1.9-1.6-1.9
	c-1.4,0-2,1.1-2,2.2v3.6h-0.8v-6.3h0.8v1.1l0,0c0.3-0.8,1.1-1.3,2-1.3C351.8,235.9,352.5,236.7,352.5,238.3z M355.8,234.2v1.9h1.3
	v0.6h-1.3v4.3c0,0.5,0.2,0.8,0.7,0.8c0.1,0,0.4,0,0.6,0v0.7c-0.3,0-0.4,0-0.7,0c-1,0-1.4-0.3-1.4-1.4v-4.4h-1.1v-0.6h1.1v-1.9
	L355.8,234.2L355.8,234.2z M361.9,236.7h-0.1c-1.3,0-2.2,1-2.2,2.3v3.3h-0.8V236h0.7v1.5l0,0c0.4-1,1.2-1.6,2.2-1.6h0.2L361.9,236.7
	L361.9,236.7z M364,233.6v1.2h-0.8v-1.2H364z M364,236.1v6.3h-0.8v-6.3H364z M371.4,239.2v0.2h-4.8c0,1.2,0.7,2.5,2.1,2.5
	c1,0,1.7-0.5,2-1.6h0.8c-0.4,1.5-1.3,2.3-2.7,2.3c-1.9,0-2.8-1.4-2.8-3.3c0-1.7,0.9-3.3,2.8-3.3
	C370.4,235.9,371.4,237.3,371.4,239.2z M370.6,238.8c0-1.2-0.8-2.2-2-2.2c-1.1,0-1.9,0.9-2.1,2.2H370.6z M373.8,233.6v3.6l0,0
	c0.3-0.8,1.2-1.4,2.2-1.4c1.8,0,2.8,1.5,2.8,3.3s-0.9,3.3-2.8,3.3c-1,0-1.9-0.5-2.2-1.4l0,0v1.2H373v-8.7L373.8,233.6L373.8,233.6z
	 M373.8,239.2c0,1.4,0.6,2.7,2.2,2.7c1.5,0,2.1-1.4,2.1-2.7c0-1.4-0.6-2.7-2.1-2.7S373.8,237.7,373.8,239.2z M385.2,237.9h-0.8
	c0-0.9-0.7-1.4-1.6-1.4c-0.7,0-1.5,0.3-1.5,1.1c0,0.5,0.5,0.9,1.4,1.1l0.8,0.2c0.7,0.1,1.9,0.5,1.9,1.8c0,1.4-1.4,1.9-2.5,1.9
	c-1.5,0-2.5-0.7-2.6-2.2h0.8c0.1,1,0.8,1.6,1.9,1.6c0.8,0,1.7-0.4,1.7-1.2c0-0.6-0.5-1-1.5-1.2l-0.8-0.2c-1.2-0.3-1.8-0.8-1.8-1.7
	c0-1.3,1.3-1.8,2.4-1.8C384.2,235.9,385.1,236.6,385.2,237.9z M391.6,237.9h-0.8c0-0.9-0.7-1.4-1.6-1.4c-0.7,0-1.5,0.3-1.5,1.1
	c0,0.5,0.5,0.9,1.4,1.1l0.8,0.2c0.7,0.1,1.9,0.5,1.9,1.8c0,1.4-1.4,1.9-2.5,1.9c-1.5,0-2.5-0.7-2.6-2.2h0.8c0.1,1,0.8,1.6,1.9,1.6
	c0.8,0,1.7-0.4,1.7-1.2c0-0.6-0.5-1-1.5-1.2l-0.8-0.2c-1.2-0.3-1.8-0.8-1.8-1.7c0-1.3,1.3-1.8,2.4-1.8
	C390.7,235.9,391.6,236.6,391.6,237.9z M394.8,234.2v1.9h1.3v0.6h-1.3v4.3c0,0.5,0.2,0.8,0.7,0.8c0.1,0,0.4,0,0.6,0v0.7
	c-0.3,0-0.4,0-0.7,0c-1,0-1.4-0.3-1.4-1.4v-4.4h-1.1v-0.6h1.1v-1.9L394.8,234.2L394.8,234.2L394.8,234.2z M400.9,236.7h-0.1
	c-1.3,0-2.2,1-2.2,2.3v3.3h-0.8V236h0.7v1.5l0,0c0.4-1,1.2-1.6,2.2-1.6h0.2L400.9,236.7L400.9,236.7z M407,237.9v3.3
	c0,0.3,0.1,0.5,0.5,0.5c0.1,0,0.2,0,0.2,0v0.6c-0.2,0-0.3,0-0.5,0c-0.7,0-0.9-0.3-0.9-1.1l0,0l0,0c-0.6,1-1.3,1.3-2.3,1.3
	c-1.2,0-2.1-0.6-2.1-1.8c0-0.8,0.4-1.2,0.6-1.4c0.4-0.3,0.9-0.5,2.4-0.6c0.9-0.1,1.3-0.1,1.3-0.9c0-1-0.6-1.3-1.6-1.3
	s-1.6,0.5-1.7,1.5h-0.8c0.1-1.4,1-2.1,2.6-2.1C406.4,235.9,407,236.7,407,237.9z M406.2,238.9c-0.1,0.2-0.4,0.2-0.8,0.3
	s-1.2,0.2-1.5,0.3c-0.6,0.2-1.2,0.4-1.2,1.2s0.7,1.2,1.4,1.2c1.2,0,2.2-0.8,2.2-2L406.2,238.9L406.2,238.9L406.2,238.9L406.2,238.9z
	 M414.3,238.3v4.1h-0.8v-3.9c0-1.2-0.5-1.9-1.6-1.9c-1.4,0-2,1.1-2,2.2v3.6h-0.8v-6.3h0.8v1.1l0,0c0.3-0.8,1.1-1.3,2-1.3
	C413.6,235.9,414.3,236.7,414.3,238.3z M420.9,237.1L420.9,237.1V236h0.8v5.8c0,2-0.9,3-2.8,3c-1.4,0-2.5-0.7-2.6-1.9h0.8
	c0.1,0.8,0.8,1.3,1.8,1.3c1.4,0,2-0.9,2-2.4V241l0,0c-0.4,0.8-1.1,1.3-2,1.3c-1.9,0-2.8-1.3-2.8-3.2c0-1.8,1.1-3.2,2.8-3.2
	C419.7,235.9,420.5,236.4,420.9,237.1z M418.9,241.6c1.3,0,2-1.1,2-2.5c0-1.3-0.6-2.6-2-2.6c-1.3,0-2.1,1.1-2.1,2.6
	C416.8,240.4,417.4,241.6,418.9,241.6z M379.1,400.5c-14,0-25.4-11.4-25.4-25.4s11.4-25.4,25.4-25.4s25.4,11.4,25.4,25.4
	S393.1,400.5,379.1,400.5z M379.1,350.5c-13.5,0-24.5,11-24.5,24.5s11,24.5,24.5,24.5s24.5-11,24.5-24.5S392.7,350.5,379.1,350.5z
	 M393.3,374.5h-6.9c-0.1-1.3-0.6-2.5-1.4-3.4l4.9-4.8c0.2-0.2,0.2-0.6,0-0.8c-0.2-0.2-0.6-0.2-0.8,0l-4.9,4.8
	c-0.9-0.7-2-1.2-3.2-1.3v-7c0-0.3-0.3-0.6-0.6-0.6c-0.1,0-0.1,0-0.2,0.1h-0.1c-0.3,0-0.6,0.3-0.6,0.6v3l-2.2-2.2
	c-0.2-0.2-0.6-0.2-0.8,0c-0.2,0.2-0.2,0.6,0,0.8l3,3v7.1l-5-5v-4.4c0-0.3-0.3-0.6-0.6-0.6s-0.6,0.3-0.6,0.6v3.3l-2.1-2.1
	c-0.2-0.2-0.6-0.2-0.8,0s-0.2,0.6,0,0.8l2.1,2.1h-3.3c-0.3,0-0.6,0.3-0.6,0.6s0.3,0.6,0.6,0.6h4.4l5,5h-6.9l-3.1-3.1
	c-0.2-0.2-0.6-0.2-0.8,0c-0.2,0.2-0.2,0.6,0,0.8l2.3,2.3H367c-0.3,0-0.6,0.3-0.6,0.6s0.3,0.6,0.6,0.6h3.2l-2.3,2.3
	c-0.2,0.2-0.2,0.6,0,0.8c0.2,0.2,0.6,0.2,0.8,0l3.1-3.1h6.8l-4.7,4.7h-4.5c-0.3,0-0.6,0.3-0.6,0.6s0.3,0.6,0.6,0.6h3.4l-2.4,2.4
	c-0.2,0.2-0.2,0.6,0,0.8s0.6,0.2,0.8,0l2.3-2.3v3.1c0,0.3,0.3,0.6,0.6,0.6s0.6-0.3,0.6-0.6v-4.3l5.7-5.7c0.1,0,0.1-0.1,0.1-0.1
	c0.1-0.1,0.2-0.3,0.2-0.5V370c2.5,0.2,4.6,2.3,4.6,5c0,2.8-2.2,5-4.9,5c-0.3,0-0.6,0.3-0.6,0.6v0.1v0.1v7.3c0,0.3,0.3,0.6,0.6,0.6
	s0.6-0.3,0.6-0.6v-6.9c1.2-0.1,2.3-0.6,3.2-1.4l4.8,4.8c0.1,0.1,0.3,0.2,0.4,0.2s0.3-0.1,0.4-0.2c0.2-0.2,0.2-0.6,0-0.8l-4.9-4.9
	c0.8-0.9,1.3-2.1,1.4-3.4h7c0.3,0,0.6-0.3,0.6-0.6S393.6,374.5,393.3,374.5z M356.2,117.6v0.7H351v3.1h4.9v0.7H351v3.4h5.2v0.7h-6.1
	v-8.7L356.2,117.6L356.2,117.6z M358.7,117.6v8.7h-0.8v-8.7H358.7z M366.1,123.2v0.2h-4.8c0,1.2,0.7,2.5,2.1,2.5c1,0,1.7-0.5,2-1.6
	h0.8c-0.4,1.5-1.3,2.3-2.7,2.3c-1.9,0-2.8-1.4-2.8-3.3c0-1.7,0.9-3.3,2.8-3.3C365.1,119.8,366.1,121.2,366.1,123.2z M365.3,122.7
	c0-1.2-0.8-2.2-2-2.2c-1.1,0-1.9,0.9-2.1,2.2H365.3z M368.5,117.6v5.5l3.5-3.1h1l-2.7,2.3l2.9,4h-1l-2.5-3.4l-1.2,1v2.4h-0.8v-8.7
	C367.7,117.6,368.5,117.6,368.5,117.6z M375.6,118.1v1.9h1.3v0.6h-1.3v4.3c0,0.5,0.2,0.8,0.7,0.8c0.1,0,0.4,0,0.6,0v0.7
	c-0.3,0-0.4,0-0.7,0c-1,0-1.4-0.3-1.4-1.4v-4.4h-1.1V120h1.1v-1.9H375.6L375.6,118.1z M381.7,120.7h-0.1c-1.3,0-2.2,1-2.2,2.3v3.3
	h-0.8V120h0.7v1.5l0,0c0.4-1,1.2-1.6,2.2-1.6h0.2L381.7,120.7L381.7,120.7z M383.8,117.6v1.2H383v-1.2H383.8z M383.8,120v6.3H383
	V120H383.8z M390.5,121.9h-0.8c0-0.9-0.7-1.4-1.6-1.4c-0.7,0-1.5,0.3-1.5,1.1c0,0.5,0.5,0.9,1.4,1.1l0.8,0.2
	c0.7,0.1,1.9,0.5,1.9,1.8c0,1.4-1.4,1.9-2.5,1.9c-1.5,0-2.5-0.7-2.6-2.2h0.8c0.1,1,0.8,1.6,1.9,1.6c0.8,0,1.7-0.4,1.7-1.2
	c0-0.6-0.5-1-1.5-1.2l-0.8-0.2c-1.2-0.3-1.8-0.8-1.8-1.7c0-1.3,1.3-1.8,2.4-1.8C389.5,119.8,390.4,120.6,390.5,121.9z M397.6,122
	h-0.8c-0.2-1-0.8-1.5-1.8-1.5c-1.5,0-2.2,1.4-2.2,2.7c0,1.4,0.8,2.7,2.2,2.7c0.9,0,1.7-0.7,1.8-1.8h0.8c-0.2,1.5-1.2,2.4-2.6,2.4
	c-1.9,0-3-1.5-3-3.3c0-1.9,1.1-3.3,3-3.3C396.5,119.8,397.4,120.7,397.6,122z M400.1,117.6v3.5l0,0c0.3-0.8,1.1-1.3,2-1.3
	c1.6,0,2.3,0.8,2.3,2.4v4.1h-0.8v-4c0-1.3-0.5-1.9-1.6-1.9c-1.4,0-2,1.2-2,2.2v3.6h-0.8v-8.7h0.9V117.6z M411.8,123.2v0.2H407
	c0,1.2,0.7,2.5,2.1,2.5c1,0,1.7-0.5,2-1.6h0.8c-0.4,1.5-1.3,2.3-2.7,2.3c-1.9,0-2.8-1.4-2.8-3.3c0-1.7,0.9-3.3,2.8-3.3
	C410.8,119.8,411.8,121.2,411.8,123.2z M411,122.7c0-1.2-0.8-2.2-2-2.2c-1.1,0-1.9,0.9-2.1,2.2H411z M334.7,131.5l5.1,7.4l0,0v-7.4
	h0.8v8.7h-0.9l-5.1-7.4l0,0v7.4h-0.8v-8.7H334.7z M348.2,137.1v0.2h-4.8c0,1.2,0.7,2.5,2.1,2.5c1,0,1.7-0.5,2-1.6h0.8
	c-0.4,1.5-1.3,2.3-2.7,2.3c-1.9,0-2.8-1.4-2.8-3.3c0-1.7,0.9-3.3,2.8-3.3C347.2,133.8,348.2,135.2,348.2,137.1z M347.4,136.7
	c0-1.2-0.8-2.2-2-2.2c-1.1,0-1.9,0.9-2.1,2.2H347.4z M350.6,131.5v3.6l0,0c0.3-0.8,1.2-1.4,2.2-1.4c1.8,0,2.8,1.5,2.8,3.3
	s-0.9,3.3-2.8,3.3c-1,0-1.9-0.5-2.2-1.4l0,0v1.2h-0.7v-8.7L350.6,131.5L350.6,131.5z M350.6,137.1c0,1.4,0.6,2.7,2.2,2.7
	c1.5,0,2.1-1.4,2.1-2.7c0-1.4-0.6-2.7-2.1-2.7C351.3,134.4,350.6,135.6,350.6,137.1z M362.7,137.1v0.2h-4.8c0,1.2,0.7,2.5,2.1,2.5
	c1,0,1.7-0.5,2-1.6h0.8c-0.4,1.5-1.3,2.3-2.7,2.3c-1.9,0-2.8-1.4-2.8-3.3c0-1.7,0.9-3.3,2.8-3.3
	C361.7,133.8,362.7,135.2,362.7,137.1z M361.9,136.7c0-1.2-0.8-2.2-2-2.2c-1.1,0-1.9,0.9-2.1,2.2H361.9z M369.4,136.2v4.1h-0.8v-3.9
	c0-1.2-0.5-1.9-1.6-1.9c-1.4,0-2,1.1-2,2.2v3.6h-0.8V134h0.8v1.1l0,0c0.3-0.8,1.1-1.3,2-1.3C368.7,133.8,369.4,134.6,369.4,136.2z
	 M376.3,135.8v3.3c0,0.3,0.1,0.5,0.5,0.5c0.1,0,0.2,0,0.2,0v0.6c-0.2,0-0.3,0-0.5,0c-0.7,0-0.9-0.3-0.9-1.1l0,0l0,0
	c-0.6,1-1.3,1.3-2.3,1.3c-1.2,0-2.1-0.6-2.1-1.8c0-0.8,0.4-1.2,0.6-1.4c0.4-0.3,0.9-0.5,2.4-0.6c0.9-0.1,1.3-0.1,1.3-0.9
	c0-1-0.6-1.3-1.6-1.3s-1.6,0.5-1.7,1.5h-0.8c0.1-1.4,1-2.1,2.6-2.1S376.3,134.6,376.3,135.8z M375.5,136.8c-0.1,0.2-0.4,0.2-0.8,0.3
	s-1.2,0.2-1.5,0.3c-0.6,0.2-1.2,0.4-1.2,1.2s0.7,1.2,1.4,1.2c1.2,0,2.2-0.8,2.2-2L375.5,136.8L375.5,136.8L375.5,136.8L375.5,136.8z
	 M382.9,135L382.9,135v-1.1h0.8v5.8c0,2-0.9,3-2.8,3c-1.4,0-2.5-0.7-2.6-1.9h0.8c0.1,0.8,0.8,1.3,1.8,1.3c1.4,0,2-0.9,2-2.4v-0.9
	l0,0c-0.4,0.8-1.1,1.3-2,1.3c-1.9,0-2.8-1.3-2.8-3.2c0-1.8,1.1-3.2,2.8-3.2C381.8,133.8,382.6,134.3,382.9,135z M380.9,139.5
	c1.3,0,2-1.1,2-2.5c0-1.3-0.6-2.6-2-2.6c-1.3,0-2.1,1.1-2.1,2.6C378.9,138.3,379.5,139.5,380.9,139.5z M390.3,135L390.3,135v-1.1
	h0.8v5.8c0,2-0.9,3-2.8,3c-1.4,0-2.5-0.7-2.6-1.9h0.8c0.1,0.8,0.8,1.3,1.8,1.3c1.4,0,2-0.9,2-2.4v-0.9l0,0c-0.4,0.8-1.1,1.3-2,1.3
	c-1.9,0-2.8-1.3-2.8-3.2c0-1.8,1.1-3.2,2.8-3.2C389.2,133.8,390,134.3,390.3,135z M388.3,139.5c1.3,0,2-1.1,2-2.5
	c0-1.3-0.6-2.6-2-2.6c-1.3,0-2.1,1.1-2.1,2.6C386.3,138.3,386.9,139.5,388.3,139.5z M396.3,134.6h-0.1c-1.3,0-2.2,1-2.2,2.3v3.3
	h-0.8V134h0.7v1.5l0,0c0.4-1,1.2-1.6,2.2-1.6h0.2L396.3,134.6L396.3,134.6z M402.7,137.1v0.2h-4.8c0,1.2,0.7,2.5,2.1,2.5
	c1,0,1.7-0.5,2-1.6h0.8c-0.4,1.5-1.3,2.3-2.7,2.3c-1.9,0-2.8-1.4-2.8-3.3c0-1.7,0.9-3.3,2.8-3.3
	C401.7,133.8,402.7,135.2,402.7,137.1z M401.9,136.7c0-1.2-0.8-2.2-2-2.2c-1.1,0-1.9,0.9-2.1,2.2H401.9z M408.9,135L408.9,135v-1.1
	h0.8v5.8c0,2-0.9,3-2.8,3c-1.4,0-2.5-0.7-2.6-1.9h0.8c0.1,0.8,0.8,1.3,1.8,1.3c1.4,0,2-0.9,2-2.4v-0.9l0,0c-0.4,0.8-1.1,1.3-2,1.3
	c-1.9,0-2.8-1.3-2.8-3.2c0-1.8,1.1-3.2,2.8-3.2C407.8,133.8,408.6,134.3,408.9,135z M406.9,139.5c1.3,0,2-1.1,2-2.5
	c0-1.3-0.6-2.6-2-2.6c-1.3,0-2.1,1.1-2.1,2.6C404.8,138.3,405.5,139.5,406.9,139.5z M416.5,135.8v3.3c0,0.3,0.1,0.5,0.5,0.5
	c0.1,0,0.2,0,0.2,0v0.6c-0.2,0-0.3,0-0.5,0c-0.7,0-0.9-0.3-0.9-1.1l0,0l0,0c-0.6,1-1.3,1.3-2.3,1.3c-1.2,0-2.1-0.6-2.1-1.8
	c0-0.8,0.4-1.2,0.6-1.4c0.4-0.3,0.9-0.5,2.4-0.6c0.9-0.1,1.3-0.1,1.3-0.9c0-1-0.6-1.3-1.6-1.3s-1.6,0.5-1.7,1.5h-0.8
	c0.1-1.4,1-2.1,2.6-2.1C415.9,133.8,416.5,134.6,416.5,135.8z M415.7,136.8c-0.1,0.2-0.4,0.2-0.8,0.3s-1.2,0.2-1.5,0.3
	c-0.6,0.2-1.2,0.4-1.2,1.2s0.7,1.2,1.4,1.2c1.2,0,2.2-0.8,2.2-2L415.7,136.8L415.7,136.8L415.7,136.8L415.7,136.8z M419.9,132.1v1.9
	h1.3v0.6h-1.3v4.3c0,0.5,0.2,0.8,0.7,0.8c0.1,0,0.4,0,0.6,0v0.7c-0.3,0-0.4,0-0.7,0c-1,0-1.4-0.3-1.4-1.4v-4.4H418V134h1.1v-1.9
	H419.9L419.9,132.1L419.9,132.1z M428.2,137.1v0.2h-4.8c0,1.2,0.7,2.5,2.1,2.5c1,0,1.7-0.5,2-1.6h0.8c-0.4,1.5-1.3,2.3-2.7,2.3
	c-1.9,0-2.8-1.4-2.8-3.3c0-1.7,0.9-3.3,2.8-3.3C427.2,133.8,428.2,135.2,428.2,137.1z M427.4,136.7c0-1.2-0.8-2.2-2-2.2
	c-1.1,0-1.9,0.9-2.1,2.2H427.4z M379.1,200.7c-14,0-25.4-11.4-25.4-25.4s11.4-25.4,25.4-25.4s25.4,11.4,25.4,25.4
	S393.1,200.7,379.1,200.7z M379.1,150.8c-13.5,0-24.5,11-24.5,24.5s11,24.5,24.5,24.5s24.5-11,24.5-24.5S392.7,150.8,379.1,150.8z
	 M367.3,190.6l21.3-15.3c0.2-0.1,0.3-0.4,0.2-0.6c-0.1-0.2-0.3-0.4-0.5-0.4l0,0h-4.5l10.1-14.3c0.2-0.3,0.1-0.6-0.1-0.8
	c-0.3-0.2-0.6-0.1-0.8,0.1l-10.7,15.2c-0.1,0.2-0.1,0.4,0,0.6c0.1,0.2,0.3,0.3,0.5,0.3l0,0h3.8l-17.1,12.3l8.8-12.5
	c0.1-0.2,0.1-0.4,0-0.6c-0.1-0.2-0.3-0.3-0.5-0.3l0,0H374l12-8.6c0.3-0.2,0.3-0.5,0.1-0.8c-0.2-0.3-0.5-0.3-0.8-0.1l-13.4,9.6
	c-0.2,0.1-0.3,0.4-0.2,0.6c0.1,0.2,0.3,0.4,0.5,0.4l0,0h4.5l-10.1,14.3c-0.2,0.2-0.1,0.5,0.1,0.7c0.1,0.1,0.3,0.2,0.4,0.2
	C367.1,190.7,367.2,190.6,367.3,190.6z M379.1,303.1c-14,0-25.4-11.4-25.4-25.4s11.4-25.4,25.4-25.4s25.4,11.4,25.4,25.4
	S393.1,303.1,379.1,303.1z M379.1,253.2c-13.5,0-24.5,11-24.5,24.5s11,24.5,24.5,24.5s24.5-11,24.5-24.5
	C403.7,264.2,392.7,253.2,379.1,253.2z M385.4,293c-0.2,0-0.4-0.1-0.5-0.3l-3.4-8.2c-0.1-0.3,0-0.6,0.3-0.7s0.6,0,0.7,0.3l3.3,7.8
	c1.5-0.6,2.6-1.8,3.2-3.3s0.6-3.2,0-4.6c-0.6-1.5-1.8-2.7-3.3-3.3c-1.5-0.6-3.2-0.6-4.7,0c-0.3,0.1-0.6,0-0.7-0.3s0-0.6,0.3-0.7
	c1.8-0.7,3.7-0.7,5.5,0s3.2,2.1,3.9,3.9c0.7,1.8,0.8,3.7,0,5.5c-0.7,1.8-2.1,3.2-3.9,3.9c-0.1,0-0.2,0.1-0.3,0l-0.1,0.1
	C385.5,293,385.4,293,385.4,293z M371.7,289c-0.9,0-1.9-0.2-2.7-0.5c-1.8-0.7-3.2-2.1-3.9-3.9l0,0l0,0c-0.1-0.3,0-0.6,0.3-0.7
	l8.3-3.5c0.3-0.1,0.6,0,0.7,0.3s0,0.6-0.3,0.7l-7.8,3.3c0.7,1.3,1.7,2.3,3.1,2.8c1.5,0.6,3.2,0.6,4.6,0c1.5-0.6,2.7-1.8,3.3-3.3
	c0.6-1.5,0.6-3.2,0-4.6c-0.1-0.3,0-0.6,0.3-0.7s0.6,0,0.7,0.3c0.7,1.8,0.7,3.7,0,5.5s-2.1,3.2-3.9,3.9
	C373.6,288.8,372.6,289,371.7,289z M381.4,278.3c-0.2,0-0.4-0.1-0.5-0.3c-1.5-3.7,0.2-7.9,3.9-9.4c3.7-1.5,7.9,0.2,9.4,3.9
	c0.1,0.3,0,0.6-0.3,0.7h-0.1h-0.1l-7.8,3.3c-0.3,0.1-0.6,0-0.7-0.3s0-0.6,0.3-0.7l7.4-3.1c-1.5-2.7-4.8-4-7.7-2.8
	c-3.1,1.3-4.6,4.9-3.3,8c0.1,0.3,0,0.6-0.3,0.7C381.6,278.3,381.5,278.3,381.4,278.3z M376.3,277.8c-2.8,0-5.5-1.7-6.7-4.4
	c-0.7-1.8-0.8-3.7,0-5.5c0.7-1.8,2.1-3.2,3.9-3.9c0.3-0.1,0.6,0,0.7,0.3l0,0l3.5,8.4c0.1,0.3,0,0.6-0.3,0.7s-0.6,0-0.7-0.3l-3.3-7.9
	c-1.2,0.7-2.2,1.7-2.8,3.1c-0.6,1.5-0.6,3.2,0,4.6c1.3,3.1,4.9,4.6,8,3.3c0.3-0.1,0.6,0,0.7,0.3s0,0.6-0.3,0.7
	C378.2,277.6,377.2,277.8,376.3,277.8z M364.2,437.2c4.7,3.7,9.5,7.3,14.5,10.7c-38.5,25.5-84.7,40.3-134.3,40.3
	c-134.8,0-244-109.2-244-244s109.2-244,244-244c50.5,0,97.4,15.3,136.3,41.6H380c-4.9,3.3-9.6,6.7-14.2,10.3
	C330.7,29.9,289.1,17,244.4,17C119,17.1,17.3,118.8,17.3,244.2c0,125.5,101.7,227.2,227.1,227.2
	C288.4,471.4,329.5,458.9,364.2,437.2z M336.9,412.1l0.7-0.4l-0.6-0.6c-41.8-45.2-64.8-104.1-64.8-165.7
	c0-62.4,23.5-121.8,66.1-167.2l0.6-0.6l-0.7-0.4c-28.9-16.5-61.8-25.3-95.3-25.3c-106.1,0-192.4,86.3-192.4,192.4
	s86.3,192.4,192.4,192.4C275.8,436.6,308.3,428.1,336.9,412.1z M336.8,77.8c-42.5,45.6-65.9,105.1-65.9,167.5
	c0,61.7,22.9,120.6,64.6,166c-28.2,15.7-60.2,23.9-92.6,23.9c-105.3,0-191.1-85.7-191.1-191.1S137.5,53.2,242.9,53.2
	C275.8,53.2,308.3,61.7,336.8,77.8z M202.6,335.4l3.4,8.7h-0.9l-1.1-2.7h-4l-1.1,2.7H198l3.5-8.7H202.6z M200.3,340.7h3.4l-1.7-4.5
	L200.3,340.7z M207.7,344.1v-5.6h-1.1v-0.6h1.1v-0.6c0-1.2,0.4-1.8,1.5-1.8c0.3,0,0.5,0,0.6,0v0.7c-0.2,0-0.4-0.1-0.6-0.1
	c-0.7,0-0.8,0.4-0.8,1v0.7h1.2v0.6h-1.2v5.6L207.7,344.1L207.7,344.1z M212.2,335.9v1.9h1.3v0.6h-1.3v4.3c0,0.5,0.2,0.8,0.7,0.8
	c0.1,0,0.4,0,0.6,0v0.7c-0.3,0-0.4,0-0.7,0c-1,0-1.4-0.3-1.4-1.4v-4.4h-1.1v-0.6h1.1v-1.9H212.2L212.2,335.9L212.2,335.9z
	 M220.5,340.9v0.2h-4.8c0,1.2,0.7,2.5,2.1,2.5c1,0,1.7-0.5,2-1.6h0.8c-0.4,1.5-1.3,2.3-2.7,2.3c-1.9,0-2.8-1.4-2.8-3.3
	c0-1.7,0.9-3.3,2.8-3.3C219.5,337.6,220.5,339,220.5,340.9z M219.8,340.5c0-1.2-0.8-2.2-2-2.2c-1.1,0-1.9,0.9-2.1,2.2H219.8z
	 M225.3,338.5h-0.1c-1.3,0-2.2,1-2.2,2.3v3.3h-0.8v-6.3h0.7v1.5l0,0c0.4-1,1.2-1.6,2.2-1.6h0.2L225.3,338.5L225.3,338.5z
	 M231.2,338.8c0.4-0.8,1.1-1.2,2-1.2c1.4,0,2.1,0.8,2.1,2.2v4.3h-0.8v-4.2c0-1.1-0.5-1.6-1.5-1.6c-1.2,0-1.7,0.9-1.7,2.3v3.5h-0.8
	v-4.3c0-1-0.4-1.6-1.3-1.6c-1.3,0-1.9,1-1.9,2.3v3.5h-0.8v-6.3h0.7v1.1l0,0c0.4-0.8,1.1-1.2,2.1-1.2
	C230.3,337.6,231,338,231.2,338.8z M242.2,339.6v3.3c0,0.3,0.1,0.5,0.5,0.5c0.1,0,0.2,0,0.2,0v0.6c-0.2,0-0.3,0-0.5,0
	c-0.7,0-0.9-0.3-0.9-1.1l0,0l0,0c-0.6,1-1.3,1.3-2.3,1.3c-1.2,0-2.1-0.6-2.1-1.8c0-0.8,0.4-1.2,0.6-1.4c0.4-0.3,0.9-0.5,2.4-0.6
	c0.9-0.1,1.3-0.1,1.3-0.9c0-1-0.6-1.3-1.6-1.3s-1.6,0.5-1.7,1.5h-0.8c0.1-1.4,1-2.1,2.6-2.1S242.2,338.4,242.2,339.6z M241.4,340.6
	c-0.1,0.2-0.4,0.2-0.8,0.3c-0.4,0.1-1.2,0.2-1.5,0.3c-0.6,0.2-1.2,0.4-1.2,1.2s0.7,1.2,1.4,1.2c1.2,0,2.2-0.8,2.2-2L241.4,340.6
	L241.4,340.6L241.4,340.6z M247.4,338.5h-0.1c-1.3,0-2.2,1-2.2,2.3v3.3h-0.8v-6.3h0.7v1.5l0,0c0.4-1,1.2-1.6,2.2-1.6h0.2
	L247.4,338.5L247.4,338.5z M249.5,335.4v5.5l3.5-3h1l-2.7,2.3l2.9,4h-1l-2.5-3.4l-1.2,1v2.4h-0.8v-8.7L249.5,335.4L249.5,335.4z
	 M260.8,340.9v0.2H256c0,1.2,0.7,2.5,2.1,2.5c1,0,1.7-0.5,2-1.6h0.8c-0.4,1.5-1.3,2.3-2.7,2.3c-1.9,0-2.8-1.4-2.8-3.3
	c0-1.7,0.9-3.3,2.8-3.3C259.8,337.6,260.8,339,260.8,340.9z M260,340.5c0-1.2-0.8-2.2-2-2.2c-1.1,0-1.9,0.9-2.1,2.2H260z
	 M263.6,335.9v1.9h1.3v0.6h-1.3v4.3c0,0.5,0.2,0.8,0.7,0.8c0.1,0,0.4,0,0.6,0v0.7c-0.3,0-0.4,0-0.7,0c-1,0-1.4-0.3-1.4-1.4v-4.4
	h-1.1v-0.6h1.1v-1.9H263.6L263.6,335.9L263.6,335.9z M232.4,404.7c-14,0-25.4-11.4-25.4-25.4s11.4-25.4,25.4-25.4
	s25.4,11.4,25.4,25.4S246.4,404.7,232.4,404.7z M232.4,354.8c-13.5,0-24.5,11-24.5,24.5s11,24.5,24.5,24.5s24.5-11,24.5-24.5
	S246,354.8,232.4,354.8z M223,394.6c-1.1,0-2.3-0.3-3.3-1c-0.6-0.4-1.2-1-1.6-1.6c-0.3-0.4-0.3-0.9,0-1.3c0.2-0.4,0.6-0.6,1.1-0.6
	l4,0.3l1.3-1.9l-1.1-2.3c-0.1-0.3,0-0.6,0.3-0.8c0.3-0.1,0.6,0,0.8,0.3l1.3,2.9l-2,3l-4.6-0.3c0.3,0.6,0.8,1,1.3,1.4
	c1.5,1,3.4,1.1,5,0.2c1.8-1,2.8-3,2.5-5c-0.1-0.5,0.1-1,0.5-1.4l10.3-9c0.2-0.2,0.6-0.2,0.8,0.1c0.2,0.2,0.2,0.6-0.1,0.8l-10.3,9
	c-0.1,0.1-0.2,0.2-0.2,0.4c0.3,2.5-0.9,4.9-3.1,6.2C225,394.4,224,394.6,223,394.6z M222,386.3L222,386.3l-2.4-0.1
	c-0.5,0-0.9-0.3-1-0.8c-0.2-0.4-0.1-0.9,0.3-1.3c0.5-0.5,1.1-0.9,1.8-1.2c1.5-0.7,3.2-0.7,4.7,0c0.2,0.1,0.3,0,0.5-0.1l12.2-10.7
	c0.1-0.1,0.2-0.2,0.2-0.4c-0.3-2.5,0.9-4.9,3.1-6.2c1.9-1.1,4.3-1,6.2,0.2c0.6,0.4,1.2,1,1.6,1.6c0.3,0.4,0.3,0.9,0.1,1.3
	s-0.6,0.6-1.1,0.6l-4-0.3l-1.3,1.9l1,2.1l3.8,0.3c0.5,0,0.9,0.3,1,0.8c0.2,0.4,0.1,0.9-0.3,1.3c-0.5,0.5-1.1,0.9-1.8,1.2
	c-1.5,0.7-3.2,0.7-4.7,0c-0.8-0.3-1.5-0.8-2.1-1.5c-0.2-0.2-0.2-0.6,0-0.8c0.2-0.2,0.6-0.2,0.8,0c0.5,0.5,1,0.9,1.7,1.2
	c1.2,0.5,2.6,0.5,3.8,0c0.5-0.2,1-0.6,1.5-1L243,374l-1.5-3.3l2-3l4.6,0.3c-0.3-0.6-0.8-1-1.3-1.4c-1.5-1-3.4-1.1-5-0.2
	c-1.8,1-2.8,3-2.5,5.1c0.1,0.5-0.1,1-0.5,1.4l-12.2,10.7c-0.5,0.4-1.1,0.5-1.6,0.3c-1.2-0.5-2.6-0.5-3.8,0c-0.6,0.2-1,0.6-1.5,1
	l2.4,0.2c0.3,0,0.6,0.3,0.5,0.6C222.5,386,222.3,386.3,222,386.3z M96.8,278.1l5.1,7.4l0,0v-7.4h0.8v8.7h-0.9l-5.1-7.4l0,0v7.4h-0.8
	v-8.7H96.8z M105.7,280.5v3.9c0,1.1,0.3,1.9,1.7,1.9c1.3,0,1.9-1.2,1.9-2.5v-3.3h0.8v6.3h-0.7v-1.1l0,0c-0.4,0.8-1.2,1.3-2.2,1.3
	c-1.6,0-2.2-0.9-2.2-2.4v-4.1L105.7,280.5L105.7,280.5z M113.3,278.6v1.9h1.3v0.6h-1.3v4.3c0,0.5,0.2,0.8,0.7,0.8c0.1,0,0.4,0,0.6,0
	v0.7c-0.3,0-0.4,0-0.7,0c-1,0-1.4-0.3-1.4-1.4v-4.4h-1.1v-0.6h1.1v-1.9H113.3L113.3,278.6z M120.9,280.5v0.5l-4.2,5.1h4.3v0.6h-5.3
	v-0.6l4.1-5H116v-0.6H120.9L120.9,280.5z M123,286.8v-5.6h-1.1v-0.6h1.1V280c0-1.2,0.4-1.8,1.5-1.8c0.3,0,0.5,0,0.6,0v0.7
	c-0.2,0-0.4-0.1-0.6-0.1c-0.7,0-0.8,0.4-0.8,1v0.7h1.2v0.6h-1.2v5.6L123,286.8L123,286.8z M131.1,282.3v3.3c0,0.3,0.1,0.5,0.5,0.5
	c0.1,0,0.2,0,0.2,0v0.6c-0.2,0-0.3,0-0.5,0c-0.7,0-0.9-0.3-0.9-1.1l0,0l0,0c-0.6,1-1.3,1.3-2.3,1.3c-1.2,0-2.1-0.6-2.1-1.8
	c0-0.8,0.4-1.2,0.6-1.4c0.4-0.3,0.9-0.5,2.4-0.6c0.9-0.1,1.3-0.1,1.3-0.9c0-1-0.6-1.3-1.6-1.3s-1.6,0.5-1.7,1.5h-0.8
	c0.1-1.4,1-2.1,2.6-2.1C130.5,280.3,131.1,281.1,131.1,282.3z M130.3,283.3c-0.1,0.2-0.4,0.2-0.8,0.3c-0.4,0.1-1.2,0.2-1.5,0.3
	c-0.6,0.2-1.2,0.4-1.2,1.2s0.7,1.2,1.4,1.2c1.2,0,2.2-0.8,2.2-2L130.3,283.3L130.3,283.3L130.3,283.3z M134,278.1v3.5l0,0
	c0.3-0.8,1.1-1.3,2-1.3c1.6,0,2.3,0.8,2.3,2.4v4.1h-0.8v-4c0-1.3-0.5-1.9-1.6-1.9c-1.4,0-2,1.2-2,2.2v3.6h-0.8V278L134,278.1
	L134,278.1z M143.5,281.2h-0.1c-1.3,0-2.2,1-2.2,2.3v3.3h-0.8v-6.3h0.7v1.5l0,0c0.4-1,1.2-1.6,2.2-1.6h0.2L143.5,281.2L143.5,281.2z
	 M149.4,280.5v0.5l-4.2,5.1h4.3v0.6h-5.3v-0.6l4.1-5h-3.8v-0.6H149.4L149.4,280.5z M156.4,283.7v0.2h-4.8c0,1.2,0.7,2.5,2.1,2.5
	c1,0,1.7-0.5,2-1.6h0.8c-0.4,1.5-1.3,2.3-2.7,2.3c-1.9,0-2.8-1.4-2.8-3.3c0-1.7,0.9-3.3,2.8-3.3
	C155.4,280.3,156.4,281.7,156.4,283.7z M155.7,283.2c0-1.2-0.8-2.2-2-2.2c-1.1,0-1.9,0.9-2.1,2.2H155.7z M158.8,280.5v3.9
	c0,1.1,0.3,1.9,1.7,1.9c1.3,0,1.9-1.2,1.9-2.5v-3.3h0.8v6.3h-0.7v-1.1l0,0c-0.4,0.8-1.2,1.3-2.2,1.3c-1.6,0-2.2-0.9-2.2-2.4v-4.1
	L158.8,280.5L158.8,280.5z M169.8,281.6L169.8,281.6v-1.1h0.8v5.8c0,2-0.9,3-2.8,3c-1.4,0-2.5-0.7-2.6-1.9h0.8
	c0.1,0.8,0.8,1.3,1.8,1.3c1.4,0,2-0.9,2-2.4v-0.9l0,0c-0.4,0.8-1.1,1.3-2,1.3c-1.9,0-2.8-1.3-2.8-3.2c0-1.8,1.1-3.2,2.8-3.2
	C168.6,280.3,169.4,280.8,169.8,281.6z M167.8,286.1c1.3,0,2-1.1,2-2.5c0-1.3-0.6-2.6-2-2.6c-1.3,0-2.1,1.1-2.1,2.6
	C165.7,284.8,166.3,286.1,167.8,286.1z M177.9,283.7v0.2h-4.8c0,1.2,0.7,2.5,2.1,2.5c1,0,1.7-0.5,2-1.6h0.8
	c-0.4,1.5-1.3,2.3-2.7,2.3c-1.9,0-2.8-1.4-2.8-3.3c0-1.7,0.9-3.3,2.8-3.3C176.9,280.3,177.9,281.7,177.9,283.7z M177.1,283.2
	c0-1.2-0.8-2.2-2-2.2c-1.1,0-1.9,0.9-2.1,2.2H177.1z M100.6,293.8c0,0.8-0.5,1.5-1.7,2.3l1.9,2.3c0.2-0.4,0.3-0.7,0.3-1.5h0.8
	c0,0.7-0.2,1.5-0.5,2.1l1.5,1.8h-1l-0.9-1.1c-0.7,0.9-1.6,1.3-2.6,1.3c-1.5,0-2.6-0.9-2.6-2.4c0-1,0.8-1.9,2.1-2.6
	c-0.5-0.6-1.1-1.2-1.1-2.1c0-1.1,0.9-1.8,1.9-1.8C99.7,292,100.6,292.7,100.6,293.8z M98.3,300.3c0.7,0,1.5-0.4,2.1-1.2l-2.2-2.6
	c-1.2,0.6-1.8,1.3-1.8,2.2S97.3,300.3,98.3,300.3z M98.4,295.5c1-0.6,1.3-1.2,1.3-1.8c0-0.7-0.5-1.1-1.2-1.1c-0.6,0-1.1,0.4-1.1,1.1
	C97.5,294.2,97.8,294.7,98.4,295.5z M115.8,296.4c0,2.4-1.3,4.5-4.1,4.5c-2.7,0-4.1-2.1-4.1-4.5s1.4-4.5,4.1-4.5
	C114.4,291.8,115.8,294,115.8,296.4z M111.7,300.2c2.3,0,3.3-1.9,3.3-3.8s-1-3.8-3.3-3.8c-2.2,0-3.3,1.8-3.3,3.8
	C108.5,298.3,109.4,300.2,111.7,300.2z M118,300.7v-5.6h-1.1v-0.6h1.1v-0.6c0-1.2,0.4-1.8,1.5-1.8c0.3,0,0.5,0,0.6,0v0.7
	c-0.2,0-0.4-0.1-0.6-0.1c-0.7,0-0.8,0.4-0.8,1v0.7h1.2v0.6h-1.2v5.6L118,300.7L118,300.7z M121.5,300.7v-5.6h-1.1v-0.6h1.1v-0.6
	c0-1.2,0.4-1.8,1.5-1.8c0.3,0,0.5,0,0.6,0v0.7c-0.2,0-0.4-0.1-0.6-0.1c-0.7,0-0.8,0.4-0.8,1v0.7h1.2v0.6h-1.2v5.6L121.5,300.7
	L121.5,300.7z M127.9,297v0.7h-3.1V297H127.9z M131,292v3.8h5.2V292h0.8v8.7h-0.8v-4.2H131v4.2h-0.8V292H131z M140,292v1.2h-0.8V292
	H140z M140,294.4v6.3h-0.8v-6.3H140z M146.6,295.5L146.6,295.5v-1.1h0.8v5.8c0,2-0.9,3-2.8,3c-1.4,0-2.5-0.7-2.6-1.9h0.8
	c0.1,0.8,0.8,1.3,1.8,1.3c1.4,0,2-0.9,2-2.4v-0.9l0,0c-0.4,0.8-1.1,1.3-2,1.3c-1.9,0-2.8-1.3-2.8-3.2c0-1.8,1.1-3.2,2.8-3.2
	C145.5,294.2,146.3,294.8,146.6,295.5z M144.6,300c1.3,0,2-1.1,2-2.5c0-1.3-0.6-2.6-2-2.6c-1.3,0-2.1,1.1-2.1,2.6
	C142.5,298.8,143.2,300,144.6,300z M150.2,292v3.5l0,0c0.3-0.8,1.1-1.3,2-1.3c1.6,0,2.3,0.8,2.3,2.4v4.1h-0.8v-4
	c0-1.3-0.5-1.9-1.6-1.9c-1.4,0-2,1.2-2,2.2v3.6h-0.8V292H150.2L150.2,292z M156.8,294.4l1.6,5.4l0,0l1.5-5.4h0.9l1.5,5.4l0,0
	l1.6-5.4h0.8l-2,6.3h-0.8l-1.5-5.3l0,0l-1.5,5.3H158l-2-6.3H156.8z M171,296.3v3.3c0,0.3,0.1,0.5,0.5,0.5c0.1,0,0.2,0,0.2,0v0.6
	c-0.2,0-0.3,0-0.5,0c-0.7,0-0.9-0.3-0.9-1.1l0,0l0,0c-0.6,1-1.3,1.3-2.3,1.3c-1.2,0-2.1-0.6-2.1-1.8c0-0.8,0.4-1.2,0.6-1.4
	c0.4-0.3,0.9-0.5,2.4-0.6c0.9-0.1,1.3-0.1,1.3-0.9c0-1-0.6-1.3-1.6-1.3s-1.6,0.5-1.7,1.5h-0.8c0.1-1.4,1-2.1,2.6-2.1
	C170.4,294.2,171,295,171,296.3z M170.2,297.3c-0.1,0.2-0.4,0.2-0.8,0.3c-0.4,0.1-1.2,0.2-1.5,0.3c-0.6,0.2-1.2,0.4-1.2,1.2
	s0.7,1.2,1.4,1.2c1.2,0,2.2-0.8,2.2-2L170.2,297.3L170.2,297.3L170.2,297.3z M173.3,294.4l2.1,5.4l1.9-5.4h0.8l-2.7,7.3
	c-0.1,0.3-0.3,0.8-0.6,1c-0.2,0.2-0.5,0.3-1,0.3c-0.3,0-0.5,0-0.6-0.1v-0.6c0.1,0,0.3,0.1,0.5,0.1c0.4,0,0.6-0.1,0.7-0.3
	c0.2-0.2,0.3-0.5,0.6-1.4l-2.5-6.3H173.3L173.3,294.4z M136.6,361.1c-14,0-25.4-11.4-25.4-25.4s11.4-25.4,25.4-25.4
	s25.4,11.4,25.4,25.4S150.7,361.1,136.6,361.1z M136.6,311.1c-13.5,0-24.5,11-24.5,24.5s11,24.5,24.5,24.5s24.5-11,24.5-24.5
	S150.2,311.1,136.6,311.1z M131.6,351.2c-1.5,0-2.8-1.2-2.8-2.8s1.3-2.8,2.8-2.8s2.8,1.2,2.8,2.8
	C134.4,349.9,133.1,351.2,131.6,351.2z M131.6,346.5c-1,0-1.9,0.8-1.9,1.9c0,1,0.8,1.9,1.9,1.9c1,0,1.9-0.8,1.9-1.9
	S132.6,346.5,131.6,346.5z M118.5,351c-0.2,0-0.3-0.1-0.4-0.3c-0.1-0.2,0-0.5,0.2-0.6c0.7-0.3,1.1-1,1.1-1.7c0-1-0.8-1.9-1.9-1.9
	c-0.3,0-0.5,0.1-0.8,0.2c-0.1,0-0.2,0.1-0.2,0.1c-0.2,0.1-0.5,0.1-0.6-0.1s-0.1-0.5,0.1-0.6c0.1-0.1,0.2-0.1,0.4-0.2
	c0.4-0.2,0.8-0.3,1.2-0.3c1.5,0,2.8,1.2,2.8,2.8c0,1.1-0.6,2.1-1.6,2.5C118.6,350.9,118.6,351,118.5,351z M127.8,349h-6.6
	c-0.3,0-0.6-0.3-0.6-0.6s0.3-0.6,0.6-0.6h6.6c0.3,0,0.6,0.3,0.6,0.6S128.1,349,127.8,349z M135.7,348.3c-0.3,0-0.6-0.3-0.6-0.6v-3.4
	c0-1.1-0.7-2-1.6-2.3l0,0c-0.1,0-0.2,0-0.3,0h-3.5c-0.6,0-1.1-0.2-1.5-0.7c-0.5-0.5-0.7-1.2-0.7-1.9v-1.3c0-0.9,0.7-1.6,1.5-1.6h0.4
	c3.1,0,4,1.9,4.8,4.5c1.3,0.4,2.2,1.7,2.2,3.3v3.4C136.3,348,136.1,348.3,135.7,348.3z M128.9,337.7c-0.2,0-0.3,0.2-0.3,0.4v1.3
	c0,0.4,0.1,0.8,0.4,1.1c0.2,0.2,0.5,0.3,0.7,0.3h3.2c-0.8-2.2-1.6-3.2-3.6-3.2h-0.4V337.7z M124.7,344.6h-9.2
	c-0.3,0-0.6-0.3-0.6-0.6s0.3-0.6,0.6-0.6h9.2c0.6,0,1.1-0.7,1.1-1.5v-8.5c0-0.1,0-0.3,0-0.4h-11.4c-0.3,0-0.6-0.3-0.6-0.6
	s0.3-0.6,0.6-0.6h11.5c1.1,0,1.1,1.1,1.1,1.6v8.5C127,343.3,125.9,344.6,124.7,344.6z M148.1,341.3h-2.2c-0.4,0-0.7-0.3-0.8-0.7
	l-1-0.3c-0.1,0.1-0.3,0.2-0.4,0.2c-0.2,0-0.4,0-0.6-0.1l-1.8-1.3c-0.3-0.2-0.4-0.7-0.3-1l-0.6-0.9c-0.4,0-0.8-0.2-0.9-0.6l-0.7-2.1
	c-0.1-0.4,0-0.8,0.4-1c0-0.1,0-0.4,0-0.5c0-0.2,0-0.4,0-0.6c-0.3-0.2-0.5-0.6-0.4-1l0.7-2.1c0.1-0.2,0.2-0.4,0.4-0.5
	s0.3-0.1,0.5-0.1l0.6-0.9c-0.2-0.4-0.1-0.8,0.3-1l1.8-1.3c0.2-0.1,0.4-0.2,0.6-0.1c0.2,0,0.3,0.1,0.4,0.2l1-0.3
	c0.1-0.4,0.4-0.7,0.8-0.7h2.2c0.4,0,0.7,0.3,0.8,0.7l1,0.3c0.1-0.1,0.3-0.2,0.4-0.2c0.2,0,0.4,0,0.6,0.1l1.8,1.3
	c0.3,0.2,0.4,0.7,0.3,1l0.6,0.9c0.2,0,0.3,0,0.5,0.1s0.3,0.3,0.4,0.5l0.7,2.1c0.1,0.4,0,0.8-0.4,1c0,0.1,0,0.4,0,0.5
	c0,0.2,0,0.4,0,0.6c0.3,0.2,0.5,0.6,0.4,1l-0.7,2.1c-0.1,0.4-0.5,0.6-0.9,0.6l-0.6,0.9c0.2,0.4,0.1,0.8-0.3,1l-1.8,1.3
	c-0.3,0.2-0.8,0.2-1.1-0.1l-1,0.3C148.9,341,148.5,341.3,148.1,341.3z M145.3,340.7L145.3,340.7L145.3,340.7z M148.8,340.7
	L148.8,340.7L148.8,340.7z M144,340.3L144,340.3L144,340.3z M150.1,340.2L150.1,340.2C150.1,340.3,150.1,340.3,150.1,340.2z
	 M146.2,340.2h1.7c0.1-0.3,0.3-0.5,0.6-0.6l1.2-0.4c0.2-0.1,0.6-0.1,0.8,0.1l1.3-1c-0.1-0.3,0-0.6,0.2-0.8l0.8-1
	c0.1-0.2,0.4-0.4,0.7-0.4l0.5-1.6c-0.2-0.2-0.4-0.5-0.4-0.8c0,0,0-0.3,0-0.6s0-0.6,0-0.6c0-0.3,0.1-0.6,0.4-0.8l-0.5-1.6
	c-0.3,0-0.6-0.2-0.7-0.4l-0.8-1c-0.2-0.2-0.2-0.5-0.1-0.8l-1.3-1c-0.2,0.2-0.6,0.2-0.9,0.1l-1.2-0.4c-0.3-0.1-0.5-0.3-0.6-0.6h-1.7
	c-0.1,0.3-0.3,0.5-0.6,0.6l-1.2,0.4c-0.3,0.1-0.6,0.1-0.8-0.1l-1.3,1c0.1,0.3,0,0.6-0.2,0.9l-0.8,1c-0.1,0.2-0.4,0.4-0.7,0.4
	l-0.5,1.6c0.2,0.2,0.4,0.5,0.4,0.8c0,0,0,0.3,0,0.6s0,0.6,0,0.6c0,0.3-0.1,0.6-0.4,0.8l0.5,1.6c0.3,0,0.6,0.2,0.7,0.4l0.8,1
	c0.2,0.2,0.2,0.5,0.1,0.8l1.3,1c0.3-0.2,0.6-0.2,0.9-0.1l1.2,0.4C145.9,339.7,146.1,339.9,146.2,340.2z M141.1,338.2
	C141.1,338.2,141.2,338.2,141.1,338.2L141.1,338.2z M152.1,338.2L152.1,338.2L152.1,338.2z M142,338.2L142,338.2L142,338.2z
	 M152.9,338.1L152.9,338.1C152.9,338.2,152.9,338.1,152.9,338.1z M152.9,337.9L152.9,337.9L152.9,337.9z M140.4,337.1L140.4,337.1
	L140.4,337.1z M153.7,337.1L153.7,337.1L153.7,337.1z M153.4,336.3L153.4,336.3L153.4,336.3z M140.6,336.3L140.6,336.3L140.6,336.3z
	 M154.3,334.6L154.3,334.6L154.3,334.6z M139.3,333.7L139.3,333.7L139.3,333.7z M154.8,333.7L154.8,333.7L154.8,333.7z M139.4,332.6
	L139.4,332.6L139.4,332.6z M154.7,332.5L154.7,332.5L154.7,332.5z M139.3,332.3L139.3,332.3L139.3,332.3z M154.8,332.3L154.8,332.3
	L154.8,332.3z M154.3,331.5L154.3,331.5L154.3,331.5z M139.8,331.5L139.8,331.5L139.8,331.5z M140.3,330L140.3,330L140.3,330z
	 M153.8,330L153.8,330L153.8,330z M140.4,329C140.4,329,140.3,329,140.4,329L140.4,329z M153.7,328.9L153.7,328.9L153.7,328.9z
	 M140.6,328.9L140.6,328.9L140.6,328.9z M141.1,327.9L141.1,327.9L141.1,327.9z M152.9,327.9L152.9,327.9L152.9,327.9z M143.8,326.6
	L143.8,326.6L143.8,326.6z M143.3,326.5L143.3,326.5L143.3,326.5z M150.8,326.5L150.8,326.5C150.7,326.5,150.8,326.5,150.8,326.5z
	 M144,325.8L144,325.8L144,325.8z M150,325.8L150,325.8C150.1,325.8,150,325.8,150,325.8z M145.3,325.4
	C145.3,325.4,145.2,325.4,145.3,325.4L145.3,325.4z M148.8,325.4L148.8,325.4L148.8,325.4z M156,338.6c-0.1,0-0.2,0-0.3-0.1
	c-0.3-0.1-0.4-0.5-0.2-0.8c0.8-1.4,1.2-3.1,1.2-4.7c0-5.5-4.4-9.9-9.8-9.9c-2.5,0-4.9,1-6.8,2.7c-0.2,0.2-0.6,0.2-0.8,0
	s-0.2-0.6,0-0.8c2-2,4.7-3,7.5-3c6.1,0,11,5,11,11.1c0,1.8-0.5,3.6-1.3,5.2C156.4,338.5,156.2,338.6,156,338.6z M147,337.7
	c-2.6,0-4.6-2.1-4.6-4.7s2.1-4.7,4.6-4.7c2.6,0,4.6,2.1,4.6,4.7C151.7,335.6,149.6,337.7,147,337.7z M147,329.5
	c-1.9,0-3.5,1.6-3.5,3.5s1.6,3.5,3.5,3.5s3.5-1.6,3.5-3.5S149,329.5,147,329.5z M154.1,322.9c-2.2,0-4.1-1.1-5.3-3l-1.1-1.9
	c-0.2-0.3-0.4-0.4-0.7-0.4c-0.5,0-0.9,0.4-0.9,0.9v2.4c0,0.3-0.3,0.6-0.6,0.6s-0.6-0.3-0.6-0.6v-2.4c0-1.1,0.9-2,2-2
	c0.7,0,1.4,0.4,1.7,1l1.1,1.9c0.9,1.5,2.5,2.4,4.3,2.4c0.3,0,0.6,0.3,0.6,0.6S154.4,322.9,154.1,322.9z M180.7,82.5v3.8h5.2v-3.8
	h0.8v8.7h-0.8V87h-5.2v4.2h-0.8v-8.7H180.7z M194.6,88.1c0,1.8-1.1,3.3-3,3.3s-3-1.5-3-3.3s1.1-3.3,3-3.3
	C193.5,84.7,194.6,86.3,194.6,88.1z M191.6,90.8c1.5,0,2.2-1.3,2.2-2.7c0-1.3-0.7-2.7-2.2-2.7c-1.4,0-2.2,1.3-2.2,2.7
	C189.4,89.4,190.2,90.8,191.6,90.8z M201.5,86.9h-0.8c-0.2-1-0.8-1.5-1.8-1.5c-1.5,0-2.2,1.4-2.2,2.7c0,1.4,0.8,2.7,2.2,2.7
	c0.9,0,1.7-0.7,1.8-1.8h0.8c-0.2,1.5-1.2,2.4-2.6,2.4c-1.9,0-3-1.5-3-3.3c0-1.9,1.1-3.3,3-3.3C200.5,84.7,201.3,85.6,201.5,86.9z
	 M204,82.5V86l0,0c0.3-0.8,1.1-1.3,2-1.3c1.6,0,2.3,0.8,2.3,2.4v4.1h-0.8v-4c0-1.3-0.5-1.9-1.6-1.9c-1.4,0-2,1.2-2,2.2v3.6h-0.8
	v-8.7h0.9V82.5z M215.7,88.1v0.2h-4.8c0,1.2,0.7,2.5,2.1,2.5c1,0,1.7-0.5,2-1.6h0.8c-0.4,1.5-1.3,2.3-2.7,2.3
	c-1.9,0-2.8-1.4-2.8-3.3c0-1.7,0.9-3.3,2.8-3.3C214.7,84.7,215.7,86.1,215.7,88.1z M214.9,87.6c0-1.2-0.8-2.2-2-2.2
	c-1.1,0-1.9,0.9-2.1,2.2H214.9z M217.7,91.2v-5.7h-1.1v-0.6h1.1v-0.6c0-1.2,0.4-1.8,1.5-1.8c0.3,0,0.5,0,0.6,0v0.7
	c-0.2,0-0.4-0.1-0.6-0.1c-0.7,0-0.8,0.4-0.8,1.1v0.7h1.2v0.6h-1.2v5.7L217.7,91.2L217.7,91.2z M221.3,91.2v-5.7h-1.1v-0.6h1.1v-0.6
	c0-1.2,0.4-1.8,1.5-1.8c0.3,0,0.5,0,0.6,0v0.7c-0.2,0-0.4-0.1-0.6-0.1c-0.7,0-0.8,0.4-0.8,1.1v0.7h1.2v0.6H222v5.7L221.3,91.2
	L221.3,91.2z M224.8,82.5v1.2H224v-1.2H224.8z M224.8,84.9v6.3H224v-6.3H224.8z M231.4,84.9v0.5l-4.2,5.1h4.3v0.6h-5.3v-0.6l4.1-5
	h-3.8v-0.6H231.4L231.4,84.9z M233.9,82.5v1.2h-0.8v-1.2H233.9z M233.9,84.9v6.3h-0.8v-6.3H233.9z M241.3,88.1v0.2h-4.8
	c0,1.2,0.7,2.5,2.1,2.5c1,0,1.7-0.5,2-1.6h0.8c-0.4,1.5-1.3,2.3-2.7,2.3c-1.9,0-2.8-1.4-2.8-3.3c0-1.7,0.9-3.3,2.8-3.3
	C240.3,84.7,241.3,86.1,241.3,88.1z M240.5,87.6c0-1.2-0.8-2.2-2-2.2c-1.1,0-1.9,0.9-2.1,2.2H240.5z M248,87.1v4.1h-0.8v-3.9
	c0-1.2-0.5-1.9-1.6-1.9c-1.4,0-2,1.1-2,2.2v3.6h-0.8v-6.3h0.8V86l0,0c0.3-0.8,1.1-1.3,2-1.3C247.4,84.7,248,85.5,248,87.1z
	 M251.3,83v1.9h1.3v0.6h-1.3v4.3c0,0.5,0.2,0.8,0.7,0.8c0.1,0,0.4,0,0.6,0v0.7c-0.3,0-0.4,0-0.7,0c-1,0-1.4-0.3-1.4-1.4v-4.4h-1.1
	v-0.6h1.1V83H251.3L251.3,83z M259.6,88.1v0.2h-4.8c0,1.2,0.7,2.5,2.1,2.5c1,0,1.7-0.5,2-1.6h0.8c-0.4,1.5-1.3,2.3-2.7,2.3
	c-1.9,0-2.8-1.4-2.8-3.3c0-1.7,0.9-3.3,2.8-3.3C258.6,84.7,259.6,86.1,259.6,88.1z M258.8,87.6c0-1.2-0.8-2.2-2-2.2
	c-1.1,0-1.9,0.9-2.1,2.2H258.8z M156.9,96.4l2.8,7.8l0,0l2.8-7.8h0.9l-3.2,8.7l0,0h-1l-3.2-8.7H156.9z M169.3,102v0.2h-4.8
	c0,1.2,0.7,2.5,2.1,2.5c1,0,1.7-0.5,2-1.6h0.8c-0.4,1.5-1.3,2.3-2.7,2.3c-1.9,0-2.8-1.4-2.8-3.3c0-1.7,0.9-3.3,2.8-3.3
	C168.3,98.7,169.3,100.1,169.3,102z M168.6,101.6c0-1.2-0.8-2.2-2-2.2c-1.1,0-1.9,0.9-2.1,2.2H168.6z M174.1,99.5H174
	c-1.3,0-2.2,1-2.2,2.3v3.3H171v-6.3h0.7v1.5l0,0c0.4-1,1.2-1.6,2.2-1.6h0.2L174.1,99.5L174.1,99.5z M176.2,96.4v3.6l0,0
	c0.3-0.8,1.2-1.4,2.2-1.4c1.8,0,2.8,1.5,2.8,3.3s-0.9,3.3-2.8,3.3c-1,0-1.9-0.5-2.2-1.4l0,0v1.2h-0.7v-8.7
	C175.4,96.4,176.2,96.4,176.2,96.4z M176.2,102c0,1.4,0.6,2.7,2.2,2.7c1.5,0,2.1-1.4,2.1-2.7c0-1.4-0.6-2.7-2.1-2.7
	C177,99.3,176.2,100.5,176.2,102z M186.2,99.5H186c-1.3,0-2.2,1-2.2,2.3v3.3H183v-6.3h0.7v1.5l0,0c0.4-1,1.2-1.6,2.2-1.6h0.2
	L186.2,99.5L186.2,99.5z M192.6,102v0.2h-4.8c0,1.2,0.7,2.5,2.1,2.5c1,0,1.7-0.5,2-1.6h0.8c-0.4,1.5-1.3,2.3-2.7,2.3
	c-1.9,0-2.8-1.4-2.8-3.3c0-1.7,0.9-3.3,2.8-3.3C191.6,98.7,192.6,100.1,192.6,102z M191.8,101.6c0-1.2-0.8-2.2-2-2.2
	c-1.1,0-1.9,0.9-2.1,2.2H191.8z M199.3,101.1v4.1h-0.8v-3.9c0-1.2-0.5-1.9-1.6-1.9c-1.4,0-2,1.1-2,2.2v3.6h-0.8v-6.3h0.8v1.1l0,0
	c0.3-0.8,1.1-1.3,2-1.3C198.6,98.7,199.3,99.5,199.3,101.1z M206.5,101.1v4.1h-0.8v-3.9c0-1.2-0.5-1.9-1.6-1.9c-1.4,0-2,1.1-2,2.2
	v3.6h-0.8v-6.3h0.8v1.1l0,0c0.3-0.8,1.1-1.3,2-1.3C205.8,98.7,206.5,99.5,206.5,101.1z M209.3,98.9v3.9c0,1.1,0.3,1.9,1.7,1.9
	c1.3,0,1.9-1.2,1.9-2.5v-3.3h0.8v6.3H213V104l0,0c-0.4,0.8-1.2,1.3-2.2,1.3c-1.6,0-2.2-0.9-2.2-2.4v-4.1L209.3,98.9L209.3,98.9z
	 M220.8,101.1v4.1H220v-3.9c0-1.2-0.5-1.9-1.6-1.9c-1.4,0-2,1.1-2,2.2v3.6h-0.8v-6.3h0.8v1.1l0,0c0.3-0.8,1.1-1.3,2-1.3
	C220.1,98.7,220.8,99.5,220.8,101.1z M227.4,99.9L227.4,99.9v-1.1h0.8v5.8c0,2-0.9,3-2.8,3c-1.4,0-2.5-0.7-2.6-1.9h0.8
	c0.1,0.8,0.8,1.3,1.8,1.3c1.4,0,2-0.9,2-2.4v-0.9l0,0c-0.4,0.8-1.1,1.3-2,1.3c-1.9,0-2.8-1.3-2.8-3.2c0-1.8,1.1-3.2,2.8-3.2
	C226.3,98.7,227.1,99.2,227.4,99.9z M225.4,104.4c1.3,0,2-1.1,2-2.5c0-1.3-0.6-2.6-2-2.6c-1.3,0-2.1,1.1-2.1,2.6
	C223.3,103.2,224,104.4,225.4,104.4z M234.8,100.7H234c0-0.9-0.7-1.4-1.6-1.4c-0.7,0-1.5,0.3-1.5,1.1c0,0.5,0.5,0.9,1.4,1.1l0.8,0.2
	c0.7,0.1,1.9,0.5,1.9,1.8c0,1.4-1.4,1.9-2.5,1.9c-1.6,0-2.5-0.7-2.6-2.2h0.8c0.1,1,0.8,1.6,1.9,1.6c0.8,0,1.7-0.4,1.7-1.2
	c0-0.6-0.5-1-1.5-1.2l-0.8-0.2c-1.2-0.3-1.8-0.8-1.8-1.7c0-1.3,1.3-1.8,2.4-1.8C233.8,98.7,234.7,99.4,234.8,100.7z M241.3,99.9
	c0.4-0.8,1.1-1.2,2-1.2c1.4,0,2.1,0.8,2.1,2.2v4.3h-0.8V101c0-1.1-0.5-1.6-1.5-1.6c-1.2,0-1.7,0.9-1.7,2.3v3.6h-0.8V101
	c0-1-0.4-1.6-1.3-1.6c-1.3,0-1.9,1-1.9,2.3v3.5h-0.8v-6.3h0.7v1.1l0,0c0.4-0.8,1.1-1.2,2.1-1.2C240.4,98.7,241.1,99.1,241.3,99.9z
	 M253.1,102c0,1.8-1.1,3.3-3,3.3s-3-1.5-3-3.3s1.1-3.3,3-3.3C252.1,98.7,253.1,100.2,253.1,102z M250.1,104.7c1.5,0,2.2-1.3,2.2-2.7
	c0-1.3-0.7-2.7-2.2-2.7c-1.4,0-2.2,1.3-2.2,2.7C247.9,103.4,248.7,104.7,250.1,104.7z M256.1,97v1.9h1.3v0.6h-1.3v4.3
	c0,0.5,0.2,0.8,0.7,0.8c0.1,0,0.4,0,0.6,0v0.7c-0.3,0-0.4,0-0.7,0c-1,0-1.4-0.3-1.4-1.4v-4.4h-1.1v-0.6h1.1V97H256.1L256.1,97z
	 M264.7,102c0,1.8-1.1,3.3-3,3.3s-3-1.5-3-3.3s1.1-3.3,3-3.3C263.7,98.7,264.7,100.2,264.7,102z M261.7,104.7c1.5,0,2.2-1.3,2.2-2.7
	c0-1.3-0.7-2.7-2.2-2.7c-1.4,0-2.2,1.3-2.2,2.7C259.5,103.4,260.3,104.7,261.7,104.7z M269.6,99.5h-0.1c-1.3,0-2.2,1-2.2,2.3v3.3
	h-0.8v-6.3h0.7v1.5l0,0c0.4-1,1.2-1.6,2.2-1.6h0.2L269.6,99.5L269.6,99.5z M276,102v0.2h-4.8c0,1.2,0.7,2.5,2.1,2.5
	c1,0,1.7-0.5,2-1.6h0.8c-0.4,1.5-1.3,2.3-2.7,2.3c-1.9,0-2.8-1.4-2.8-3.3c0-1.7,0.9-3.3,2.8-3.3C275,98.7,276,100.1,276,102z
	 M275.2,101.6c0-1.2-0.8-2.2-2-2.2c-1.1,0-1.9,0.9-2.1,2.2H275.2z M282.7,101.1v4.1H282v-3.9c0-1.2-0.5-1.9-1.6-1.9
	c-1.4,0-2,1.1-2,2.2v3.6h-0.8v-6.3h0.8v1.1l0,0c0.3-0.8,1.1-1.3,2-1.3C282,98.7,282.7,99.5,282.7,101.1z M85.5,163.1l2,7.6l0,0
	l2.1-7.6h1l2.1,7.6l0,0l2-7.6h0.8l-2.4,8.7h-0.9L90,164l0,0l-2.2,7.8H87l-2.4-8.7H85.5z M101.3,167.4v3.3c0,0.3,0.1,0.5,0.5,0.5
	c0.1,0,0.2,0,0.2,0v0.6c-0.2,0-0.3,0-0.5,0c-0.7,0-0.9-0.3-0.9-1.1l0,0l0,0c-0.6,1-1.3,1.3-2.3,1.3c-1.2,0-2.1-0.6-2.1-1.8
	c0-0.8,0.4-1.2,0.6-1.4c0.4-0.3,0.9-0.5,2.4-0.6c0.9-0.1,1.3-0.1,1.3-0.9c0-1-0.6-1.3-1.6-1.3s-1.6,0.5-1.7,1.5h-0.8
	c0.1-1.4,1-2.1,2.6-2.1C100.7,165.4,101.3,166.1,101.3,167.4z M100.6,168.4c-0.1,0.2-0.4,0.2-0.8,0.3s-1.2,0.2-1.5,0.3
	c-0.6,0.2-1.2,0.4-1.2,1.2s0.7,1.2,1.4,1.2c1.2,0,2.2-0.8,2.2-2L100.6,168.4L100.6,168.4C100.5,168.4,100.5,168.4,100.6,168.4z
	 M108.7,167.5h-0.8c-0.2-1-0.8-1.5-1.8-1.5c-1.5,0-2.2,1.4-2.2,2.7c0,1.4,0.8,2.7,2.2,2.7c0.9,0,1.7-0.7,1.8-1.8h0.8
	c-0.2,1.5-1.2,2.4-2.6,2.4c-1.9,0-3-1.5-3-3.3c0-1.9,1.1-3.3,3-3.3C107.6,165.4,108.5,166.2,108.7,167.5z M111.2,163.1v3.5l0,0
	c0.3-0.8,1.1-1.3,2-1.3c1.6,0,2.3,0.8,2.3,2.4v4.1h-0.8v-4c0-1.3-0.5-1.9-1.6-1.9c-1.4,0-2,1.2-2,2.2v3.6h-0.8V163L111.2,163.1
	L111.2,163.1z M122.1,167.4h-0.8c0-0.9-0.7-1.4-1.6-1.4c-0.7,0-1.5,0.3-1.5,1.1c0,0.5,0.5,0.9,1.4,1.1l0.8,0.2
	c0.7,0.1,1.9,0.5,1.9,1.8c0,1.4-1.4,1.9-2.5,1.9c-1.6,0-2.5-0.7-2.6-2.2h0.8c0.1,1,0.8,1.6,1.9,1.6c0.8,0,1.7-0.4,1.7-1.2
	c0-0.6-0.5-1-1.5-1.2l-0.8-0.2c-1.2-0.3-1.8-0.8-1.8-1.7c0-1.3,1.3-1.8,2.4-1.8C121.2,165.4,122.1,166.1,122.1,167.4z M125.3,163.6
	v1.9h1.3v0.6h-1.3v4.3c0,0.5,0.2,0.8,0.7,0.8c0.1,0,0.4,0,0.6,0v0.7c-0.3,0-0.4,0-0.7,0c-1,0-1.4-0.3-1.4-1.4v-4.4h-1.1v-0.6h1.1
	v-1.9L125.3,163.6L125.3,163.6z M129,165.5v3.9c0,1.1,0.3,1.9,1.7,1.9c1.3,0,1.9-1.2,1.9-2.5v-3.3h0.8v6.3h-0.7v-1.1l0,0
	c-0.4,0.8-1.2,1.3-2.2,1.3c-1.6,0-2.2-0.9-2.2-2.4v-4.1L129,165.5L129,165.5z M140,166.6c0.4-0.8,1.1-1.2,2-1.2
	c1.4,0,2.1,0.8,2.1,2.2v4.3h-0.8v-4.2c0-1.1-0.5-1.6-1.5-1.6c-1.2,0-1.7,0.9-1.7,2.3v3.6h-0.8v-4.3c0-1-0.4-1.6-1.3-1.6
	c-1.3,0-1.9,1-1.9,2.3v3.5h-0.8v-6.3h0.7v1.1l0,0c0.4-0.8,1.1-1.2,2.1-1.2C139.1,165.4,139.8,165.8,140,166.6z M150.7,167.4h-0.8
	c0-0.9-0.7-1.4-1.6-1.4c-0.7,0-1.5,0.3-1.5,1.1c0,0.5,0.5,0.9,1.4,1.1l0.8,0.2c0.7,0.1,1.9,0.5,1.9,1.8c0,1.4-1.4,1.9-2.5,1.9
	c-1.6,0-2.5-0.7-2.6-2.2h0.8c0.1,1,0.8,1.6,1.9,1.6c0.8,0,1.7-0.4,1.7-1.2c0-0.6-0.5-1-1.5-1.2l-0.8-0.2c-1.2-0.3-1.8-0.8-1.8-1.7
	c0-1.3,1.3-1.8,2.4-1.8C149.8,165.4,150.7,166.1,150.7,167.4z M155.7,168.1v0.7h-3.1v-0.7H155.7z M106.2,180.5
	c0.4-0.8,1.1-1.2,2-1.2c1.4,0,2.1,0.8,2.1,2.2v4.3h-0.8v-4.2c0-1.1-0.5-1.6-1.5-1.6c-1.2,0-1.7,0.9-1.7,2.3v3.6h-0.8v-4.3
	c0-1-0.4-1.6-1.3-1.6c-1.3,0-1.9,1-1.9,2.3v3.5h-0.8v-6.3h0.7v1.1l0,0c0.4-0.8,1.1-1.2,2.1-1.2C105.2,179.3,106,179.7,106.2,180.5z
	 M117.1,181.3v3.3c0,0.3,0.1,0.5,0.5,0.5c0.1,0,0.2,0,0.2,0v0.6c-0.2,0-0.3,0-0.5,0c-0.7,0-0.9-0.3-0.9-1.1l0,0l0,0
	c-0.6,1-1.3,1.3-2.3,1.3c-1.2,0-2.1-0.6-2.1-1.8c0-0.8,0.4-1.2,0.6-1.4c0.4-0.3,0.9-0.5,2.4-0.6c0.9-0.1,1.3-0.1,1.3-0.9
	c0-1-0.6-1.3-1.6-1.3s-1.6,0.5-1.7,1.5h-0.8c0.1-1.4,1-2.1,2.6-2.1C116.5,179.3,117.1,180.1,117.1,181.3z M116.3,182.3
	c-0.1,0.2-0.4,0.2-0.8,0.3s-1.2,0.2-1.5,0.3c-0.6,0.2-1.2,0.4-1.2,1.2s0.7,1.2,1.4,1.2c1.2,0,2.2-0.8,2.2-2L116.3,182.3L116.3,182.3
	L116.3,182.3z M114.1,177.1v1.2h-0.8v-1.2H114.1z M116.2,177.1v1.2h-0.8v-1.2H116.2z M122.4,180.2L122.4,180.2c-1.4,0-2.3,1-2.3,2.3
	v3.3h-0.8v-6.3h0.7v1.5l0,0c0.4-1,1.2-1.6,2.2-1.6h0.2L122.4,180.2L122.4,180.2z M124.5,177.1v5.5l3.5-3.1h1l-2.7,2.3l2.9,4h-1
	l-2.5-3.4l-1.2,1v2.4h-0.8v-8.7H124.5L124.5,177.1z M131.6,177.6v1.9h1.3v0.6h-1.3v4.3c0,0.5,0.2,0.8,0.7,0.8c0.1,0,0.4,0,0.6,0v0.7
	c-0.3,0-0.4,0-0.7,0c-1,0-1.4-0.3-1.4-1.4v-4.4h-1.1v-0.6h1.1v-1.9L131.6,177.6L131.6,177.6L131.6,177.6z M139.9,182.6v0.2h-4.8
	c0,1.2,0.7,2.5,2.1,2.5c1,0,1.7-0.5,2-1.6h0.8c-0.4,1.5-1.3,2.3-2.7,2.3c-1.9,0-2.8-1.4-2.8-3.3c0-1.7,0.9-3.3,2.8-3.3
	C138.9,179.3,139.9,180.7,139.9,182.6z M139.1,182.2c0-1.2-0.8-2.2-2-2.2c-1.1,0-1.9,0.9-2.1,2.2H139.1z M121,245.7
	c-13.8,0-25-11.2-25-25s11.2-25,25-25s25,11.2,25,25S134.8,245.7,121,245.7z M121,196.5c-13.3,0-24.1,10.8-24.1,24.1
	s10.8,24.1,24.1,24.1s24.1-10.8,24.1-24.1S134.3,196.5,121,196.5z M130.4,238.6c0-0.3-0.3-0.6-0.6-0.6h-8.4v-2.9
	c0-0.3-0.3-0.6-0.6-0.6s-0.6,0.3-0.6,0.6v2.9h-8.4c-0.3,0-0.6,0.3-0.6,0.6s0.3,0.6,0.6,0.6h17.9
	C130.1,239.1,130.4,238.9,130.4,238.6z M117.9,230.7c-0.9,0-1.7-0.2-2.5-0.5l0,0c-3.4-1.4-6-4-7.5-7.3s-1.5-7.1-0.1-10.5
	c1.2-3,3.4-5.3,6-6.8l0.1-0.1c3.5-1.9,7.7-2.2,11.6-0.7l0,0l0,0c3.9,1.6,6.7,4.8,7.9,8.5c0,0,0,0.1,0,0.2c0.9,2.9,0.8,6-0.4,9
	c-0.1,0.3-0.8,2.6-2.8,4.3c-0.2,0.2-0.6,0.2-0.8-0.1c-0.2-0.2-0.2-0.6,0.1-0.8c1.3-1.1,2-2.5,2.2-3.3l-3-1.2c-0.9,2.1-2.2,4-3.6,5.5
	c0.7,0.5,1.4,1.1,1.9,1.6c0.2,0.2,0.2,0.6,0,0.8s-0.6,0.2-0.8,0c-0.5-0.5-1.2-1.1-1.9-1.6c-0.4,0.4-0.9,0.8-1.4,1.1
	C121.3,230.1,119.6,230.7,117.9,230.7z M116.3,229.3c1.9,0.5,4,0.1,6.1-1.4c0.4-0.2,0.7-0.5,1.1-0.8c-1.5-1-3.3-1.9-5.2-2.7
	L116.3,229.3z M111.6,222.4c0.3,3,1.5,5.4,3.6,6.5l2-4.9C115.3,223.3,113.4,222.7,111.6,222.4z M118.7,223.4c2.1,0.9,4,1.9,5.6,3
	c1.4-1.4,2.6-3.2,3.5-5.2l-7-2.8L118.7,223.4z M108.8,222c0.1,0.1,0.1,0.3,0.2,0.4c0.6,1.5,1.5,2.8,2.6,3.9c-0.5-1.2-0.9-2.6-1-4.1
	C109.9,222.1,109.3,222,108.8,222z M111.6,221.2c1.9,0.4,4,1,6.1,1.8l2.1-5.1l-7-2.8C111.9,217.1,111.6,219.3,111.6,221.2z
	 M129.3,220.5l3,1.2c0.9-2.5,0.9-5.1,0.3-7.5c-0.6,0-1.3-0.1-2.1-0.2C130.5,216.1,130.1,218.3,129.3,220.5z M108.4,220.8
	c0.6,0,1.3,0.1,2.1,0.2c0-2,0.4-4.3,1.2-6.4l-3-1.2C107.8,215.8,107.7,218.4,108.4,220.8z M121.2,217.2l7,2.8
	c0.8-2.1,1.2-4.3,1.1-6.2c-1.9-0.4-4-1-6.1-1.8L121.2,217.2z M113.1,213.9l7,2.8l2.1-5.1c-2.1-0.9-4-1.9-5.6-3
	C115.3,210.1,114,211.9,113.1,213.9z M109.1,212.3l3,1.2c0.9-2.1,2.2-4,3.6-5.5c-0.6-0.4-1.1-0.9-1.6-1.3
	C112,208,110.2,209.9,109.1,212.3z M130.5,212.9c0.6,0.1,1.2,0.2,1.7,0.2c-0.6-1.6-1.5-3-2.7-4.3C130,210,130.3,211.4,130.5,212.9z
	 M123.7,211c1.9,0.8,3.9,1.3,5.6,1.7c-0.3-3-1.5-5.4-3.6-6.5L123.7,211z M117.5,207.9c1.5,1,3.3,1.9,5.2,2.7l2-4.9
	C122.4,205.1,119.8,206,117.5,207.9z M115.2,206.2c0.4,0.4,0.9,0.7,1.4,1.1c1.1-1,2.3-1.8,3.6-2.3
	C118.4,205.1,116.7,205.5,115.2,206.2z M136.5,217.5c0-7.9-5.6-14.5-13.4-15.8c-0.3-0.1-0.6,0.2-0.7,0.5s0.2,0.6,0.5,0.6
	c7.2,1.2,12.4,7.3,12.4,14.6c0,8.2-6.6,14.8-14.8,14.8c-3.3,0-6.4-1.1-9.1-3.1c-0.2-0.2-0.6-0.1-0.8,0.1c-0.2,0.2-0.1,0.6,0.1,0.8
	c2.8,2.2,6.2,3.3,9.8,3.3C129.3,233.5,136.5,226.3,136.5,217.5z M220,166.4c-14,0-25.4-11.4-25.4-25.4s11.4-25.4,25.4-25.4
	s25.4,11.4,25.4,25.4S234,166.4,220,166.4z M220,116.5c-13.5,0-24.5,11-24.5,24.5s11,24.5,24.5,24.5s24.5-11,24.5-24.5
	S233.5,116.5,220,116.5z M211.7,163.6c-0.1,0-0.3,0-0.4-0.1c-0.2-0.2-0.3-0.6-0.1-0.8c1.1-1.3,1.7-2.9,1.7-4.6v-10.4
	c0-0.3,0.3-0.6,0.6-0.6h0.2c0.4,0,0.7-0.3,0.7-0.7v-6.2h-2.1c-0.3,0-0.6-0.3-0.6-0.6s0.3-0.6,0.6-0.6h2.7h0.1l6.4-3.5l0,0l2-1.1
	l-1.5-2.3c-0.2-0.3-0.1-0.6,0.2-0.8l0,0l5.7-3.9c0.1-0.1,0.3-0.1,0.4-0.1l4.4,0.7c0.3,0,0.5,0.3,0.5,0.6s-0.3,0.5-0.6,0.5l-4.2-0.6
	l-5.1,3.5l1.5,2.3c0.1,0.1,0.1,0.3,0.1,0.4s-0.1,0.3-0.3,0.4l-2.3,1.2l-0.2,3.5c-0.2,3-2.6,5.3-5.6,5.3h-1v1.2
	c0,0.9-0.6,1.7-1.5,1.8v9.9c0,2-0.7,3.9-2,5.3C212,163.6,211.9,163.6,211.7,163.6z M215.7,144.1h1c2.4,0,4.3-1.8,4.4-4.2l0.2-2.8
	l-5.6,3L215.7,144.1L215.7,144.1z M209.4,162.2c-0.2,0-0.3-0.1-0.4-0.2c-0.2-0.2-0.2-0.6,0-0.8c0.9-0.8,1.4-1.9,1.4-3.1v-10
	c-0.7-0.3-1.2-1-1.2-1.8v-15.1c0-0.2,0.1-0.4,0.3-0.5l9.4-4.9c0.3-0.1,0.6-0.1,0.7,0.2l0.7,1.2l7.9-3.7c0.1,0,0.2-0.1,0.3,0l5.7,0.7
	c0.1,0,0.1,0,0.2,0.1c1.4,0.8,0.6,3.3,0.5,3.5c-0.1,0.3-0.4,0.4-0.7,0.3c-0.3-0.1-0.4-0.4-0.3-0.7c0.2-0.6,0.4-1.7,0.1-2.1l-5.4-0.7
	l-7.6,3.5l1.5,2.3c0.2,0.3,0.1,0.6-0.2,0.8s-0.6,0.1-0.8-0.2l-1.8-2.8l0,0l-0.7-1.1l-8.6,4.5v14.7c0,0.4,0.3,0.7,0.7,0.7h0.8
	c0.3,0,0.6,0.3,0.6,0.6s-0.3,0.6-0.6,0.6h-0.3v9.9c0,1.5-0.6,2.9-1.7,4C209.6,162.2,209.5,162.2,209.4,162.2z M196.5,192.9h-0.8
	c-0.1-1.3-1.1-2-2.4-2c-1.2,0-2.2,0.5-2.2,1.7c0,0.9,0.7,1.2,1.2,1.3l2.1,0.5c1.7,0.4,2.4,1.2,2.4,2.3c0,0.9-0.5,2.5-3.3,2.5
	c-2.1,0-3.5-1-3.5-2.8v-0.2h0.8v0.1c0,1.6,1.1,2.3,2.8,2.3c1,0,2.3-0.5,2.3-1.8c0-0.8-0.6-1.3-1.7-1.6l-2-0.5c-1.3-0.3-2-0.9-2-2.1
	c0-1,0.7-2.5,3-2.5C195.1,190.2,196.5,191.2,196.5,192.9z M198.7,192.8l2.1,5.4l1.9-5.4h0.8l-2.7,7.3c-0.1,0.3-0.3,0.8-0.6,1
	c-0.2,0.2-0.5,0.3-1,0.3c-0.3,0-0.5,0-0.6-0.1v-0.6c0.1,0,0.3,0.1,0.5,0.1c0.4,0,0.6-0.1,0.7-0.3c0.2-0.2,0.3-0.5,0.6-1.4l-2.5-6.3
	H198.7L198.7,192.8L198.7,192.8z M209.9,195v4.1h-0.8v-3.9c0-1.2-0.5-1.9-1.6-1.9c-1.4,0-2,1.1-2,2.2v3.6h-0.8v-6.3h0.8v1.1l0,0
	c0.3-0.8,1.1-1.3,2-1.3C209.3,192.6,209.9,193.4,209.9,195z M213.2,190.9v1.9h1.3v0.6h-1.3v4.3c0,0.5,0.2,0.8,0.7,0.8
	c0.1,0,0.4,0,0.6,0v0.7c-0.3,0-0.4,0-0.7,0c-1,0-1.4-0.3-1.4-1.4v-4.4h-1.1v-0.6h1.1v-1.9L213.2,190.9L213.2,190.9L213.2,190.9z
	 M217,190.4v3.5l0,0c0.3-0.8,1.1-1.3,2-1.3c1.6,0,2.3,0.8,2.3,2.4v4.1h-0.8v-4c0-1.3-0.5-1.9-1.6-1.9c-1.4,0-2,1.2-2,2.2v3.6h-0.8
	v-8.7L217,190.4L217,190.4z M228.7,196v0.2h-4.8c0,1.2,0.7,2.5,2.1,2.5c1,0,1.7-0.5,2-1.6h0.8c-0.4,1.5-1.3,2.3-2.7,2.3
	c-1.9,0-2.8-1.4-2.8-3.3c0-1.7,0.9-3.3,2.8-3.3C227.7,192.6,228.7,194,228.7,196z M227.9,195.5c0-1.2-0.8-2.2-2-2.2
	c-1.1,0-1.9,0.9-2.1,2.2H227.9z M231.5,190.9v1.9h1.3v0.6h-1.3v4.3c0,0.5,0.2,0.8,0.7,0.8c0.1,0,0.4,0,0.6,0v0.7c-0.3,0-0.4,0-0.7,0
	c-1,0-1.4-0.3-1.4-1.4v-4.4h-1.1v-0.6h1.1v-1.9L231.5,190.9L231.5,190.9L231.5,190.9z M235.3,190.4v1.2h-0.8v-1.2H235.3z
	 M235.3,192.8v6.3h-0.8v-6.3H235.3z M241.9,194.6h-0.8c0-0.9-0.7-1.4-1.6-1.4c-0.7,0-1.5,0.3-1.5,1.1c0,0.5,0.5,0.9,1.4,1.1l0.8,0.2
	c0.7,0.1,1.9,0.5,1.9,1.8c0,1.4-1.4,1.9-2.5,1.9c-1.6,0-2.5-0.7-2.6-2.2h0.8c0.1,1,0.8,1.6,1.9,1.6c0.8,0,1.7-0.4,1.7-1.2
	c0-0.6-0.5-1-1.5-1.2l-0.8-0.2c-1.2-0.3-1.8-0.8-1.8-1.7c0-1.3,1.3-1.8,2.4-1.8C241,192.6,241.9,193.3,241.9,194.6z M249.1,194.8
	h-0.8c-0.2-1-0.8-1.5-1.8-1.5c-1.5,0-2.2,1.4-2.2,2.7c0,1.4,0.8,2.7,2.2,2.7c0.9,0,1.7-0.7,1.8-1.8h0.8c-0.2,1.5-1.2,2.4-2.6,2.4
	c-1.9,0-3-1.5-3-3.3c0-1.9,1.1-3.3,3-3.3C248,192.6,248.9,193.4,249.1,194.8z M251.6,190.4v3.5l0,0c0.3-0.8,1.1-1.3,2-1.3
	c1.6,0,2.3,0.8,2.3,2.4v4.1h-0.8v-4c0-1.3-0.5-1.9-1.6-1.9c-1.4,0-2,1.2-2,2.2v3.6h-0.8v-8.7L251.6,190.4L251.6,190.4z M263.3,196
	v0.2h-4.8c0,1.2,0.7,2.5,2.1,2.5c1,0,1.7-0.5,2-1.6h0.8c-0.4,1.5-1.3,2.3-2.7,2.3c-1.9,0-2.8-1.4-2.8-3.3c0-1.7,0.9-3.3,2.8-3.3
	C262.3,192.6,263.3,194,263.3,196z M262.5,195.5c0-1.2-0.8-2.2-2-2.2c-1.1,0-1.9,0.9-2.1,2.2H262.5z M198.5,204.3v4.7l5.1-4.7h1.1
	l-3.9,3.6l4.1,5.1h-1.1l-3.6-4.5l-1.7,1.6v3h-0.8v-8.7h0.8V204.3z M209.1,207.4H209c-1.3,0-2.2,1-2.2,2.3v3.3H206v-6.3h0.7v1.5l0,0
	c0.4-1,1.2-1.6,2.2-1.6h0.2L209.1,207.4L209.1,207.4z M215.3,208.6v3.3c0,0.3,0.1,0.5,0.5,0.5c0.1,0,0.2,0,0.2,0v0.6
	c-0.2,0-0.3,0-0.5,0c-0.7,0-0.9-0.3-0.9-1.1l0,0l0,0c-0.6,1-1.3,1.3-2.3,1.3c-1.2,0-2.1-0.6-2.1-1.8c0-0.8,0.4-1.2,0.6-1.4
	c0.4-0.3,0.9-0.5,2.4-0.6c0.9-0.1,1.3-0.1,1.3-0.9c0-1-0.6-1.3-1.6-1.3s-1.6,0.5-1.7,1.5h-0.8c0.1-1.4,1-2.1,2.6-2.1
	C214.6,206.5,215.3,207.3,215.3,208.6z M214.5,209.6c-0.1,0.2-0.4,0.2-0.8,0.3c-0.4,0.1-1.2,0.2-1.5,0.3c-0.6,0.2-1.2,0.4-1.2,1.2
	s0.7,1.2,1.4,1.2c1.2,0,2.2-0.8,2.2-2L214.5,209.6L214.5,209.6L214.5,209.6L214.5,209.6z M217.8,213v-5.6h-1.1v-0.6h1.1v-0.6
	c0-1.2,0.4-1.8,1.5-1.8c0.3,0,0.5,0,0.6,0v0.7c-0.2,0-0.4-0.1-0.6-0.1c-0.7,0-0.8,0.4-0.8,1.1v0.7h1.2v0.6h-1.2v5.6L217.8,213
	L217.8,213z M222.4,204.8v1.9h1.3v0.6h-1.3v4.3c0,0.5,0.2,0.8,0.7,0.8c0.1,0,0.4,0,0.6,0v0.7c-0.3,0-0.4,0-0.7,0
	c-1,0-1.4-0.3-1.4-1.4v-4.4h-1.1v-0.6h1.1v-1.9L222.4,204.8L222.4,204.8L222.4,204.8z M229.9,208.6h-0.8c0-0.9-0.7-1.4-1.6-1.4
	c-0.7,0-1.5,0.3-1.5,1.1c0,0.5,0.5,0.9,1.4,1.1l0.8,0.2c0.7,0.1,1.9,0.5,1.9,1.8c0,1.4-1.4,1.9-2.5,1.9c-1.6,0-2.5-0.7-2.6-2.2h0.8
	c0.1,1,0.8,1.6,1.9,1.6c0.8,0,1.7-0.4,1.7-1.2c0-0.6-0.5-1-1.5-1.2l-0.8-0.2c-1.2-0.3-1.8-0.8-1.8-1.7c0-1.3,1.3-1.8,2.4-1.8
	C229,206.5,229.9,207.3,229.9,208.6z M233.1,204.8v1.9h1.3v0.6h-1.3v4.3c0,0.5,0.2,0.8,0.7,0.8c0.1,0,0.4,0,0.6,0v0.7
	c-0.3,0-0.4,0-0.7,0c-1,0-1.4-0.3-1.4-1.4v-4.4h-1.1v-0.6h1.1v-1.9L233.1,204.8L233.1,204.8L233.1,204.8z M241.7,209.9
	c0,1.8-1.1,3.3-3,3.3s-3-1.5-3-3.3s1.1-3.3,3-3.3C240.7,206.5,241.7,208.1,241.7,209.9z M238.7,212.5c1.5,0,2.2-1.3,2.2-2.7
	c0-1.3-0.7-2.7-2.2-2.7c-1.4,0-2.2,1.3-2.2,2.7S237.3,212.5,238.7,212.5z M243.9,213v-5.6h-1.1v-0.6h1.1v-0.6c0-1.2,0.4-1.8,1.5-1.8
	c0.3,0,0.5,0,0.6,0v0.7c-0.2,0-0.4-0.1-0.6-0.1c-0.7,0-0.8,0.4-0.8,1.1v0.7h1.2v0.6h-1.2v5.6L243.9,213L243.9,213z M247.4,213v-5.6
	h-1.1v-0.6h1.1v-0.6c0-1.2,0.4-1.8,1.5-1.8c0.3,0,0.5,0,0.6,0v0.7c-0.2,0-0.4-0.1-0.6-0.1c-0.7,0-0.8,0.4-0.8,1.1v0.7h1.2v0.6h-1.2
	v5.6L247.4,213L247.4,213z M256.1,209.9v0.2h-4.8c0,1.2,0.7,2.5,2.1,2.5c1,0,1.7-0.5,2-1.6h0.8c-0.4,1.5-1.3,2.3-2.7,2.3
	c-1.9,0-2.8-1.4-2.8-3.3c0-1.7,0.9-3.3,2.8-3.3C255.1,206.5,256.1,207.9,256.1,209.9z M255.3,209.4c0-1.2-0.8-2.2-2-2.2
	c-1.1,0-1.9,0.9-2.1,2.2H255.3z M235.5,259.5c-3.3,0-6-2.7-6-6c0-0.9,0.2-1.7,0.6-2.5l3.8-8.4c0.3-0.7,0.9-1.1,1.7-1.1
	c0.7,0,1.4,0.5,1.7,1.2l3.8,8.4l0,0c0.3,0.8,0.5,1.6,0.5,2.4C241.5,256.8,238.8,259.5,235.5,259.5z M235.5,242.6
	c-0.3,0-0.5,0.2-0.6,0.4l-3.7,8.3c-0.3,0.8-0.5,1.4-0.5,2.1c0,2.7,2.2,4.8,4.8,4.8s4.8-2.2,4.8-4.8c0-0.7-0.1-1.3-0.4-1.9l-3.8-8.4
	C236,242.8,235.8,242.6,235.5,242.6z M235.1,255c-0.5-0.4-0.9-0.9-1.1-1.2c-0.3-0.5-1-0.7-1.5-0.4l0,0c-0.3,0.2-0.5,0.4-0.6,0.8
	c-0.1,0.3,0,0.7,0.2,1c0.3,0.5,0.9,1.2,1.7,1.8c0.2,0.2,0.5,0.2,0.7,0.2c0.1,0,0.2,0,0.3,0c0.3-0.1,0.6-0.3,0.8-0.6
	C235.7,256,235.6,255.4,235.1,255z M234.7,256.1c-0.1,0.1-0.2,0.2-0.2,0.2c-0.1,0-0.2,0-0.3-0.1l0,0c-0.7-0.5-1.2-1.1-1.5-1.6
	c-0.1-0.1-0.1-0.2,0-0.3c0-0.1,0.1-0.1,0.2-0.2l0,0c0.1-0.1,0.3,0,0.4,0.1c0.3,0.4,0.7,1,1.3,1.4C234.7,255.8,234.8,256,234.7,256.1
	z M233.1,276.2l-7.4-17.4v-8h0.5c0.3,0,0.6-0.3,0.6-0.6v-1.9c0-0.3-0.3-0.6-0.6-0.6h-7.1c-0.3,0-0.6,0.3-0.6,0.6v1.9
	c0,0.3,0.3,0.6,0.6,0.6h4.4c0.3,0,0.6-0.3,0.6-0.6s-0.3-0.6-0.6-0.6h-3.8v-0.8h5.9v0.8h-0.5c-0.3,0-0.6,0.3-0.6,0.6v8.7
	c0,0.1,0,0.2,0,0.2l7.5,17.5c0.3,0.8,0,1.6-0.8,2c-0.2,0.1-0.4,0.1-0.6,0.1l0,0h-16.1l0,0c-0.8,0-1.5-0.7-1.5-1.5
	c0-0.2,0-0.4,0.1-0.6l3.1-7.2c1.1,0.2,2.2,0.2,3.3,0.3c1,0,2.1-0.1,3.1-0.4c1.6-0.4,3.2-0.6,4.8-0.6c0.3,0,0.6-0.2,0.6-0.5
	c0-0.1,0-0.3-0.1-0.4s-0.2-0.2-0.4-0.2c-1.7,0-3.5,0.2-5.1,0.6c-2,0.5-4.5,0.3-5.8,0.1l4-9.2c0-0.1,0-0.1,0-0.2v-6.8
	c0-0.3-0.3-0.6-0.6-0.6s-0.6,0.3-0.6,0.6v6.7l-7.4,17.4c-0.3,0.6-0.3,1.4,0,2s0.8,1.2,1.4,1.4c0.3,0.1,0.7,0.2,1,0.2h16.1
	c1.4,0,2.6-1.2,2.6-2.6C233.3,276.9,233.2,276.5,233.1,276.2z M220.9,266.7c0,0.4-0.3,0.7-0.7,0.7s-0.7-0.3-0.7-0.7s0.3-0.7,0.7-0.7
	C220.6,265.9,220.9,266.3,220.9,266.7L220.9,266.7L220.9,266.7L220.9,266.7z M218.8,266.7c0,0.8,0.6,1.4,1.4,1.4s1.4-0.6,1.4-1.4
	s-0.6-1.4-1.4-1.4C219.4,265.2,218.8,265.9,218.8,266.7 M223.3,263.1c0.2,0,0.4,0.2,0.4,0.4s-0.2,0.4-0.4,0.4s-0.4-0.2-0.4-0.4
	C222.9,263.3,223.1,263.1,223.3,263.1 M222.2,263.5c0,0.6,0.5,1.1,1.1,1.1s1.1-0.5,1.1-1.1s-0.5-1.1-1.1-1.1l0,0
	C222.7,262.4,222.2,262.9,222.2,263.5 M222.2,260.5c-0.2,0-0.4-0.2-0.4-0.4c0-0.2,0.2-0.4,0.4-0.4s0.4,0.2,0.4,0.4
	C222.7,260.3,222.5,260.5,222.2,260.5 M222.2,258.9c-0.6,0-1.1,0.5-1.1,1.1s0.5,1.1,1.1,1.1s1.1-0.5,1.1-1.1
	S222.8,258.9,222.2,258.9 M228.1,288.9c-14.3,0-25.9-11.6-25.9-25.9c0-14.3,11.6-25.9,25.9-25.9c14.3,0,25.9,11.6,25.9,25.9
	C254,277.3,242.4,288.9,228.1,288.9z M228.1,238.1c-13.8,0-25,11.2-25,25c0,13.8,11.2,25,25,25s25-11.2,25-25
	C253.1,249.3,241.9,238.1,228.1,238.1z"/>
<path id="_x3C_Loesungen_x3E_" class="st2" d="M515.6,0.2c-50.4,0-97.3,15.3-136.2,41.5l0.4,0.3c0.1-0.1,0.2-0.1,0.3-0.2
	c4.9,3.3,9.6,6.7,14.2,10.3C429.4,29.9,471,17,515.7,17c125.5,0,227.1,101.7,227.1,227.1c0,125.5-101.7,227.2-227.2,227.2
	c-44,0-85-12.5-119.8-34.1c-4.7,3.7-9.5,7.3-14.5,10.7c38.5,25.5,84.7,40.3,134.3,40.3c134.8,0,244-109.2,244-244
	S650.3,0.2,515.6,0.2z M709.4,244.2c0-106.1-86.3-192.4-192.4-192.4c-33.4,0-66.4,8.7-95.3,25.2l-0.7,0.4l1.2,1.3
	c1,1.1,2.1,2.3,3.1,3.4l0.5,0.6c35.6,40,56.7,89.2,61,142.5l0.1,0.7c0.1,0.8,0.1,1.6,0.2,2.4c0.1,1,0.1,2.1,0.2,3.1
	c0.1,1.4,0.1,2.9,0.2,4.3v0.4c0,0.7,0.1,1.4,0.1,2.1c0.1,2.3,0.1,4.7,0.1,7s0,4.7-0.1,7c0,0.8-0.1,1.6-0.1,2.4
	c-0.1,1.5-0.1,2.9-0.2,4.4v0.3c-0.1,0.9-0.1,1.8-0.2,2.7c-0.1,0.9-0.1,1.7-0.2,2.6v0.5c-0.2,3-0.5,5.9-0.9,8.9
	c-6,51.4-27.9,98.8-63.1,136.9l-0.6,0.6l0.7,0.4c28.5,16,61,24.5,93.9,24.5C623.1,436.6,709.4,350.3,709.4,244.2z M487.4,274.2
	c0.3-2.8,0.6-5.8,0.9-8.8v-0.5c0.1-0.9,0.1-1.7,0.2-2.6s0.1-1.8,0.2-2.8v-0.3c0.1-1.5,0.2-2.9,0.2-4.4c0-0.8,0.1-1.6,0.1-2.5
	c0.1-2.3,0.1-4.7,0.1-7s0-4.7-0.1-7c0-0.7,0-1.4-0.1-2.1v-0.4c-0.1-1.5-0.1-2.9-0.2-4.4c-0.1-1.1-0.1-2.1-0.2-3.2
	c-0.1-0.8-0.1-1.6-0.2-2.4l-0.1-0.7c-4.3-53.6-25.6-103.1-61.3-143.3l-0.5-0.6c-1-1.1-2.1-2.3-3.1-3.4l-0.1-0.1
	c28.5-16.1,61-24.7,93.9-24.7c105.3,0,191.1,85.7,191.1,191.1S622.4,435.3,517,435.3c-32.4,0-64.4-8.3-92.6-23.9
	C459.6,373.1,481.3,325.8,487.4,274.2z M525.4,317.1v8h4.9v0.7h-5.7v-8.7H525.4z M536.9,322.6v0.2h-4.8c0,1.2,0.7,2.5,2.1,2.5
	c1,0,1.7-0.5,2-1.6h0.8c-0.4,1.5-1.3,2.3-2.7,2.3c-1.9,0-2.8-1.4-2.8-3.3c0-1.7,0.9-3.3,2.8-3.3
	C535.9,319.3,536.9,320.7,536.9,322.6z M536.1,322.2c0-1.2-0.8-2.2-2-2.2c-1.1,0-1.9,0.9-2.1,2.2H536.1z M539.3,317.1v1.2h-0.8v-1.2
	H539.3z M539.3,319.5v6.3h-0.8v-6.3H539.3z M545.9,321.3h-0.8c0-0.9-0.7-1.4-1.6-1.4c-0.7,0-1.5,0.3-1.5,1.1c0,0.5,0.5,0.9,1.4,1.1
	l0.8,0.2c0.7,0.1,1.9,0.5,1.9,1.8c0,1.4-1.4,1.9-2.5,1.9c-1.5,0-2.5-0.7-2.6-2.2h0.8c0.1,1,0.8,1.6,1.9,1.6c0.8,0,1.7-0.4,1.7-1.2
	c0-0.6-0.5-1-1.5-1.2l-0.8-0.2c-1.2-0.3-1.8-0.8-1.8-1.7c0-1.3,1.3-1.8,2.4-1.8C545,319.3,545.9,320,545.9,321.3z M549.1,317.6v1.9
	h1.3v0.6h-1.3v4.3c0,0.5,0.2,0.8,0.7,0.8c0.1,0,0.4,0,0.6,0v0.7c-0.3,0-0.4,0-0.7,0c-1,0-1.4-0.3-1.4-1.4v-4.4h-1.1v-0.6h1.1v-1.9
	H549.1L549.1,317.6L549.1,317.6z M552.8,319.5v3.9c0,1.1,0.3,1.9,1.7,1.9c1.3,0,1.9-1.2,1.9-2.5v-3.3h0.8v6.3h-0.7v-1.1l0,0
	c-0.4,0.8-1.2,1.3-2.2,1.3c-1.6,0-2.2-0.9-2.2-2.4v-4.1L552.8,319.5L552.8,319.5z M564.3,321.7v4.1h-0.8v-3.9c0-1.2-0.5-1.9-1.6-1.9
	c-1.4,0-2,1.1-2,2.2v3.6h-0.8v-6.3h0.8v1.1l0,0c0.3-0.8,1.1-1.3,2-1.3C563.7,319.3,564.3,320.1,564.3,321.7z M570.9,320.6
	L570.9,320.6v-1.1h0.8v5.8c0,2-0.9,3-2.8,3c-1.4,0-2.5-0.7-2.6-1.9h0.8c0.1,0.8,0.8,1.3,1.8,1.3c1.4,0,2-0.9,2-2.4v-0.9l0,0
	c-0.4,0.8-1.1,1.3-2,1.3c-1.9,0-2.8-1.3-2.8-3.2c0-1.8,1.1-3.2,2.8-3.2C569.8,319.3,570.6,319.8,570.9,320.6z M568.9,325.1
	c1.3,0,2-1.1,2-2.5c0-1.3-0.6-2.6-2-2.6c-1.3,0-2.1,1.1-2.1,2.6C566.9,323.8,567.5,325.1,568.9,325.1z M578.3,321.3h-0.8
	c0-0.9-0.7-1.4-1.6-1.4c-0.7,0-1.5,0.3-1.5,1.1c0,0.5,0.5,0.9,1.4,1.1l0.8,0.2c0.7,0.1,1.9,0.5,1.9,1.8c0,1.4-1.4,1.9-2.5,1.9
	c-1.5,0-2.5-0.7-2.6-2.2h0.8c0.1,1,0.8,1.6,1.9,1.6c0.8,0,1.7-0.4,1.7-1.2c0-0.6-0.5-1-1.5-1.2l-0.8-0.2c-1.2-0.3-1.8-0.8-1.8-1.7
	c0-1.3,1.3-1.8,2.4-1.8C577.4,319.3,578.3,320,578.3,321.3z M585.6,322.6v0.2h-4.8c0,1.2,0.7,2.5,2.1,2.5c1,0,1.7-0.5,2-1.6h0.8
	c-0.4,1.5-1.3,2.3-2.7,2.3c-1.9,0-2.8-1.4-2.8-3.3c0-1.7,0.9-3.3,2.8-3.3C584.6,319.3,585.6,320.7,585.6,322.6z M584.8,322.2
	c0-1.2-0.8-2.2-2-2.2c-1.1,0-1.9,0.9-2.1,2.2H584.8z M588,317.1v8.7h-0.8v-8.7H588z M595.3,322.6v0.2h-4.8c0,1.2,0.7,2.5,2.1,2.5
	c1,0,1.7-0.5,2-1.6h0.8c-0.4,1.5-1.3,2.3-2.7,2.3c-1.9,0-2.8-1.4-2.8-3.3c0-1.7,0.9-3.3,2.8-3.3
	C594.3,319.3,595.3,320.7,595.3,322.6z M594.6,322.2c0-1.2-0.8-2.2-2-2.2c-1.1,0-1.9,0.9-2.1,2.2H594.6z M597.7,317.1v5.5l3.5-3h1
	l-2.7,2.3l2.9,4h-1l-2.5-3.4l-1.2,1v2.4H597v-8.7L597.7,317.1L597.7,317.1z M604.9,317.6v1.9h1.3v0.6h-1.3v4.3
	c0,0.5,0.2,0.8,0.7,0.8c0.1,0,0.4,0,0.6,0v0.7c-0.3,0-0.4,0-0.7,0c-1,0-1.4-0.3-1.4-1.4v-4.4H603v-0.6h1.1v-1.9H604.9L604.9,317.6z
	 M611,320.2L611,320.2c-1.4,0-2.3,1-2.3,2.3v3.3h-0.8v-6.3h0.7v1.5l0,0c0.4-1,1.2-1.6,2.2-1.6h0.2L611,320.2L611,320.2z
	 M617.8,322.6c0,1.8-1.1,3.3-3,3.3s-3-1.5-3-3.3s1.1-3.3,3-3.3C616.7,319.3,617.8,320.8,617.8,322.6z M614.8,325.3
	c1.5,0,2.2-1.3,2.2-2.7c0-1.3-0.7-2.7-2.2-2.7c-1.4,0-2.2,1.3-2.2,2.7S613.4,325.3,614.8,325.3z M624.6,321.7v4.1h-0.8v-3.9
	c0-1.2-0.5-1.9-1.6-1.9c-1.4,0-2,1.1-2,2.2v3.6h-0.8v-6.3h0.8v1.1l0,0c0.3-0.8,1.1-1.3,2-1.3C623.9,319.3,624.6,320.1,624.6,321.7z
	 M627.4,317.1v1.2h-0.8v-1.2H627.4z M627.4,319.5v6.3h-0.8v-6.3H627.4z M630.3,317.1v5.5l3.5-3h1l-2.7,2.3l2.9,4h-1l-2.5-3.4l-1.2,1
	v2.4h-0.8v-8.7L630.3,317.1L630.3,317.1z M542.5,333.4v3.9c0,1.1,0.3,1.9,1.7,1.9c1.3,0,1.9-1.2,1.9-2.5v-3.3h0.8v6.3h-0.7v-1.1l0,0
	c-0.4,0.8-1.2,1.3-2.2,1.3c-1.6,0-2.2-0.9-2.2-2.4v-4.1L542.5,333.4L542.5,333.4z M554,335.6v4.1h-0.8v-3.9c0-1.2-0.5-1.9-1.6-1.9
	c-1.4,0-2,1.1-2,2.2v3.6h-0.8v-6.3h0.8v1.1l0,0c0.3-0.8,1.1-1.3,2-1.3C553.3,333.2,554,334,554,335.6z M561.6,331v8.7h-0.7v-1.2l0,0
	c-0.4,0.9-1.4,1.4-2.2,1.4c-1.9,0-2.8-1.5-2.8-3.3s0.9-3.3,2.8-3.3c1,0,1.9,0.5,2.2,1.4l0,0V331H561.6z M558.6,339.2
	c1.5,0,2.2-1.2,2.2-2.7c0-1.4-0.6-2.7-2.2-2.7c-1.5,0-2.1,1.4-2.1,2.7C556.5,337.9,557.2,339.2,558.6,339.2z M573.8,333.5H573
	c-0.1-1.3-1.1-2-2.4-2c-1.2,0-2.2,0.5-2.2,1.7c0,0.9,0.7,1.2,1.2,1.3l2.1,0.5c1.7,0.4,2.4,1.2,2.4,2.3c0,0.9-0.5,2.5-3.3,2.5
	c-2.1,0-3.5-1-3.5-2.8v-0.2h0.8v0.1c0,1.6,1.1,2.3,2.8,2.3c1,0,2.3-0.5,2.3-1.8c0-0.8-0.6-1.3-1.7-1.6l-2-0.5c-1.3-0.3-2-0.9-2-2.1
	c0-1,0.7-2.5,3-2.5C572.4,330.8,573.8,331.8,573.8,333.5z M581.6,336.6c0,1.8-1.1,3.3-3,3.3s-3-1.5-3-3.3s1.1-3.3,3-3.3
	C580.5,333.2,581.6,334.8,581.6,336.6z M578.6,339.2c1.5,0,2.2-1.3,2.2-2.7c0-1.3-0.7-2.7-2.2-2.7c-1.4,0-2.2,1.3-2.2,2.7
	C576.4,337.9,577.1,339.2,578.6,339.2z M583.7,339.7v-5.6h-1.1v-0.6h1.1v-0.6c0-1.2,0.4-1.8,1.5-1.8c0.3,0,0.5,0,0.6,0v0.7
	c-0.2,0-0.4-0.1-0.6-0.1c-0.7,0-0.8,0.4-0.8,1v0.7h1.2v0.6h-1.2v5.6L583.7,339.7L583.7,339.7z M588.3,331.5v1.9h1.3v0.6h-1.3v4.3
	c0,0.5,0.2,0.8,0.7,0.8c0.1,0,0.4,0,0.6,0v0.7c-0.3,0-0.4,0-0.7,0c-1,0-1.4-0.3-1.4-1.4V334h-1.1v-0.6h1.1v-1.9H588.3L588.3,331.5z
	 M591.5,333.4l1.6,5.4l0,0l1.5-5.4h0.9l1.5,5.4l0,0l1.6-5.4h0.8l-2,6.3h-0.8l-1.5-5.3l0,0l-1.5,5.3h-0.8l-2-6.3H591.5z M605.7,335.3
	v3.3c0,0.3,0.1,0.5,0.5,0.5c0.1,0,0.2,0,0.2,0v0.6c-0.2,0-0.3,0-0.5,0c-0.7,0-0.9-0.3-0.9-1.1l0,0l0,0c-0.6,1-1.3,1.3-2.3,1.3
	c-1.2,0-2.1-0.6-2.1-1.8c0-0.8,0.4-1.2,0.6-1.4c0.4-0.3,0.9-0.5,2.4-0.6c0.9-0.1,1.3-0.1,1.3-0.9c0-1-0.6-1.3-1.6-1.3
	s-1.6,0.5-1.7,1.5h-0.8c0.1-1.4,1-2.1,2.6-2.1C605.1,333.2,605.7,334,605.7,335.3z M604.9,336.3c-0.1,0.2-0.4,0.2-0.8,0.3
	c-0.4,0.1-1.2,0.2-1.5,0.3c-0.6,0.2-1.2,0.4-1.2,1.2s0.7,1.2,1.4,1.2c1.2,0,2.2-0.8,2.2-2L604.9,336.3L604.9,336.3L604.9,336.3z
	 M611,334.1L611,334.1c-1.4,0-2.3,1-2.3,2.3v3.3h-0.8v-6.3h0.7v1.5l0,0c0.4-1,1.2-1.6,2.2-1.6h0.2L611,334.1L611,334.1z
	 M617.4,336.6v0.2h-4.8c0,1.2,0.7,2.5,2.1,2.5c1,0,1.7-0.5,2-1.6h0.8c-0.4,1.5-1.3,2.3-2.7,2.3c-1.9,0-2.8-1.4-2.8-3.3
	c0-1.7,0.9-3.3,2.8-3.3C616.4,333.2,617.4,334.6,617.4,336.6z M616.6,336.1c0-1.2-0.8-2.2-2-2.2c-1.1,0-1.9,0.9-2.1,2.2H616.6z
	 M579.6,349.4c-14,0-25.4,11.4-25.4,25.4s11.4,25.4,25.4,25.4s25.4-11.4,25.4-25.4S593.6,349.4,579.6,349.4z M579.6,399.4
	c-13.5,0-24.5-11-24.5-24.5s11-24.5,24.5-24.5s24.5,11,24.5,24.5S593.1,399.4,579.6,399.4z M595.5,370.1c0.3,0,0.6-0.3,0.6-0.6
	s-0.3-0.6-0.6-0.6H591v-5c0-0.3-0.3-0.6-0.6-0.6h-5v-4.5c0-0.3-0.3-0.6-0.6-0.6s-0.6,0.3-0.6,0.6v4.5h-4.1v-4.5
	c0-0.3-0.3-0.6-0.6-0.6s-0.6,0.3-0.6,0.6v4.5h-4.1v-4.5c0-0.3-0.3-0.6-0.6-0.6s-0.6,0.3-0.6,0.6v4.5h-5c-0.3,0-0.6,0.3-0.6,0.6v5
	h-4.5c-0.3,0-0.6,0.3-0.6,0.6s0.3,0.6,0.6,0.6h4.5v4.1h-4.5c-0.3,0-0.6,0.3-0.6,0.6s0.3,0.6,0.6,0.6h4.5v4.1h-4.5
	c-0.3,0-0.6,0.3-0.6,0.6s0.3,0.6,0.6,0.6h4.5v0.9c0,0.3,0.3,0.6,0.6,0.6c0.1,0,0.2-0.1,0.2-0.1h4.1c0.2,0,0.3-0.1,0.4-0.2l1.5-1.5
	h2.4c0.2,0.8,1,1.4,1.9,1.4c1.1,0,2-0.9,2-2s-0.9-2-2-2c-0.9,0-1.7,0.6-1.9,1.4h-2.6c-0.2,0-0.3,0.1-0.4,0.2l-1.5,1.5h-3.5V377h8.4
	c0.2,0,0.3-0.1,0.4-0.2l5.6-5.6h3.1c0.3,0,0.6-0.3,0.6-0.6v-6.1h2.6v20.6h-2.6v-4.8c0-0.2-0.1-0.3-0.2-0.4l-1.4-1.5v-1.6
	c0.8-0.2,1.4-1,1.4-1.9c0-1.1-0.9-2-2-2s-2,0.9-2,2c0,0.9,0.6,1.7,1.4,1.9v1.8c0,0.2,0.1,0.3,0.2,0.4l1.4,1.5v4.6h-1.2
	c-0.1,0-0.1,0-0.2,0h-5.1c-0.1,0-0.1,0-0.2,0h-5.1c-0.1,0-0.1,0-0.2,0h-5.5c-0.3,0-0.6,0.3-0.6,0.6s0.3,0.6,0.6,0.6h5v4.5
	c0,0.3,0.3,0.6,0.6,0.6s0.6-0.3,0.6-0.6v-4.5h4.1v4.5c0,0.3,0.3,0.6,0.6,0.6s0.6-0.3,0.6-0.6v-4.5h4.1v4.5c0,0.3,0.3,0.6,0.6,0.6
	s0.6-0.3,0.6-0.6v-4.5h5c0.3,0,0.6-0.3,0.6-0.6v-5h4.5c0.3,0,0.6-0.3,0.6-0.6s-0.3-0.6-0.6-0.6H591v-4.1h4.5c0.3,0,0.6-0.3,0.6-0.6
	s-0.3-0.6-0.6-0.6H591v-4.1L595.5,370.1L595.5,370.1L595.5,370.1z M579.2,379c0.5,0,0.8,0.4,0.8,0.9s-0.4,0.9-0.8,0.9
	s-0.8-0.4-0.8-0.9S578.8,379,579.2,379z M575.9,364.5v3h-3.1c-0.3,0-0.6,0.3-0.6,0.6v3h-3v-6.6H575.9L575.9,364.5z M586.1,370.1
	h-2.7c-0.2,0-0.3,0.1-0.4,0.2l-5.6,5.6h-8.1v-3.6h3.6c0.3,0,0.6-0.3,0.6-0.6v-3h3.1c0.3,0,0.6-0.3,0.6-0.6v-3.6h4.1v2.9l-3.1,3.1
	c-0.3-0.2-0.6-0.3-1-0.3c-1.1,0-2,0.9-2,2s0.9,2,2,2s2-0.9,2-2c0-0.3-0.1-0.6-0.2-0.9l3.3-3.3c0.1-0.1,0.2-0.3,0.2-0.4v-3.1h3.8
	L586.1,370.1L586.1,370.1z M578,372.3c0,0.5-0.4,0.9-0.8,0.9c-0.5,0-0.8-0.4-0.8-0.9s0.4-0.9,0.8-0.9S578,371.8,578,372.3z
	 M584.3,375c0-0.5,0.4-0.9,0.8-0.9c0.5,0,0.8,0.4,0.8,0.9s-0.4,0.9-0.8,0.9C584.6,375.8,584.3,375.4,584.3,375z M520.6,82.3V83h-5.2
	v3.1h4.9v0.7h-4.9v3.4h5.2V91h-6.1v-8.7H520.6L520.6,82.3z M523.1,82.3V91h-0.8v-8.7H523.1z M530.4,87.8V88h-4.8
	c0,1.2,0.7,2.5,2.1,2.5c1,0,1.7-0.5,2-1.6h0.8c-0.4,1.5-1.3,2.3-2.7,2.3c-1.9,0-2.8-1.4-2.8-3.3c0-1.7,0.9-3.3,2.8-3.3
	C529.4,84.5,530.4,85.9,530.4,87.8z M529.7,87.4c0-1.2-0.8-2.2-2-2.2c-1.1,0-1.9,0.9-2.1,2.2H529.7z M532.8,82.3v5.5l3.5-3.1h1
	l-2.7,2.3l2.9,4h-1l-2.5-3.4l-1.2,1V91H532v-8.7H532.8z M540,82.8v1.9h1.3v0.6H540v4.3c0,0.5,0.2,0.8,0.7,0.8c0.1,0,0.4,0,0.6,0V91
	c-0.3,0-0.4,0-0.7,0c-1,0-1.4-0.3-1.4-1.4v-4.4h-1.1v-0.6h1.1v-1.9L540,82.8L540,82.8z M546.1,85.4L546.1,85.4c-1.4,0-2.3,1-2.3,2.3
	V91H543v-6.3h0.7v1.5l0,0c0.4-1,1.2-1.6,2.2-1.6h0.2L546.1,85.4L546.1,85.4z M548.2,82.3v1.2h-0.8v-1.2H548.2z M548.2,84.7V91h-0.8
	v-6.3H548.2z M554.9,86.5h-0.8c0-0.9-0.7-1.4-1.6-1.4c-0.7,0-1.5,0.3-1.5,1.1c0,0.5,0.5,0.9,1.4,1.1l0.8,0.2
	c0.7,0.1,1.9,0.5,1.9,1.8c0,1.4-1.4,1.9-2.5,1.9c-1.5,0-2.5-0.7-2.6-2.2h0.8c0.1,1,0.8,1.6,1.9,1.6c0.8,0,1.7-0.4,1.7-1.2
	c0-0.6-0.5-1-1.5-1.2L552,88c-1.2-0.3-1.8-0.8-1.8-1.7c0-1.3,1.3-1.8,2.4-1.8C553.9,84.5,554.8,85.2,554.9,86.5z M562,86.6h-0.8
	c-0.2-1-0.8-1.5-1.8-1.5c-1.5,0-2.2,1.4-2.2,2.7c0,1.4,0.8,2.7,2.2,2.7c0.9,0,1.7-0.7,1.8-1.8h0.8c-0.2,1.5-1.2,2.4-2.6,2.4
	c-1.9,0-3-1.5-3-3.3c0-1.9,1.1-3.3,3-3.3C560.9,84.5,561.8,85.3,562,86.6z M564.5,82.3v3.5l0,0c0.3-0.8,1.1-1.3,2-1.3
	c1.6,0,2.3,0.8,2.3,2.4V91H568v-4c0-1.3-0.5-1.9-1.6-1.9c-1.4,0-2,1.2-2,2.2V91h-0.8v-8.7H564.5z M576.2,87.8V88h-4.8
	c0,1.2,0.7,2.5,2.1,2.5c1,0,1.7-0.5,2-1.6h0.8c-0.4,1.5-1.3,2.3-2.7,2.3c-1.9,0-2.8-1.4-2.8-3.3c0-1.7,0.9-3.3,2.8-3.3
	C575.2,84.5,576.2,85.9,576.2,87.8z M575.4,87.4c0-1.2-0.8-2.2-2-2.2c-1.1,0-1.9,0.9-2.1,2.2H575.4z M525.5,96.2l3.4,8.7H528
	l-1.1-2.7h-4l-1,2.7H521l3.5-8.7H525.5z M523.3,101.5h3.4L525,97L523.3,101.5z M535.3,100.8v4.1h-0.8V101c0-1.2-0.5-1.9-1.6-1.9
	c-1.4,0-2,1.1-2,2.2v3.6h-0.8v-6.3h0.8v1.1l0,0c0.3-0.8,1.1-1.3,2-1.3C534.6,98.4,535.3,99.2,535.3,100.8z M538.6,96.7v1.9h1.3v0.6
	h-1.3v4.3c0,0.5,0.2,0.8,0.7,0.8c0.1,0,0.4,0,0.6,0v0.7c-0.3,0-0.4,0-0.7,0c-1,0-1.4-0.3-1.4-1.4v-4.4h-1.1v-0.6h1.1v-1.9H538.6z
	 M544.7,99.3L544.7,99.3c-1.4,0-2.3,1-2.3,2.3v3.3h-0.8v-6.3h0.7v1.5l0,0c0.4-1,1.2-1.6,2.2-1.6h0.2L544.7,99.3L544.7,99.3z
	 M546.8,96.2v1.2H546v-1.2H546.8z M546.8,98.6v6.3H546v-6.3H546.8z M554.2,101.8v0.2h-4.8c0,1.2,0.7,2.5,2.1,2.5c1,0,1.7-0.5,2-1.6
	h0.8c-0.4,1.5-1.3,2.3-2.7,2.3c-1.9,0-2.8-1.4-2.8-3.3c0-1.7,0.9-3.3,2.8-3.3C553.2,98.4,554.2,99.8,554.2,101.8z M553.4,101.3
	c0-1.2-0.8-2.2-2-2.2c-1.1,0-1.9,0.9-2.1,2.2H553.4z M556.6,96.2v3.6l0,0c0.3-0.8,1.2-1.4,2.2-1.4c1.8,0,2.8,1.5,2.8,3.3
	s-0.9,3.3-2.8,3.3c-1,0-1.9-0.5-2.2-1.4l0,0v1.2h-0.7v-8.7C555.8,96.2,556.6,96.2,556.6,96.2z M556.6,101.7c0,1.4,0.6,2.7,2.2,2.7
	c1.5,0,2.1-1.4,2.1-2.7c0-1.4-0.6-2.7-2.1-2.7C557.3,99.1,556.6,100.2,556.6,101.7z M568.7,101.8v0.2h-4.8c0,1.2,0.7,2.5,2.1,2.5
	c1,0,1.7-0.5,2-1.6h0.8c-0.4,1.5-1.3,2.3-2.7,2.3c-1.9,0-2.8-1.4-2.8-3.3c0-1.7,0.9-3.3,2.8-3.3C567.7,98.4,568.7,99.8,568.7,101.8z
	 M567.9,101.3c0-1.2-0.8-2.2-2-2.2c-1.1,0-1.9,0.9-2.1,2.2H567.9z M544.8,165.7c-14,0-25.4-11.4-25.4-25.4s11.4-25.4,25.4-25.4
	s25.4,11.4,25.4,25.4S558.8,165.7,544.8,165.7z M544.8,115.7c-13.5,0-24.5,11-24.5,24.5s11,24.5,24.5,24.5s24.5-11,24.5-24.5
	S558.4,115.7,544.8,115.7z M538.1,147.4c-0.2,0-0.3-0.1-0.4-0.2c-3-3.3-3-8.3,0.1-11.6l5.5-5.8c0.4-0.4,1.1-0.4,1.5,0l1.1,1.1l5-5.1
	c0.3-0.3,0.7-0.5,1.2-0.5l0,0c0.4,0,0.8,0.2,1.2,0.5c0.6,0.6,0.6,1.6,0,2.3l-3.8,3.9c-0.2,0.2-0.6,0.2-0.8,0s-0.2-0.6,0-0.8l3.8-3.9
	c0.2-0.2,0.2-0.5,0-0.7c-0.1-0.1-0.2-0.2-0.4-0.1c-0.1,0-0.3,0.1-0.4,0.2l-5.7,5.9l-1.9-1.8l-5.4,5.8c-2.7,2.8-2.7,7.2-0.1,10
	c0.2,0.2,0.2,0.6,0,0.8C538.4,147.3,538.3,147.4,538.1,147.4z M551.7,137.8c-0.1,0-0.3-0.1-0.4-0.2l-4.1-4c-0.2-0.2-0.2-0.6,0-0.8
	s0.6-0.2,0.8,0l4.1,4c0.2,0.2,0.2,0.6,0,0.8C552,137.7,551.9,137.8,551.7,137.8z M529.9,157.8c1.5-0.9,4-2.8,5.8-4.6l3.8-3.8
	c3.4,1.9,7.8,1.2,10.5-1.6l5.7-5.9c0.2-0.2,0.3-0.5,0.3-0.8s-0.1-0.6-0.3-0.7l-1.4-1.3l5.2-5.3c0.6-0.7,0.6-1.7,0-2.3
	c-0.3-0.3-0.7-0.5-1.2-0.5s-0.9,0.2-1.2,0.5l-3.8,3.9c-0.2,0.2-0.2,0.6,0,0.8s0.6,0.2,0.8,0l3.8-3.9c0.1-0.1,0.2-0.2,0.4-0.2l0,0
	c0.1,0,0.3,0.1,0.4,0.2c0.2,0.2,0.2,0.5,0,0.7l-6,6.1l2.2,2l-5.7,5.9c-2.5,2.5-6.5,3.1-9.5,1.2l-0.4-0.2l-4.4,4.4
	c-1.7,1.7-4.1,3.6-5.6,4.5c-0.3,0.2-0.4,0.5-0.2,0.8c0.1,0.2,0.3,0.3,0.5,0.3C529.7,157.9,529.8,157.8,529.9,157.8z M527.1,155.6
	c2.6-1.5,3.7-2.4,5.3-4l3.9-3.8c0.2-0.2,0.2-0.6,0-0.8s-0.6-0.2-0.8,0l-3.9,3.8c-1.5,1.5-2.6,2.3-5.1,3.8c-0.3,0.2-0.4,0.5-0.2,0.8
	c0.1,0.2,0.3,0.3,0.5,0.3C526.9,155.7,527,155.7,527.1,155.6z M681.9,180.3v0.7h-3v-0.7H681.9z M587.1,175.3l5.1,7.4l0,0v-7.4h0.8
	v8.7h-0.9l-5.1-7.4l0,0v7.4h-0.8v-8.7H587.1z M600.5,180.9v0.2h-4.8c0,1.2,0.7,2.5,2.1,2.5c1,0,1.7-0.5,2-1.6h0.8
	c-0.4,1.5-1.3,2.3-2.7,2.3c-1.9,0-2.8-1.4-2.8-3.3c0-1.7,0.9-3.3,2.8-3.3C599.5,177.6,600.5,179,600.5,180.9z M599.8,180.5
	c0-1.2-0.8-2.2-2-2.2c-1.1,0-1.9,0.9-2.1,2.2H599.8z M602.9,177.8v3.9c0,1.1,0.3,1.9,1.7,1.9c1.3,0,1.9-1.2,1.9-2.5v-3.3h0.8v6.3
	h-0.7V183l0,0c-0.4,0.8-1.2,1.3-2.2,1.3c-1.6,0-2.2-0.9-2.2-2.4v-4.1L602.9,177.8L602.9,177.8z M614.6,180.9v0.2h-4.8
	c0,1.2,0.7,2.5,2.1,2.5c1,0,1.7-0.5,2-1.6h0.8c-0.4,1.5-1.3,2.3-2.7,2.3c-1.9,0-2.8-1.4-2.8-3.3c0-1.7,0.9-3.3,2.8-3.3
	C613.6,177.6,614.6,179,614.6,180.9z M613.9,180.5c0-1.2-0.8-2.2-2-2.2c-1.1,0-1.9,0.9-2.1,2.2H613.9z M627.7,178h-0.8
	c-0.1-1.1-1.2-2.2-2.8-2.2c-2.3,0-3.3,1.9-3.3,3.8c0,1.9,1,3.8,3.3,3.8c1.8,0,3-1.2,3-3.1v-0.1h-3v-0.7h3.7v4.4h-0.6l-0.1-1.6l0,0
	c-0.5,1.1-1.6,1.8-3,1.8c-2.7,0-4.1-2.1-4.1-4.5s1.4-4.5,4.1-4.5C626,175.2,627.4,176.2,627.7,178z M635.2,180.9v0.2h-4.8
	c0,1.2,0.7,2.5,2.1,2.5c1,0,1.7-0.5,2-1.6h0.8c-0.4,1.5-1.3,2.3-2.7,2.3c-1.9,0-2.8-1.4-2.8-3.3c0-1.7,0.9-3.3,2.8-3.3
	C634.2,177.6,635.2,179,635.2,180.9z M634.4,180.5c0-1.2-0.8-2.2-2-2.2c-1.1,0-1.9,0.9-2.1,2.2H634.4z M641.4,179.6h-0.8
	c0-0.9-0.7-1.4-1.6-1.4c-0.7,0-1.5,0.3-1.5,1.1c0,0.5,0.5,0.9,1.4,1.1l0.8,0.2c0.7,0.1,1.9,0.5,1.9,1.8c0,1.4-1.4,1.9-2.5,1.9
	c-1.5,0-2.5-0.7-2.6-2.2h0.8c0.1,1,0.8,1.6,1.9,1.6c0.8,0,1.7-0.4,1.7-1.2c0-0.6-0.5-1-1.5-1.2l-0.8-0.2c-1.2-0.3-1.8-0.8-1.8-1.7
	c0-1.3,1.3-1.8,2.4-1.8C640.4,177.6,641.3,178.3,641.4,179.6z M648.5,179.7h-0.8c-0.2-1-0.8-1.5-1.8-1.5c-1.5,0-2.2,1.4-2.2,2.7
	c0,1.4,0.8,2.7,2.2,2.7c0.9,0,1.7-0.7,1.8-1.8h0.8c-0.2,1.5-1.2,2.4-2.6,2.4c-1.9,0-3-1.5-3-3.3c0-1.9,1.1-3.3,3-3.3
	C647.5,177.6,648.4,178.4,648.5,179.7z M651,175.3v3.5l0,0c0.3-0.8,1.1-1.3,2-1.3c1.6,0,2.3,0.8,2.3,2.4v4.1h-0.8v-4
	c0-1.3-0.5-1.9-1.6-1.9c-1.4,0-2,1.2-2,2.2v3.6h-0.8v-8.7L651,175.3L651,175.3z M662.2,179.6v3.3c0,0.3,0.1,0.5,0.5,0.5
	c0.1,0,0.2,0,0.2,0v0.6c-0.2,0-0.3,0-0.5,0c-0.7,0-0.9-0.3-0.9-1.1l0,0l0,0c-0.6,1-1.3,1.3-2.3,1.3c-1.2,0-2.1-0.6-2.1-1.8
	c0-0.8,0.4-1.2,0.6-1.4c0.4-0.3,0.9-0.5,2.4-0.6c0.9-0.1,1.3-0.1,1.3-0.9c0-1-0.6-1.3-1.6-1.3s-1.6,0.5-1.7,1.5h-0.8
	c0.1-1.4,1-2.1,2.6-2.1C661.6,177.6,662.2,178.4,662.2,179.6z M661.4,180.6c-0.1,0.2-0.4,0.2-0.8,0.3c-0.4,0.1-1.2,0.2-1.5,0.3
	c-0.6,0.2-1.2,0.4-1.2,1.2s0.7,1.2,1.4,1.2c1.2,0,2.2-0.8,2.2-2L661.4,180.6L661.4,180.6L661.4,180.6L661.4,180.6z M659.1,175.4v1.2
	h-0.8v-1.2H659.1z M661.3,175.4v1.2h-0.8v-1.2H661.3z M664.7,184v-5.6h-1.1v-0.6h1.1v-0.6c0-1.2,0.4-1.8,1.5-1.8c0.3,0,0.5,0,0.6,0
	v0.7c-0.2,0-0.4-0.1-0.6-0.1c-0.7,0-0.8,0.4-0.8,1.1v0.7h1.2v0.6h-1.2v5.6L664.7,184L664.7,184z M669.3,175.9v1.9h1.3v0.6h-1.3v4.3
	c0,0.5,0.2,0.8,0.7,0.8c0.1,0,0.4,0,0.6,0v0.7c-0.3,0-0.4,0-0.7,0c-1,0-1.4-0.3-1.4-1.4v-4.4h-1.1v-0.6h1.1v-1.9L669.3,175.9
	L669.3,175.9z M676.9,179.6h-0.8c0-0.9-0.7-1.4-1.6-1.4c-0.7,0-1.5,0.3-1.5,1.1c0,0.5,0.5,0.9,1.4,1.1l0.8,0.2
	c0.7,0.1,1.9,0.5,1.9,1.8c0,1.4-1.4,1.9-2.5,1.9c-1.5,0-2.5-0.7-2.6-2.2h0.8c0.1,1,0.8,1.6,1.9,1.6c0.8,0,1.7-0.4,1.7-1.2
	c0-0.6-0.5-1-1.5-1.2L674,181c-1.2-0.3-1.8-0.8-1.8-1.7c0-1.3,1.3-1.8,2.4-1.8C675.9,177.6,676.8,178.3,676.9,179.6z M589.6,198
	v-5.6h-1.1v-0.6h1.1v-0.6c0-1.2,0.4-1.8,1.5-1.8c0.3,0,0.5,0,0.6,0v0.7c-0.2,0-0.4-0.1-0.6-0.1c-0.7,0-0.8,0.4-0.8,1.1v0.7h1.2v0.6
	h-1.2v5.6L589.6,198L589.6,198z M598.2,194.9v0.2h-4.8c0,1.2,0.7,2.5,2.1,2.5c1,0,1.7-0.5,2-1.6h0.8c-0.4,1.5-1.3,2.3-2.7,2.3
	c-1.9,0-2.8-1.4-2.8-3.3c0-1.7,0.9-3.3,2.8-3.3C597.2,191.5,598.2,192.9,598.2,194.9z M597.5,194.4c0-1.2-0.8-2.2-2-2.2
	c-1.1,0-1.9,0.9-2.1,2.2H597.5z M600.6,189.3v8.7h-0.8v-8.7H600.6z M608.3,189.3v8.7h-0.7v-1.2l0,0c-0.4,0.9-1.4,1.4-2.2,1.4
	c-1.9,0-2.8-1.5-2.8-3.3s0.9-3.3,2.8-3.3c1,0,1.9,0.5,2.2,1.4l0,0v-3.6L608.3,189.3L608.3,189.3z M605.3,197.5
	c1.5,0,2.2-1.2,2.2-2.7c0-1.4-0.6-2.7-2.2-2.7c-1.5,0-2.1,1.4-2.1,2.7C603.2,196.2,603.9,197.5,605.3,197.5z M615.6,194.9v0.2h-4.8
	c0,1.2,0.7,2.5,2.1,2.5c1,0,1.7-0.5,2-1.6h0.8c-0.4,1.5-1.3,2.3-2.7,2.3c-1.9,0-2.8-1.4-2.8-3.3c0-1.7,0.9-3.3,2.8-3.3
	C614.6,191.5,615.6,192.9,615.6,194.9z M614.9,194.4c0-1.2-0.8-2.2-2-2.2c-1.1,0-1.9,0.9-2.1,2.2H614.9z M620.4,192.4L620.4,192.4
	c-1.4,0-2.3,1-2.3,2.3v3.3h-0.8v-6.3h0.7v1.5l0,0c0.4-1,1.2-1.6,2.2-1.6h0.2L620.4,192.4L620.4,192.4z M624.6,189.1h0.6l-3.7,9.1
	h-0.7L624.6,189.1z M632.6,191.8h-0.8c-0.1-1.3-1.1-2-2.4-2c-1.2,0-2.2,0.5-2.2,1.7c0,0.9,0.7,1.2,1.2,1.3l2.1,0.5
	c1.7,0.4,2.4,1.2,2.4,2.3c0,0.9-0.5,2.5-3.3,2.5c-2.1,0-3.5-1-3.5-2.8v-0.2h0.8v0.1c0,1.6,1.1,2.3,2.8,2.3c1,0,2.3-0.5,2.3-1.8
	c0-0.8-0.6-1.3-1.7-1.6l-2-0.5c-1.3-0.3-2-0.9-2-2.1c0-1,0.7-2.5,3-2.5C631.2,189.1,632.6,190.1,632.6,191.8z M635.9,189.8v1.9h1.3
	v0.6h-1.3v4.3c0,0.5,0.2,0.8,0.7,0.8c0.1,0,0.4,0,0.6,0v0.7c-0.3,0-0.4,0-0.7,0c-1,0-1.4-0.3-1.4-1.4v-4.4H634v-0.6h1.1v-1.9
	L635.9,189.8L635.9,189.8z M643.7,193.5v3.3c0,0.3,0.1,0.5,0.5,0.5c0.1,0,0.2,0,0.2,0v0.6c-0.2,0-0.3,0-0.5,0
	c-0.7,0-0.9-0.3-0.9-1.1l0,0l0,0c-0.6,1-1.3,1.3-2.3,1.3c-1.2,0-2.1-0.6-2.1-1.8c0-0.8,0.4-1.2,0.6-1.4c0.4-0.3,0.9-0.5,2.4-0.6
	c0.9-0.1,1.3-0.1,1.3-0.9c0-1-0.6-1.3-1.6-1.3s-1.6,0.5-1.7,1.5h-0.8c0.1-1.4,1-2.1,2.6-2.1S643.7,192.3,643.7,193.5z M642.9,194.5
	c-0.1,0.2-0.4,0.2-0.8,0.3c-0.4,0.1-1.2,0.2-1.5,0.3c-0.6,0.2-1.2,0.4-1.2,1.2s0.7,1.2,1.4,1.2c1.2,0,2.2-0.8,2.2-2L642.9,194.5
	L642.9,194.5L642.9,194.5L642.9,194.5z M648.9,192.4L648.9,192.4c-1.4,0-2.3,1-2.3,2.3v3.3h-0.8v-6.3h0.7v1.5l0,0
	c0.4-1,1.2-1.6,2.2-1.6h0.2L648.9,192.4L648.9,192.4z M651.5,189.8v1.9h1.3v0.6h-1.3v4.3c0,0.5,0.2,0.8,0.7,0.8c0.1,0,0.4,0,0.6,0
	v0.7c-0.3,0-0.4,0-0.7,0c-1,0-1.4-0.3-1.4-1.4v-4.4h-1.1v-0.6h1.1v-1.9L651.5,189.8L651.5,189.8L651.5,189.8z M657.5,194.3v0.7h-3
	v-0.7H657.5z M660.4,191.7v3.9c0,1.1,0.3,1.9,1.7,1.9c1.3,0,1.9-1.2,1.9-2.5v-3.3h0.8v6.3H664v-1.1l0,0c-0.4,0.8-1.2,1.3-2.2,1.3
	c-1.6,0-2.2-0.9-2.2-2.4v-4.1L660.4,191.7L660.4,191.7z M666.8,200.3v-8.6h0.7v1.2l0,0c0.4-0.9,1.2-1.4,2.2-1.4
	c1.9,0,2.8,1.5,2.8,3.3c0,1.9-1,3.3-2.8,3.3c-1,0-1.9-0.5-2.2-1.4l0,0v3.5L666.8,200.3L666.8,200.3z M667.5,194.8
	c0,1.3,0.6,2.7,2.2,2.7c1.5,0,2.1-1.4,2.1-2.7s-0.6-2.7-2.1-2.7C668.3,192.2,667.5,193.1,667.5,194.8z M678.9,193.5h-0.8
	c0-0.9-0.7-1.4-1.6-1.4c-0.7,0-1.5,0.3-1.5,1.1c0,0.5,0.5,0.9,1.4,1.1l0.8,0.2c0.7,0.1,1.9,0.5,1.9,1.8c0,1.4-1.4,1.9-2.5,1.9
	c-1.5,0-2.5-0.7-2.6-2.2h0.8c0.1,1,0.8,1.6,1.9,1.6c0.8,0,1.7-0.4,1.7-1.2c0-0.6-0.5-1-1.5-1.2L676,195c-1.2-0.3-1.8-0.8-1.8-1.7
	c0-1.3,1.3-1.8,2.4-1.8C678,191.5,678.9,192.3,678.9,193.5z M634.3,258.3c-14,0-25.4-11.4-25.4-25.4s11.4-25.4,25.4-25.4
	s25.4,11.4,25.4,25.4S648.3,258.3,634.3,258.3z M634.3,208.4c-13.5,0-24.5,11-24.5,24.5s11,24.5,24.5,24.5s24.5-11,24.5-24.5
	S647.9,208.4,634.3,208.4z M617.5,249.2c-0.3,0-0.6-0.3-0.6-0.6s0.3-0.6,0.6-0.6c0.7,0,1.5-0.8,1.5-1.5c0-1.3,1.3-2.6,2.6-2.6
	c0.7,0,1.5-0.8,1.5-1.5c0-0.3,0.3-0.6,0.6-0.6l0,0c0.3,0,0.6,0.3,0.6,0.6c0,1.3-1.3,2.6-2.6,2.6c-0.7,0-1.5,0.8-1.5,1.5
	C620.1,247.9,618.9,249.2,617.5,249.2L617.5,249.2z M635.2,245.4c-0.2,0-0.4,0-0.5-0.1c-0.6-0.2-0.9-0.7-0.9-1.3l-0.2-3.6
	c0-0.3,0.1-0.5,0.4-0.6c2.2-1.5,4.5-3.5,6.6-5.6c3.3-3.3,6-6.8,7.6-9.9c1.5-2.8,1.8-4.9,1-5.8c-0.8-0.8-2.8-0.5-5.3,0.8
	c-0.1,0.1-0.1,0.1-0.1,0.2c0,0,0,0.2,0.1,0.3l3.5,3.5c0.2,0.2,0.2,0.6,0,0.8s-0.6,0.2-0.8,0l-3.5-3.5c-0.3-0.3-0.5-0.8-0.4-1.2
	s0.3-0.8,0.8-1c3.2-1.6,5.4-1.8,6.6-0.6c1.2,1.2,1,3.7-0.8,7.1c-1.7,3.1-4.4,6.7-7.8,10.1c-2.1,2.1-4.4,4.1-6.6,5.6l0.2,3.2
	c0,0.2,0.2,0.3,0.2,0.3c0.1,0,0.2,0.1,0.4-0.1l3.9-3.9c0.8-0.8,1.2-1.9,1.2-3c0-0.3,0.2-0.6,0.5-0.6s0.6,0.2,0.6,0.5
	c0.1,1.4-0.5,2.8-1.5,3.9l-3.9,3.9C636,245.2,635.6,245.4,635.2,245.4z M625.9,241.9c-0.1,0-0.3-0.1-0.4-0.2c-0.2-0.2-0.2-0.6,0-0.8
	l8.6-8.5c0.2-0.2,0.6-0.2,0.8,0s0.2,0.6,0,0.8l-3.3,3.3l1.9,1.9c0.2,0.2,0.2,0.6,0,0.8s-0.6,0.2-0.8,0l-1.9-1.9l-4.4,4.4
	C626.2,241.9,626.1,241.9,625.9,241.9z M627.5,234.1L627.5,234.1l-3.9-0.2c-0.6,0-1.1-0.4-1.3-0.9c-0.2-0.6-0.1-1.2,0.3-1.6l3.9-3.9
	c1-1,2.4-1.6,3.9-1.5c0.3,0,0.6,0.3,0.5,0.6c0,0.3-0.3,0.5-0.6,0.5c-1.1-0.1-2.2,0.4-3,1.2l-3.9,3.9c-0.1,0.1-0.1,0.3-0.1,0.4
	c0,0.1,0.1,0.2,0.3,0.2l3.5,0.2c1.5-2.1,3.4-4.4,5.5-6.4c2.5-2.5,5.2-4.8,7.8-6.4c0.3-0.2,0.6-0.1,0.8,0.2s0.1,0.6-0.2,0.8
	c-2.5,1.6-5.1,3.8-7.6,6.3c-2.1,2.1-4,4.3-5.5,6.4C628,233.9,627.8,234.1,627.5,234.1z M639,232.3c-1,0-1.9-0.4-2.5-1
	s-1.1-1.6-1.1-2.5c0-1,0.4-1.9,1.1-2.5c1.4-1.4,3.7-1.4,5.1,0c0.7,0.7,1.1,1.6,1.1,2.5c0,1-0.4,1.9-1.1,2.5l0,0l0,0
	C640.9,231.9,640,232.3,639,232.3z M639,226.3c-0.7,0-1.3,0.3-1.7,0.7c-0.5,0.5-0.7,1.1-0.7,1.7c0,0.7,0.3,1.3,0.7,1.7
	c0.9,0.9,2.5,0.9,3.5,0l0,0c0.5-0.5,0.7-1.1,0.7-1.7c0-0.7-0.3-1.3-0.7-1.7C640.3,226.5,639.7,226.3,639,226.3z M504.1,226.2
	c1.7,0,2.8,0.6,2.8,2.1c0,0.9-0.6,1.7-1.5,2l0,0c1.1,0.1,1.8,1,1.8,2.1c0,1.6-1.1,2.5-3.1,2.5h-3.7v-8.7L504.1,226.2L504.1,226.2z
	 M504.1,230c1.2,0,2-0.6,2-1.5c0-1.1-0.7-1.6-2-1.6h-2.8v3.1H504.1L504.1,230L504.1,230z M504.1,234.2c1.5,0,2.3-0.5,2.3-1.8
	c0-1.1-0.8-1.7-2.3-1.7h-2.9v3.5H504.1z M512.1,229.3L512.1,229.3c-1.4,0-2.3,1-2.3,2.3v3.3H509v-6.3h0.7v1.5l0,0
	c0.4-1,1.2-1.6,2.2-1.6h0.2L512.1,229.3L512.1,229.3z M518.6,231.7v0.2h-4.8c0,1.2,0.7,2.5,2.1,2.5c1,0,1.7-0.5,2-1.6h0.8
	c-0.4,1.5-1.3,2.3-2.7,2.3c-1.9,0-2.8-1.4-2.8-3.3c0-1.7,0.9-3.3,2.8-3.3C517.6,228.4,518.6,229.8,518.6,231.7z M517.8,231.3
	c0-1.2-0.8-2.2-2-2.2c-1.1,0-1.9,0.9-2.1,2.2H517.8z M525.3,230.8v4.1h-0.8V231c0-1.2-0.5-1.9-1.6-1.9c-1.4,0-2,1.1-2,2.2v3.6h-0.8
	v-6.3h0.8v1.1l0,0c0.3-0.8,1.1-1.3,2-1.3C524.6,228.4,525.3,229.2,525.3,230.8z M532.5,230.8v4.1h-0.8V231c0-1.2-0.5-1.9-1.6-1.9
	c-1.4,0-2,1.1-2,2.2v3.6h-0.8v-6.3h0.8v1.1l0,0c0.3-0.8,1.1-1.3,2-1.3C531.8,228.4,532.5,229.2,532.5,230.8z M539.1,230.4h-0.8
	c0-0.9-0.7-1.4-1.6-1.4c-0.7,0-1.5,0.3-1.5,1.1c0,0.5,0.5,0.9,1.4,1.1l0.8,0.2c0.7,0.1,1.9,0.5,1.9,1.8c0,1.4-1.4,1.9-2.5,1.9
	c-1.5,0-2.5-0.7-2.6-2.2h0.8c0.1,1,0.8,1.6,1.9,1.6c0.8,0,1.7-0.4,1.7-1.2c0-0.6-0.5-1-1.5-1.2l-0.8-0.2c-1.2-0.3-1.8-0.8-1.8-1.7
	c0-1.3,1.3-1.8,2.4-1.8C538.1,228.4,539,229.1,539.1,230.4z M542.2,226.7v1.9h1.3v0.6h-1.3v4.3c0,0.5,0.2,0.8,0.7,0.8
	c0.1,0,0.4,0,0.6,0v0.7c-0.3,0-0.4,0-0.7,0c-1,0-1.4-0.3-1.4-1.4v-4.4h-1.1v-0.6h1.1v-1.9L542.2,226.7L542.2,226.7z M550.8,231.7
	c0,1.8-1.1,3.3-3,3.3s-3-1.5-3-3.3s1.1-3.3,3-3.3C549.8,228.4,550.8,229.9,550.8,231.7z M547.9,234.4c1.5,0,2.2-1.3,2.2-2.7
	c0-1.3-0.7-2.7-2.2-2.7c-1.4,0-2.2,1.3-2.2,2.7C545.7,233.1,546.4,234.4,547.9,234.4z M553,234.9v-5.6h-1.1v-0.6h1.1V228
	c0-1.2,0.4-1.8,1.5-1.8c0.3,0,0.5,0,0.6,0v0.7c-0.2,0-0.4-0.1-0.6-0.1c-0.7,0-0.8,0.4-0.8,1.1v0.7h1.2v0.6h-1.2v5.6L553,234.9
	L553,234.9z M556.6,234.9v-5.6h-1.1v-0.6h1.1V228c0-1.2,0.4-1.8,1.5-1.8c0.3,0,0.5,0,0.6,0v0.7c-0.2,0-0.4-0.1-0.6-0.1
	c-0.7,0-0.8,0.4-0.8,1.1v0.7h1.2v0.6h-1.2v5.6L556.6,234.9L556.6,234.9z M564.5,228.6v0.5l-4.2,5.1h4.3v0.6h-5.3v-0.6l4.1-5h-3.8
	v-0.6H564.5L564.5,228.6z M571.5,231.7v0.2h-4.8c0,1.2,0.7,2.5,2.1,2.5c1,0,1.7-0.5,2-1.6h0.8c-0.4,1.5-1.3,2.3-2.7,2.3
	c-1.9,0-2.8-1.4-2.8-3.3c0-1.7,0.9-3.3,2.8-3.3C570.5,228.4,571.5,229.8,571.5,231.7z M570.7,231.3c0-1.2-0.8-2.2-2-2.2
	c-1.1,0-1.9,0.9-2.1,2.2H570.7z M573.9,226.2v8.7h-0.8v-8.7H573.9z M576.7,226.2v8.7H576v-8.7H576.7z M584.1,231.7v0.2h-4.8
	c0,1.2,0.7,2.5,2.1,2.5c1,0,1.7-0.5,2-1.6h0.8c-0.4,1.5-1.3,2.3-2.7,2.3c-1.9,0-2.8-1.4-2.8-3.3c0-1.7,0.9-3.3,2.8-3.3
	C583.1,228.4,584.1,229.8,584.1,231.7z M583.3,231.3c0-1.2-0.8-2.2-2-2.2c-1.1,0-1.9,0.9-2.1,2.2H583.3z M538.4,294
	c-14.3,0-25.9-11.6-25.9-25.9c0-14.3,11.6-25.9,25.9-25.9c14.3,0,25.9,11.6,25.9,25.9C564.3,282.4,552.7,294,538.4,294z
	 M538.4,243.1c-13.8,0-25,11.2-25,25c0,13.8,11.2,25,25,25s25-11.2,25-25C563.4,254.3,552.2,243.1,538.4,243.1z M543.4,262.8h-18.5
	V254c0-1.3,1.1-2.4,2.4-2.4H541c1.3,0,2.4,1.1,2.4,2.4V262.8L543.4,262.8z M526,261.7h16.2V254c0-0.7-0.6-1.3-1.3-1.3h-13.6
	c-0.7,0-1.3,0.6-1.3,1.3L526,261.7L526,261.7z M545,280.7c0-0.8-0.6-1.4-1.4-1.4h-0.2v-14.7c0-0.3-0.3-0.6-0.6-0.6s-0.6,0.3-0.6,0.6
	v15.9h1.3c0.2,0,0.3,0.1,0.3,0.3v1.8h-19.4v-2c0-0.2,0.1-0.3,0.3-0.3h1.2v-15.7c0-0.3-0.3-0.6-0.6-0.6s-0.6,0.3-0.6,0.6V279h-0.1
	c-0.8,0-1.4,0.6-1.4,1.4v3.1H545V280.7L545,280.7z M551.4,282.2h-2.7c-0.8,0-1.4-0.6-1.4-1.4v-12.3c0-0.2-0.1-0.3-0.3-0.3h-3v-1.1
	h2.9c0.8,0,1.4,0.6,1.4,1.4v12.3c0,0.2,0.1,0.3,0.3,0.3h2.7c0.2,0,0.3-0.1,0.3-0.3v-17.9h1.1v17.9
	C552.8,281.6,552.2,282.2,551.4,282.2z M552.2,262.2c-1.2,0-2.2-1-2.2-2.2v-3.7h4.5v3.7C554.4,261.2,553.4,262.2,552.2,262.2z
	 M551.1,257.4v2.6c0,0.6,0.5,1.1,1.1,1.1s1.1-0.5,1.1-1.1v-2.6H551.1z M539.1,258.9h-9.9v-1.1h9.9V258.9z M539.1,256.5h-9.9v-1.1
	h9.9V256.5z M530.1,267.3v2.8h3.2v-2.8h1.2v6.9h-1.2v-3.1h-3.2v3.1h-1.2v-6.9H530.1z M539.5,273.1c0,0.4-0.1,0.7-0.3,1
	s-0.5,0.6-1.1,1c-0.8,0.5-1.1,0.8-1.3,1.1h2.7v1h-4.2c0-0.8,0.3-1.3,0.8-1.8c0.3-0.3,0.6-0.5,1.4-1.1c0.4-0.3,0.8-0.6,0.8-1.1
	s-0.3-0.9-0.9-0.9c-0.6,0-0.9,0.5-0.9,1.3h-1.1v-0.1c0-1.3,0.8-2.2,2.1-2.2C538.6,271.3,539.5,272,539.5,273.1z"/>
</svg>
