<?xml version="1.0" encoding="utf-8"?>
<!-- Generator: Adobe Illustrator 23.1.1, SVG Export Plug-In . SVG Version: 6.00 Build 0)  -->
<svg version="1.1" id="Dual_x5F_Strategy" xmlns="http://www.w3.org/2000/svg" xmlns:xlink="http://www.w3.org/1999/xlink" x="0px"
	 y="0px" viewBox="0 0 282 183" style="enable-background:new 0 0 282 183;" xml:space="preserve">
<style type="text/css">
	.st0{opacity:0.5;fill:#C6D6E3;enable-background:new    ;}
	.st1{fill:#43B02A;}
	.st2{fill:#1E2A63;}
</style>
<path id="_x3C_Overlap_x3E_" class="st0" d="M140.7,20.4c-22.4,16.2-35.7,42.3-35.7,70s13.3,53.8,35.7,70
	c22.4-16.2,35.7-42.3,35.7-70S163.1,36.6,140.7,20.4z"/>
<path id="_x3C_Future_x3E_" class="st1" d="M191.4-0.2c-18.7,0-36.1,5.7-50.6,15.4l0.1,0.1c0,0,0.1,0,0.1-0.1
	c1.8,1.2,3.6,2.5,5.3,3.8c13-8.3,28.5-13,45.1-13c46.6,0,84.3,37.8,84.3,84.3s-37.8,84.3-84.3,84.3c-16.3,0-31.6-4.6-44.5-12.7
	c-1.7,1.4-3.5,2.7-5.4,4c14.3,9.5,31.4,15,49.9,15c50,0,90.6-40.6,90.6-90.6S241.4-0.2,191.4-0.2z M152.334,78.446v-8.531h2.789
	c0.926,0,1.622,0.191,2.089,0.574s0.7,0.949,0.7,1.699c0,0.398-0.113,0.751-0.34,1.058s-0.535,0.544-0.926,0.712
	c0.461,0.129,0.825,0.374,1.093,0.735s0.401,0.792,0.401,1.292c0,0.766-0.248,1.367-0.744,1.805s-1.197,0.656-2.104,0.656H152.334z
	 M153.459,73.554h1.699c0.492,0,0.886-0.123,1.181-0.37c0.295-0.246,0.442-0.581,0.442-1.004c0-0.47-0.137-0.812-0.41-1.024
	c-0.273-0.214-0.689-0.32-1.248-0.32h-1.664V73.554z M153.459,74.456v3.07h1.857c0.523,0,0.937-0.136,1.239-0.407
	s0.454-0.646,0.454-1.122c0-1.027-0.559-1.541-1.676-1.541H153.459z M165.811,69.915v5.801c-0.004,0.805-0.257,1.463-0.759,1.975
	s-1.183,0.799-2.042,0.861l-0.299,0.012c-0.934,0-1.678-0.252-2.232-0.756s-0.836-1.197-0.844-2.08v-5.812h1.113v5.777
	c0,0.617,0.17,1.097,0.51,1.438s0.824,0.513,1.453,0.513c0.637,0,1.124-0.17,1.462-0.51s0.507-0.818,0.507-1.436v-5.783H165.811z
	 M168.793,78.446h-1.125v-8.531h1.125V78.446z M171.98,77.527h4.043v0.92h-5.174v-8.531h1.131V77.527z M177.307,78.446v-8.531h2.408
	c0.742,0,1.398,0.164,1.969,0.492s1.011,0.795,1.321,1.4s0.468,1.301,0.472,2.086v0.545c0,0.805-0.155,1.51-0.466,2.115
	s-0.754,1.07-1.33,1.395s-1.247,0.49-2.013,0.498H177.307z M178.432,70.835v6.691h1.184c0.867,0,1.542-0.27,2.024-0.81
	c0.482-0.539,0.724-1.308,0.724-2.305v-0.498c0-0.97-0.228-1.724-0.683-2.261c-0.455-0.538-1.101-0.811-1.937-0.818H178.432z
	 M193.807,70.835h-2.742v7.611h-1.119v-7.611h-2.736v-0.92h6.598V70.835z M201.629,78.446h-1.131v-3.943h-4.301v3.943h-1.125v-8.531
	h1.125v3.668h4.301v-3.668h1.131V78.446z M208.449,74.503h-3.697v3.023h4.295v0.92h-5.42v-8.531h5.361v0.92h-4.236v2.748h3.697
	V74.503z M218.123,74.679h-3.58v3.768h-1.125v-8.531h5.285v0.92h-4.16v2.924h3.58V74.679z M226.057,69.915v5.801
	c-0.004,0.805-0.257,1.463-0.759,1.975s-1.183,0.799-2.042,0.861l-0.299,0.012c-0.934,0-1.678-0.252-2.232-0.756
	s-0.836-1.197-0.844-2.08v-5.812h1.113v5.777c0,0.617,0.17,1.097,0.51,1.438s0.824,0.513,1.453,0.513c0.637,0,1.124-0.17,1.462-0.51
	s0.507-0.818,0.507-1.436v-5.783H226.057z M233.727,70.835h-2.742v7.611h-1.119v-7.611h-2.736v-0.92h6.598V70.835z M240.998,69.915
	v5.801c-0.004,0.805-0.257,1.463-0.759,1.975s-1.183,0.799-2.042,0.861l-0.299,0.012c-0.934,0-1.678-0.252-2.232-0.756
	s-0.836-1.197-0.844-2.08v-5.812h1.113v5.777c0,0.617,0.17,1.097,0.51,1.438s0.824,0.513,1.453,0.513c0.637,0,1.124-0.17,1.462-0.51
	s0.507-0.818,0.507-1.436v-5.783H240.998z M245.902,74.995h-2.004v3.451h-1.131v-8.531h2.824c0.961,0,1.7,0.219,2.218,0.656
	s0.776,1.074,0.776,1.91c0,0.531-0.144,0.994-0.431,1.389s-0.687,0.689-1.198,0.885l2.004,3.621v0.07h-1.207L245.902,74.995z
	 M243.898,74.075h1.729c0.559,0,1.003-0.145,1.333-0.435c0.33-0.289,0.495-0.677,0.495-1.162c0-0.528-0.157-0.934-0.472-1.215
	c-0.314-0.282-0.769-0.425-1.362-0.429h-1.723V74.075z M254.984,74.503h-3.697v3.023h4.295v0.92h-5.42v-8.531h5.361v0.92h-4.236
	v2.748h3.697V74.503z M162.562,93.446h-1.125v-8.531h1.125V93.446z M171.175,93.446h-1.131l-4.295-6.574v6.574h-1.131v-8.531h1.131
	l4.307,6.604v-6.604h1.119V93.446z M180.854,91.214h-3.574l-0.803,2.232h-1.16l3.258-8.531h0.984l3.264,8.531h-1.154L180.854,91.214
	z M177.62,90.294h2.9l-1.453-3.99L177.62,90.294z M193.218,90.739c-0.105,0.902-0.438,1.599-0.999,2.089s-1.306,0.735-2.235,0.735
	c-1.008,0-1.815-0.361-2.423-1.084s-0.911-1.689-0.911-2.9v-0.82c0-0.793,0.142-1.49,0.425-2.092s0.685-1.063,1.204-1.386
	s1.121-0.483,1.805-0.483c0.906,0,1.633,0.253,2.18,0.759s0.865,1.206,0.955,2.101h-1.131c-0.098-0.682-0.31-1.176-0.636-1.481
	s-0.782-0.458-1.368-0.458c-0.719,0-1.282,0.266-1.69,0.798c-0.408,0.531-0.612,1.288-0.612,2.27v0.826
	c0,0.927,0.193,1.664,0.58,2.211c0.387,0.548,0.928,0.821,1.623,0.821c0.625,0,1.104-0.142,1.438-0.425s0.556-0.776,0.665-1.479
	H193.218z M201.31,93.446h-1.131v-3.943h-4.301v3.943h-1.125v-8.531h1.125v3.668h4.301v-3.668h1.131V93.446z M208.124,91.214h-3.574
	l-0.803,2.232h-1.16l3.258-8.531h0.984l3.264,8.531h-1.154L208.124,91.214z M204.89,90.294h2.9l-1.453-3.99L204.89,90.294z
	 M217.798,93.446h-1.131l-4.295-6.574v6.574h-1.131v-8.531h1.131l4.307,6.604v-6.604h1.119V93.446z M226.095,92.327
	c-0.289,0.414-0.692,0.724-1.21,0.929s-1.12,0.308-1.808,0.308c-0.695,0-1.312-0.163-1.852-0.489s-0.956-0.79-1.251-1.392
	s-0.446-1.299-0.454-2.092v-0.744c0-1.285,0.3-2.281,0.899-2.988s1.442-1.061,2.528-1.061c0.891,0,1.607,0.228,2.15,0.683
	s0.875,1.101,0.996,1.937h-1.125c-0.211-1.133-0.883-1.699-2.016-1.699c-0.754,0-1.325,0.265-1.714,0.795
	c-0.389,0.529-0.585,1.297-0.589,2.302v0.697c0,0.958,0.219,1.72,0.656,2.284c0.438,0.565,1.029,0.848,1.775,0.848
	c0.422,0,0.791-0.047,1.107-0.141c0.316-0.093,0.578-0.251,0.785-0.473v-1.912h-1.975v-0.92h3.094V92.327z M229.177,93.446h-1.125
	v-8.531h1.125V93.446z M237.79,93.446h-1.131l-4.295-6.574v6.574h-1.131v-8.531h1.131l4.307,6.604v-6.604h1.119V93.446z
	 M246.087,92.327c-0.289,0.414-0.692,0.724-1.21,0.929s-1.12,0.308-1.808,0.308c-0.695,0-1.312-0.163-1.852-0.489
	s-0.956-0.79-1.251-1.392s-0.446-1.299-0.454-2.092v-0.744c0-1.285,0.3-2.281,0.899-2.988s1.442-1.061,2.528-1.061
	c0.891,0,1.607,0.228,2.15,0.683s0.875,1.101,0.996,1.937h-1.125c-0.211-1.133-0.883-1.699-2.016-1.699
	c-0.754,0-1.325,0.265-1.714,0.795c-0.389,0.529-0.585,1.297-0.589,2.302v0.697c0,0.958,0.219,1.72,0.656,2.284
	c0.438,0.565,1.029,0.848,1.775,0.848c0.422,0,0.791-0.047,1.107-0.141c0.316-0.093,0.578-0.251,0.785-0.473v-1.912h-1.975v-0.92
	h3.094V92.327z M157.584,99.915l2.789,6.961l2.789-6.961h1.459v8.531h-1.125v-3.322l0.105-3.586l-2.801,6.908h-0.861l-2.795-6.891
	l0.111,3.568v3.322h-1.125v-8.531H157.584z M173.17,104.456c0,0.836-0.141,1.565-0.422,2.188s-0.68,1.099-1.195,1.427
	s-1.117,0.492-1.805,0.492c-0.672,0-1.268-0.165-1.787-0.495s-0.923-0.801-1.21-1.412s-0.435-1.319-0.442-2.124v-0.615
	c0-0.82,0.143-1.545,0.428-2.174s0.688-1.11,1.21-1.444s1.118-0.501,1.79-0.501c0.684,0,1.286,0.165,1.808,0.495
	s0.923,0.809,1.204,1.436s0.422,1.356,0.422,2.188V104.456z M172.051,103.905c0-1.012-0.203-1.788-0.609-2.329
	s-0.975-0.812-1.705-0.812c-0.711,0-1.271,0.271-1.679,0.812s-0.618,1.292-0.63,2.253v0.627c0,0.98,0.206,1.751,0.618,2.312
	s0.979,0.841,1.702,0.841c0.727,0,1.289-0.265,1.688-0.794s0.604-1.288,0.615-2.276V103.905z M174.857,108.446v-8.531h2.789
	c0.926,0,1.622,0.191,2.089,0.574s0.7,0.949,0.7,1.699c0,0.398-0.113,0.751-0.34,1.058s-0.535,0.544-0.926,0.712
	c0.461,0.129,0.825,0.374,1.093,0.735s0.401,0.792,0.401,1.292c0,0.766-0.248,1.367-0.744,1.805s-1.197,0.656-2.104,0.656H174.857z
	 M175.982,103.554h1.699c0.492,0,0.886-0.123,1.181-0.37c0.295-0.246,0.442-0.581,0.442-1.004c0-0.47-0.137-0.812-0.41-1.024
	c-0.273-0.214-0.689-0.32-1.248-0.32h-1.664V103.554z M175.982,104.456v3.07h1.857c0.523,0,0.937-0.136,1.239-0.407
	s0.454-0.646,0.454-1.122c0-1.027-0.559-1.541-1.676-1.541H175.982z M183.535,108.446h-1.125v-8.531h1.125V108.446z
	 M186.723,107.527h4.043v0.92h-5.174v-8.531h1.131V107.527z M193.256,108.446h-1.125v-8.531h1.125V108.446z M201.037,100.835h-2.742
	v7.611h-1.119v-7.611h-2.736v-0.92h6.598V100.835z M204.998,104.198l2.227-4.283h1.277l-2.941,5.35v3.182h-1.125v-3.182l-2.941-5.35
	h1.289L204.998,104.198z M214.414,105.757l0.164,1.125l0.24-1.014l1.688-5.953h0.949l1.646,5.953l0.234,1.031l0.182-1.148
	l1.324-5.836h1.131l-2.068,8.531h-1.025l-1.758-6.217l-0.135-0.65l-0.135,0.65l-1.822,6.217h-1.025l-2.062-8.531h1.125
	L214.414,105.757z M229.783,104.456c0,0.836-0.141,1.565-0.422,2.188s-0.68,1.099-1.195,1.427s-1.117,0.492-1.805,0.492
	c-0.672,0-1.268-0.165-1.787-0.495s-0.923-0.801-1.21-1.412s-0.435-1.319-0.442-2.124v-0.615c0-0.82,0.143-1.545,0.428-2.174
	s0.688-1.11,1.21-1.444s1.118-0.501,1.79-0.501c0.684,0,1.286,0.165,1.808,0.495s0.923,0.809,1.204,1.436s0.422,1.356,0.422,2.188
	V104.456z M228.664,103.905c0-1.012-0.203-1.788-0.609-2.329s-0.975-0.812-1.705-0.812c-0.711,0-1.271,0.271-1.679,0.812
	s-0.618,1.292-0.63,2.253v0.627c0,0.98,0.206,1.751,0.618,2.312s0.979,0.841,1.702,0.841c0.727,0,1.289-0.265,1.688-0.794
	s0.604-1.288,0.615-2.276V103.905z M234.6,104.995h-2.004v3.451h-1.131v-8.531h2.824c0.961,0,1.7,0.219,2.218,0.656
	s0.776,1.074,0.776,1.91c0,0.531-0.144,0.994-0.431,1.389s-0.687,0.689-1.198,0.885l2.004,3.621v0.07h-1.207L234.6,104.995z
	 M232.596,104.075h1.729c0.559,0,1.003-0.145,1.333-0.435c0.33-0.289,0.495-0.677,0.495-1.162c0-0.528-0.157-0.934-0.472-1.215
	c-0.314-0.282-0.769-0.425-1.362-0.429h-1.723V104.075z M239.99,107.527h4.043v0.92h-5.174v-8.531h1.131V107.527z M245.316,108.446
	v-8.531h2.408c0.742,0,1.398,0.164,1.969,0.492s1.011,0.795,1.321,1.4s0.468,1.301,0.472,2.086v0.545
	c0,0.805-0.155,1.51-0.466,2.115s-0.754,1.07-1.33,1.395s-1.247,0.49-2.013,0.498H245.316z M246.441,100.835v6.691h1.184
	c0.867,0,1.542-0.27,2.024-0.81c0.482-0.539,0.724-1.308,0.724-2.305v-0.498c0-0.97-0.228-1.724-0.683-2.261
	c-0.455-0.538-1.101-0.811-1.937-0.818H246.441z"/>
<path id="_x3C_Market_x5F_Position_x3E_" class="st2" d="M135.2,162.1c1.7,1.4,3.5,2.7,5.4,4c-14.3,9.5-31.4,15-49.9,15
	c-50,0-90.6-40.6-90.6-90.6S40.7-0.2,90.7-0.2c18.7,0,36.2,5.7,50.6,15.5H141c-1.8,1.2-3.6,2.5-5.3,3.8c-13-8.3-28.5-13-45.1-13
	C44.2,6.1,6.4,43.9,6.4,90.4s37.8,84.3,84.3,84.3C107.1,174.8,122.3,170.1,135.2,162.1z M28.792,74.644
	c-0.965-0.277-1.667-0.618-2.106-1.022s-0.659-0.903-0.659-1.497c0-0.672,0.269-1.228,0.806-1.667s1.235-0.659,2.095-0.659
	c0.586,0,1.108,0.113,1.567,0.34s0.814,0.539,1.066,0.938s0.378,0.834,0.378,1.307h-1.131c0-0.518-0.164-0.924-0.492-1.22
	s-0.791-0.444-1.389-0.444c-0.555,0-0.987,0.122-1.298,0.367c-0.311,0.244-0.466,0.584-0.466,1.019c0,0.348,0.147,0.643,0.442,0.883
	c0.295,0.241,0.797,0.461,1.506,0.66c0.709,0.2,1.264,0.42,1.664,0.66s0.697,0.521,0.891,0.841s0.29,0.697,0.29,1.131
	c0,0.691-0.27,1.245-0.809,1.661s-1.26,0.624-2.162,0.624c-0.586,0-1.133-0.112-1.641-0.337s-0.899-0.532-1.175-0.923
	s-0.413-0.834-0.413-1.33h1.131c0,0.516,0.19,0.923,0.571,1.222s0.89,0.448,1.526,0.448c0.594,0,1.049-0.121,1.365-0.363
	s0.475-0.572,0.475-0.99s-0.146-0.741-0.439-0.97S29.562,74.866,28.792,74.644z M39.292,70.835H36.55v7.611h-1.119v-7.611h-2.736
	v-0.92h6.598V70.835z M43.687,74.995h-2.004v3.451h-1.131v-8.531h2.824c0.961,0,1.7,0.219,2.218,0.656s0.776,1.074,0.776,1.91
	c0,0.531-0.144,0.994-0.431,1.389s-0.687,0.689-1.198,0.885l2.004,3.621v0.07h-1.207L43.687,74.995z M41.683,74.075h1.729
	c0.559,0,1.003-0.145,1.333-0.435c0.33-0.289,0.495-0.677,0.495-1.162c0-0.528-0.157-0.934-0.472-1.215
	c-0.314-0.282-0.769-0.425-1.362-0.429h-1.723V74.075z M52.769,74.503h-3.697v3.023h4.295v0.92h-5.42v-8.531h5.361v0.92h-4.236
	v2.748h3.697V74.503z M61.324,78.446h-1.131l-4.295-6.574v6.574h-1.131v-8.531h1.131l4.307,6.604v-6.604h1.119V78.446z
	 M69.621,77.327c-0.289,0.414-0.692,0.724-1.21,0.929s-1.12,0.308-1.808,0.308c-0.695,0-1.312-0.163-1.852-0.489
	s-0.956-0.79-1.251-1.392s-0.446-1.299-0.454-2.092v-0.744c0-1.285,0.3-2.281,0.899-2.988s1.442-1.061,2.528-1.061
	c0.891,0,1.607,0.228,2.15,0.683s0.875,1.101,0.996,1.937h-1.125c-0.211-1.133-0.883-1.699-2.016-1.699
	c-0.754,0-1.325,0.265-1.714,0.795c-0.389,0.529-0.585,1.297-0.589,2.302v0.697c0,0.958,0.219,1.72,0.656,2.284
	c0.438,0.565,1.029,0.848,1.775,0.848c0.422,0,0.791-0.047,1.107-0.141c0.316-0.093,0.578-0.251,0.785-0.473v-1.912h-1.975v-0.92
	h3.094V77.327z M77.39,70.835h-2.742v7.611h-1.119v-7.611h-2.736v-0.92h6.598V70.835z M85.212,78.446h-1.131v-3.943h-4.301v3.943
	h-1.125v-8.531h1.125v3.668h4.301v-3.668h1.131V78.446z M92.033,74.503h-3.697v3.023h4.295v0.92h-5.42v-8.531h5.361v0.92h-4.236
	v2.748h3.697V74.503z M100.587,78.446h-1.131l-4.295-6.574v6.574h-1.131v-8.531h1.131l4.307,6.604v-6.604h1.119V78.446z
	 M112.119,74.456c0,0.836-0.141,1.565-0.422,2.188s-0.68,1.099-1.195,1.427s-1.117,0.492-1.805,0.492
	c-0.672,0-1.268-0.165-1.787-0.495s-0.923-0.801-1.21-1.412s-0.435-1.319-0.442-2.124v-0.615c0-0.82,0.143-1.545,0.428-2.174
	s0.688-1.11,1.21-1.444s1.118-0.501,1.79-0.501c0.684,0,1.286,0.165,1.808,0.495s0.923,0.809,1.204,1.436s0.422,1.356,0.422,2.188
	V74.456z M111,73.905c0-1.012-0.203-1.788-0.609-2.329s-0.975-0.812-1.705-0.812c-0.711,0-1.271,0.271-1.679,0.812
	s-0.618,1.292-0.63,2.253v0.627c0,0.98,0.206,1.751,0.618,2.312s0.979,0.841,1.702,0.841c0.727,0,1.289-0.265,1.688-0.794
	s0.604-1.288,0.615-2.276V73.905z M119.812,69.915v5.801c-0.004,0.805-0.257,1.463-0.759,1.975s-1.183,0.799-2.042,0.861
	l-0.299,0.012c-0.934,0-1.678-0.252-2.232-0.756s-0.836-1.197-0.844-2.08v-5.812h1.113v5.777c0,0.617,0.17,1.097,0.51,1.438
	s0.824,0.513,1.453,0.513c0.637,0,1.124-0.17,1.462-0.51s0.507-0.818,0.507-1.436v-5.783H119.812z M124.716,74.995h-2.004v3.451
	h-1.131v-8.531h2.824c0.961,0,1.7,0.219,2.218,0.656s0.776,1.074,0.776,1.91c0,0.531-0.144,0.994-0.431,1.389
	s-0.687,0.689-1.198,0.885l2.004,3.621v0.07h-1.207L124.716,74.995z M122.712,74.075h1.729c0.559,0,1.003-0.145,1.333-0.435
	c0.33-0.289,0.495-0.677,0.495-1.162c0-0.528-0.157-0.934-0.472-1.215c-0.314-0.282-0.769-0.425-1.362-0.429h-1.723V74.075z
	 M56.51,89.503h-3.697v3.023h4.295v0.92h-5.42v-8.531h5.361v0.92h-4.236v2.748h3.697V89.503z M61.292,88.185l2.045-3.27h1.324
	l-2.695,4.23l2.76,4.301h-1.336l-2.098-3.328l-2.109,3.328h-1.33l2.766-4.301l-2.701-4.23h1.318L61.292,88.185z M67.239,93.446
	h-1.125v-8.531h1.125V93.446z M71.809,89.644c-0.965-0.277-1.667-0.618-2.106-1.022s-0.659-0.903-0.659-1.497
	c0-0.672,0.269-1.228,0.806-1.667s1.235-0.659,2.095-0.659c0.586,0,1.108,0.113,1.567,0.34s0.814,0.539,1.066,0.938
	s0.378,0.834,0.378,1.307h-1.131c0-0.518-0.164-0.924-0.492-1.22s-0.791-0.444-1.389-0.444c-0.555,0-0.987,0.122-1.298,0.367
	c-0.311,0.244-0.466,0.584-0.466,1.019c0,0.348,0.147,0.643,0.442,0.883c0.295,0.241,0.797,0.461,1.506,0.66
	c0.709,0.2,1.264,0.42,1.664,0.66s0.697,0.521,0.891,0.841s0.29,0.697,0.29,1.131c0,0.691-0.27,1.245-0.809,1.661
	s-1.26,0.624-2.162,0.624c-0.586,0-1.133-0.112-1.641-0.337s-0.899-0.532-1.175-0.923s-0.413-0.834-0.413-1.33h1.131
	c0,0.516,0.19,0.923,0.571,1.222s0.89,0.448,1.526,0.448c0.594,0,1.049-0.121,1.365-0.363s0.475-0.572,0.475-0.99
	s-0.146-0.741-0.439-0.97S72.579,89.866,71.809,89.644z M82.309,85.835h-2.742v7.611h-1.119v-7.611h-2.736v-0.92h6.598V85.835z
	 M84.782,93.446h-1.125v-8.531h1.125V93.446z M93.395,93.446h-1.131l-4.295-6.574v6.574h-1.131v-8.531h1.131l4.307,6.604v-6.604
	h1.119V93.446z M101.692,92.327c-0.289,0.414-0.692,0.724-1.21,0.929s-1.12,0.308-1.808,0.308c-0.695,0-1.312-0.163-1.852-0.489
	s-0.956-0.79-1.251-1.392s-0.446-1.299-0.454-2.092v-0.744c0-1.285,0.3-2.281,0.899-2.988s1.442-1.061,2.528-1.061
	c0.891,0,1.607,0.228,2.15,0.683s0.875,1.101,0.996,1.937h-1.125c-0.211-1.133-0.883-1.699-2.016-1.699
	c-0.754,0-1.325,0.265-1.714,0.795c-0.389,0.529-0.585,1.297-0.589,2.302v0.697c0,0.958,0.219,1.72,0.656,2.284
	c0.438,0.565,1.029,0.848,1.775,0.848c0.422,0,0.791-0.047,1.107-0.141c0.316-0.093,0.578-0.251,0.785-0.473v-1.912h-1.975v-0.92
	h3.094V92.327z M28.857,99.915l2.789,6.961l2.789-6.961h1.459v8.531h-1.125v-3.322l0.105-3.586l-2.801,6.908h-0.861l-2.795-6.891
	l0.111,3.568v3.322h-1.125v-8.531H28.857z M42.697,106.214h-3.574l-0.803,2.232h-1.16l3.258-8.531h0.984l3.264,8.531h-1.154
	L42.697,106.214z M39.462,105.294h2.9l-1.453-3.99L39.462,105.294z M48.943,104.995h-2.004v3.451h-1.131v-8.531h2.824
	c0.961,0,1.7,0.219,2.218,0.656s0.776,1.074,0.776,1.91c0,0.531-0.144,0.994-0.431,1.389s-0.687,0.689-1.198,0.885l2.004,3.621v0.07
	h-1.207L48.943,104.995z M46.939,104.075h1.729c0.559,0,1.003-0.145,1.333-0.435c0.33-0.289,0.495-0.677,0.495-1.162
	c0-0.528-0.157-0.934-0.472-1.215c-0.314-0.282-0.769-0.425-1.362-0.429h-1.723V104.075z M55.371,104.48l-1.043,1.084v2.883h-1.125
	v-8.531h1.125v4.219l3.791-4.219h1.359l-3.357,3.768l3.621,4.764h-1.348L55.371,104.48z M65.548,104.503h-3.697v3.023h4.295v0.92
	h-5.42v-8.531h5.361v0.92h-4.236v2.748h3.697V104.503z M73.558,100.835h-2.742v7.611h-1.119v-7.611H66.96v-0.92h6.598V100.835z
	 M78.685,105.107v3.34H77.56v-8.531h3.146c0.934,0,1.665,0.238,2.194,0.715s0.794,1.107,0.794,1.893
	c0,0.828-0.259,1.466-0.776,1.913s-1.259,0.671-2.224,0.671H78.685z M78.685,104.187h2.021c0.602,0,1.062-0.142,1.383-0.426
	c0.32-0.283,0.48-0.693,0.48-1.229c0-0.509-0.16-0.916-0.48-1.221c-0.32-0.306-0.76-0.464-1.318-0.476h-2.086V104.187z
	 M91.693,104.456c0,0.836-0.141,1.565-0.422,2.188s-0.68,1.099-1.195,1.427s-1.117,0.492-1.805,0.492
	c-0.672,0-1.268-0.165-1.787-0.495s-0.923-0.801-1.21-1.412s-0.435-1.319-0.442-2.124v-0.615c0-0.82,0.143-1.545,0.428-2.174
	s0.688-1.11,1.21-1.444s1.118-0.501,1.79-0.501c0.684,0,1.286,0.165,1.808,0.495s0.923,0.809,1.204,1.436s0.422,1.356,0.422,2.188
	V104.456z M90.574,103.905c0-1.012-0.203-1.788-0.609-2.329s-0.975-0.812-1.705-0.812c-0.711,0-1.271,0.271-1.679,0.812
	s-0.618,1.292-0.63,2.253v0.627c0,0.98,0.206,1.751,0.618,2.312s0.979,0.841,1.702,0.841c0.727,0,1.289-0.265,1.688-0.794
	s0.604-1.288,0.615-2.276V103.905z M95.894,104.644c-0.965-0.277-1.667-0.618-2.106-1.022s-0.659-0.903-0.659-1.497
	c0-0.672,0.269-1.228,0.806-1.667s1.235-0.659,2.095-0.659c0.586,0,1.108,0.113,1.567,0.34s0.814,0.539,1.066,0.938
	s0.378,0.834,0.378,1.307H97.91c0-0.518-0.164-0.924-0.492-1.22s-0.791-0.444-1.389-0.444c-0.555,0-0.987,0.122-1.298,0.367
	c-0.311,0.244-0.466,0.584-0.466,1.019c0,0.348,0.147,0.643,0.442,0.883c0.295,0.241,0.797,0.461,1.506,0.66
	c0.709,0.2,1.264,0.42,1.664,0.66s0.697,0.521,0.891,0.841s0.29,0.697,0.29,1.131c0,0.691-0.27,1.245-0.809,1.661
	s-1.26,0.624-2.162,0.624c-0.586,0-1.133-0.112-1.641-0.337s-0.899-0.532-1.175-0.923s-0.413-0.834-0.413-1.33h1.131
	c0,0.516,0.19,0.923,0.571,1.222s0.89,0.448,1.526,0.448c0.594,0,1.049-0.121,1.365-0.363s0.475-0.572,0.475-0.99
	s-0.146-0.741-0.439-0.97S96.664,104.866,95.894,104.644z M101.707,108.446h-1.125v-8.531h1.125V108.446z M109.488,100.835h-2.742
	v7.611h-1.119v-7.611h-2.736v-0.92h6.598V100.835z M111.96,108.446h-1.125v-8.531h1.125V108.446z M120.58,104.456
	c0,0.836-0.141,1.565-0.422,2.188s-0.68,1.099-1.195,1.427s-1.117,0.492-1.805,0.492c-0.672,0-1.268-0.165-1.787-0.495
	s-0.923-0.801-1.21-1.412s-0.435-1.319-0.442-2.124v-0.615c0-0.82,0.143-1.545,0.428-2.174s0.688-1.11,1.21-1.444
	s1.118-0.501,1.79-0.501c0.684,0,1.286,0.165,1.808,0.495s0.923,0.809,1.204,1.436s0.422,1.356,0.422,2.188V104.456z
	 M119.46,103.905c0-1.012-0.203-1.788-0.609-2.329s-0.975-0.812-1.705-0.812c-0.711,0-1.271,0.271-1.679,0.812
	s-0.618,1.292-0.63,2.253v0.627c0,0.98,0.206,1.751,0.618,2.312s0.979,0.841,1.702,0.841c0.727,0,1.289-0.265,1.688-0.794
	s0.604-1.288,0.615-2.276V103.905z M128.824,108.446h-1.131l-4.295-6.574v6.574h-1.131v-8.531h1.131l4.307,6.604v-6.604h1.119
	V108.446z"/>
</svg>
